G04 #@! TF.GenerationSoftware,KiCad,Pcbnew,(5.1.2)-2*
G04 #@! TF.CreationDate,2020-03-31T11:29:23-04:00*
G04 #@! TF.ProjectId,huckleberry_pi,6875636b-6c65-4626-9572-72795f70692e,rev?*
G04 #@! TF.SameCoordinates,Original*
G04 #@! TF.FileFunction,Profile,NP*
%FSLAX46Y46*%
G04 Gerber Fmt 4.6, Leading zero omitted, Abs format (unit mm)*
G04 Created by KiCad (PCBNEW (5.1.2)-2) date 2020-03-31 11:29:23*
%MOMM*%
%LPD*%
G04 APERTURE LIST*
%ADD10C,0.050000*%
G04 APERTURE END LIST*
D10*
X76200000Y-152400000D02*
X228600000Y-152400000D01*
X76200000Y-50800000D02*
X76200000Y-152400000D01*
X228600000Y-50800000D02*
X76200000Y-50800000D01*
X228600000Y-152400000D02*
X228600000Y-50800000D01*
M02*
