EESchema Schematic File Version 4
LIBS:huckleberry_pi-cache
EELAYER 29 0
EELAYER END
$Descr A4 11693 8268
encoding utf-8
Sheet 2 6
Title "Huckleberry Pi"
Date "2020-03-26"
Rev "0"
Comp ""
Comment1 "Tibbo Plus One CPU"
Comment2 ""
Comment3 ""
Comment4 ""
$EndDescr
Text GLabel 7050 1850 2    50   Input ~ 0
SD_D2
Text GLabel 7050 1950 2    50   Input ~ 0
SD_D3
Text GLabel 7050 2050 2    50   Input ~ 0
SD_CMD
Text GLabel 7050 2150 2    50   Input ~ 0
SD_CLK
Text GLabel 7050 2250 2    50   Input ~ 0
SD_D0
Text GLabel 7050 2350 2    50   Input ~ 0
SD_D1
Text Label 6050 1150 1    50   ~ 0
eMMC_CLK
Text Label 7050 1650 0    50   ~ 0
eMMC_CMD
Text Label 6550 1150 1    50   ~ 0
eMMC_D5
Text Label 6450 1150 1    50   ~ 0
eMMC_D3
Text Label 6350 1150 1    50   ~ 0
eMMC_D4
Text Label 6250 1150 1    50   ~ 0
eMMC_D0
Text Label 6150 1150 1    50   ~ 0
eMMC_D1
Text Label 5850 1150 1    50   ~ 0
eMMC_D7
Text Label 5750 1150 1    50   ~ 0
eMMC_D6
Text GLabel 1600 1650 0    50   Input ~ 0
USB1_VBUS
Text GLabel 2350 1150 1    50   Input ~ 0
USB1_DM
Text GLabel 2450 1150 1    50   Input ~ 0
USB1_DP
Text GLabel 2650 1150 1    50   Input ~ 0
USB0_DP
Text GLabel 2750 1150 1    50   Input ~ 0
USB0_DM
Text GLabel 2950 1150 1    50   Input ~ 0
USB0_VBUS
NoConn ~ 2250 1150
NoConn ~ 1600 2650
NoConn ~ 1600 2750
Text GLabel 1600 2850 0    50   Input ~ 0
MIPI0_D1N
Text GLabel 1600 2950 0    50   Input ~ 0
MIPI0_D1P
Text GLabel 1600 3050 0    50   Input ~ 0
MIPI0_SN
Text GLabel 1600 3150 0    50   Input ~ 0
MIPI0_SP
Text GLabel 1600 3250 0    50   Input ~ 0
MIPI0_D0N
Text GLabel 1600 3350 0    50   Input ~ 0
MIPI0_D0P
NoConn ~ 1600 3450
NoConn ~ 1600 3550
Text GLabel 7050 2950 2    50   Input ~ 0
I2C_SCL
Text GLabel 7050 2450 2    50   Input ~ 0
I2C_SDA
Text GLabel 4050 1150 1    50   Input ~ 0
CAM_IO_0
Text GLabel 3950 1150 1    50   Input ~ 0
CAM_IO_1
Text GLabel 2850 1150 1    50   Input ~ 0
USB0_ID
$Comp
L power:+1V2 #PWR09
U 1 1 5E7E8EFE
P 1600 3750
F 0 "#PWR09" H 1600 3600 50  0001 C CNN
F 1 "+1V2" V 1615 3878 50  0000 L CNN
F 2 "" H 1600 3750 50  0001 C CNN
F 3 "" H 1600 3750 50  0001 C CNN
	1    1600 3750
	0    -1   -1   0   
$EndComp
$Comp
L power:+1V2 #PWR029
U 1 1 5E7FA016
P 4650 1150
F 0 "#PWR029" H 4650 1000 50  0001 C CNN
F 1 "+1V2" V 4665 1323 50  0000 C CNN
F 2 "" H 4650 1150 50  0001 C CNN
F 3 "" H 4650 1150 50  0001 C CNN
	1    4650 1150
	1    0    0    -1  
$EndComp
$Comp
L power:+1V2 #PWR032
U 1 1 5E801CF2
P 7050 2550
F 0 "#PWR032" H 7050 2400 50  0001 C CNN
F 1 "+1V2" V 7065 2678 50  0000 L CNN
F 2 "" H 7050 2550 50  0001 C CNN
F 3 "" H 7050 2550 50  0001 C CNN
	1    7050 2550
	0    1    1    0   
$EndComp
$Comp
L power:+1V2 #PWR038
U 1 1 5E812750
P 7050 5850
F 0 "#PWR038" H 7050 5700 50  0001 C CNN
F 1 "+1V2" V 7065 5978 50  0000 L CNN
F 2 "" H 7050 5850 50  0001 C CNN
F 3 "" H 7050 5850 50  0001 C CNN
	1    7050 5850
	0    1    1    0   
$EndComp
$Comp
L power:+1V2 #PWR026
U 1 1 5E821481
P 4450 6600
F 0 "#PWR026" H 4450 6450 50  0001 C CNN
F 1 "+1V2" V 4465 6773 50  0000 C CNN
F 2 "" H 4450 6600 50  0001 C CNN
F 3 "" H 4450 6600 50  0001 C CNN
	1    4450 6600
	-1   0    0    1   
$EndComp
$Comp
L power:+1V2 #PWR031
U 1 1 5E848E8C
P 5650 6600
F 0 "#PWR031" H 5650 6450 50  0001 C CNN
F 1 "+1V2" V 5665 6773 50  0000 C CNN
F 2 "" H 5650 6600 50  0001 C CNN
F 3 "" H 5650 6600 50  0001 C CNN
	1    5650 6600
	-1   0    0    1   
$EndComp
$Comp
L power:+1V2 #PWR030
U 1 1 5E84955E
P 5550 6600
F 0 "#PWR030" H 5550 6450 50  0001 C CNN
F 1 "+1V2" V 5565 6773 50  0000 C CNN
F 2 "" H 5550 6600 50  0001 C CNN
F 3 "" H 5550 6600 50  0001 C CNN
	1    5550 6600
	-1   0    0    1   
$EndComp
Text GLabel 1600 1750 0    50   Input ~ 0
HDMITX_CN
Text GLabel 1600 1850 0    50   Input ~ 0
HDMITX_CP
Text GLabel 1600 2050 0    50   Input ~ 0
HDMITX_DN0
Text GLabel 1600 2150 0    50   Input ~ 0
HDMITX_DP0
Text GLabel 1600 2250 0    50   Input ~ 0
HDMITX_DN1
Text GLabel 1600 2350 0    50   Input ~ 0
HDMITX_DP1
Text GLabel 1600 2450 0    50   Input ~ 0
HDMITX_DN2
Text GLabel 1600 2550 0    50   Input ~ 0
HDMITX_DP2
Text GLabel 7050 2850 2    50   Input ~ 0
DDC_SDA
Text GLabel 7050 2750 2    50   Input ~ 0
DDC_SCL
Text GLabel 7050 3050 2    50   Input ~ 0
HDMI_HPD
Text Label 3550 1150 1    50   ~ 0
RESET
$Comp
L Switch:SW_Push SW1
U 1 1 5E9EAF64
P 10800 2400
F 0 "SW1" H 10800 2593 50  0000 C CNN
F 1 "SW_Push" H 10800 2594 50  0001 C CNN
F 2 "Button_Switch_SMD:SW_SPST_EVQQ2" H 10800 2600 50  0001 C CNN
F 3 "https://dznh3ojzb2azq.cloudfront.net/products/Tactile/PTS645/documents/datasheet.pdf" H 10800 2600 50  0001 C CNN
F 4 "CKN9084CT-ND" H 10800 2400 50  0001 C CNN "Digi-Key_PN"
	1    10800 2400
	1    0    0    -1  
$EndComp
$Comp
L Device:R_US R8
U 1 1 5E9F607F
P 10600 2250
F 0 "R8" H 10450 2300 50  0000 L CNN
F 1 "10k" H 10400 2200 50  0000 L CNN
F 2 "Resistor_SMD:R_0603_1608Metric" V 10640 2240 50  0001 C CNN
F 3 "~" H 10600 2250 50  0001 C CNN
	1    10600 2250
	1    0    0    -1  
$EndComp
Text Label 10550 2400 3    50   ~ 0
RESET
$Comp
L power:+3V3 #PWR048
U 1 1 5E9F8E46
P 10600 2100
F 0 "#PWR048" H 10600 1950 50  0001 C CNN
F 1 "+3V3" H 10615 2273 50  0000 C CNN
F 2 "" H 10600 2100 50  0001 C CNN
F 3 "" H 10600 2100 50  0001 C CNN
	1    10600 2100
	1    0    0    -1  
$EndComp
$Comp
L power:GND #PWR054
U 1 1 5E9F90CA
P 11000 2400
F 0 "#PWR054" H 11000 2150 50  0001 C CNN
F 1 "GND" H 11005 2227 50  0000 C CNN
F 2 "" H 11000 2400 50  0001 C CNN
F 3 "" H 11000 2400 50  0001 C CNN
	1    11000 2400
	1    0    0    -1  
$EndComp
Wire Wire Line
	10550 2400 10600 2400
Connection ~ 10600 2400
Text Notes 10500 1850 0    50   ~ 0
RESET Circuit
Wire Notes Line
	10350 1750 10350 2650
Wire Notes Line
	10350 2650 11100 2650
Wire Notes Line
	11100 2650 11100 1750
Wire Notes Line
	11100 1750 10350 1750
Text Label 3050 1150 1    50   ~ 0
XTAL32K_OUT
Text Label 3150 1150 1    50   ~ 0
XTAL32K_IN
Text Label 3250 1150 1    50   ~ 0
RTC_BAT
NoConn ~ 4350 1150
NoConn ~ 4450 1150
Text Label 10100 1050 1    50   ~ 0
XTAL32K_OUT
Text Label 10400 1050 1    50   ~ 0
XTAL32K_IN
Text Label 10800 1150 1    50   ~ 0
RTC_BAT
$Comp
L Device:Crystal Y1
U 1 1 5EA10DE8
P 10250 1100
F 0 "Y1" H 10250 1276 50  0000 C CNN
F 1 "32.768kHz" H 10250 1277 50  0001 C CNN
F 2 "Crystal:Crystal_SMD_G8-2Pin_3.2x1.5mm" H 10250 1100 50  0001 C CNN
F 3 "https://support.epson.biz/td/api/doc_check.php?dl=brief_FC-135&lang=en" H 10250 1100 50  0001 C CNN
F 4 "SER4103CT-ND" H 10250 1100 50  0001 C CNN "Digi-Key_PN"
	1    10250 1100
	1    0    0    -1  
$EndComp
$Comp
L Device:C C9
U 1 1 5EA14F32
P 10400 1300
F 0 "C9" H 10515 1346 50  0000 L CNN
F 1 "15pF" H 10515 1255 50  0000 L CNN
F 2 "Capacitor_SMD:C_0603_1608Metric" H 10438 1150 50  0001 C CNN
F 3 "~" H 10400 1300 50  0001 C CNN
	1    10400 1300
	1    0    0    -1  
$EndComp
$Comp
L Device:C C7
U 1 1 5EA1501B
P 10100 1300
F 0 "C7" H 10215 1346 50  0000 L CNN
F 1 "15pF" H 10215 1255 50  0000 L CNN
F 2 "Capacitor_SMD:C_0603_1608Metric" H 10138 1150 50  0001 C CNN
F 3 "~" H 10100 1300 50  0001 C CNN
	1    10100 1300
	1    0    0    -1  
$EndComp
$Comp
L power:GND #PWR047
U 1 1 5EA155CC
P 10250 1450
F 0 "#PWR047" H 10250 1200 50  0001 C CNN
F 1 "GND" H 10255 1277 50  0000 C CNN
F 2 "" H 10250 1450 50  0001 C CNN
F 3 "" H 10250 1450 50  0001 C CNN
	1    10250 1450
	1    0    0    -1  
$EndComp
Wire Wire Line
	10100 1050 10100 1100
Wire Wire Line
	10400 1100 10400 1150
Wire Wire Line
	10400 1050 10400 1100
Connection ~ 10400 1100
Wire Wire Line
	10100 1100 10100 1150
Connection ~ 10100 1100
Wire Wire Line
	10100 1450 10250 1450
Wire Wire Line
	10250 1450 10400 1450
Connection ~ 10250 1450
$Comp
L Device:C C10
U 1 1 5EA161A3
P 10800 1300
F 0 "C10" H 10915 1346 50  0000 L CNN
F 1 "10uF" H 10915 1255 50  0000 L CNN
F 2 "Capacitor_SMD:C_0603_1608Metric" H 10838 1150 50  0001 C CNN
F 3 "~" H 10800 1300 50  0001 C CNN
	1    10800 1300
	1    0    0    -1  
$EndComp
$Comp
L power:GND #PWR052
U 1 1 5EA174CA
P 10800 1450
F 0 "#PWR052" H 10800 1200 50  0001 C CNN
F 1 "GND" H 10805 1277 50  0000 C CNN
F 2 "" H 10800 1450 50  0001 C CNN
F 3 "" H 10800 1450 50  0001 C CNN
	1    10800 1450
	1    0    0    -1  
$EndComp
Wire Notes Line
	11100 1700 10000 1700
Wire Notes Line
	10000 1700 10000 550 
Wire Notes Line
	10000 550  11100 550 
Wire Notes Line
	11100 550  11100 1700
Text Notes 10450 650  0    50   ~ 0
Crystal and RTC
Text Label 3850 1150 1    50   ~ 0
IV_MX3
Text Label 3750 1150 1    50   ~ 0
IV_MX4
Text Label 3650 1150 1    50   ~ 0
IV_MX5
Text Label 10950 4300 3    50   ~ 0
IV_MX3
Text Label 10800 4300 3    50   ~ 0
IV_MX4
Text Label 10650 5250 2    50   ~ 0
IV_MX5
$Comp
L Device:R_US R13
U 1 1 5EA598FE
P 10800 4150
F 0 "R13" H 10650 4200 50  0000 L CNN
F 1 "10k" H 10600 4100 50  0000 L CNN
F 2 "Resistor_SMD:R_0603_1608Metric" V 10840 4140 50  0001 C CNN
F 3 "~" H 10800 4150 50  0001 C CNN
	1    10800 4150
	1    0    0    -1  
$EndComp
$Comp
L Device:R_US R16
U 1 1 5EA5A7B5
P 10950 4150
F 0 "R16" H 11000 4200 50  0000 L CNN
F 1 "10k" H 11000 4100 50  0000 L CNN
F 2 "Resistor_SMD:R_0603_1608Metric" V 10990 4140 50  0001 C CNN
F 3 "~" H 10950 4150 50  0001 C CNN
	1    10950 4150
	1    0    0    -1  
$EndComp
$Comp
L Device:R_US R7
U 1 1 5EA5DE4D
P 10550 4150
F 0 "R7" H 10400 4200 50  0000 L CNN
F 1 "10k" H 10350 4100 50  0000 L CNN
F 2 "Resistor_SMD:R_0603_1608Metric" V 10590 4140 50  0001 C CNN
F 3 "~" H 10550 4150 50  0001 C CNN
	1    10550 4150
	1    0    0    -1  
$EndComp
$Comp
L huckleberry_pi-rescue:+3V3-16v_power #PWR?
U 1 1 5EA5E821
P 10800 3950
AR Path="/5EA5E821" Ref="#PWR?"  Part="1" 
AR Path="/5E74ACE7/5EA5E821" Ref="#PWR053"  Part="1" 
F 0 "#PWR053" H 10800 3800 50  0001 C CNN
F 1 "+3V3" H 10900 4050 50  0000 C CNN
F 2 "" H 10800 3950 50  0001 C CNN
F 3 "" H 10800 3950 50  0001 C CNN
	1    10800 3950
	1    0    0    -1  
$EndComp
Wire Wire Line
	10550 4000 10800 4000
Wire Wire Line
	10800 3950 10800 4000
Connection ~ 10800 4000
Wire Wire Line
	10950 4000 10800 4000
Text Label 4150 1150 1    50   ~ 0
JTAG_TRST
Text Label 4250 1150 1    50   ~ 0
JTAG_TDI
Text Label 10850 5250 0    50   ~ 0
JTAG_TRST
Text Label 10550 4300 3    50   ~ 0
JTAG_TDI
$Comp
L Switch:SW_DIP_x02 SW2
U 1 1 5EA6AD3F
P 10800 5600
F 0 "SW2" V 10800 5470 50  0000 R CNN
F 1 "SW_DIP_x02" V 10755 5470 50  0001 R CNN
F 2 "Button_Switch_SMD:SW_DIP_SPSTx02_Slide_Omron_A6S-210x_W8.9mm_P2.54mm" H 10800 5600 50  0001 C CNN
F 3 "https://omronfs.omron.com/en_US/ecb/products/pdf/en-a6sn.pdf" H 10800 5600 50  0001 C CNN
F 4 "Z5643CT-ND" V 10800 5600 50  0001 C CNN "Digi-Key_PN"
	1    10800 5600
	0    -1   -1   0   
$EndComp
$Comp
L Device:R_US R14
U 1 1 5EA6CBAC
P 10800 5000
F 0 "R14" H 10850 5050 50  0000 L CNN
F 1 "10k" H 10850 4950 50  0000 L CNN
F 2 "Resistor_SMD:R_0603_1608Metric" V 10840 4990 50  0001 C CNN
F 3 "~" H 10800 5000 50  0001 C CNN
	1    10800 5000
	1    0    0    -1  
$EndComp
$Comp
L Device:R_US R10
U 1 1 5EA6D274
P 10700 5000
F 0 "R10" H 10550 5050 50  0000 L CNN
F 1 "10k" H 10500 4950 50  0000 L CNN
F 2 "Resistor_SMD:R_0603_1608Metric" V 10740 4990 50  0001 C CNN
F 3 "~" H 10700 5000 50  0001 C CNN
	1    10700 5000
	1    0    0    -1  
$EndComp
$Comp
L Device:R_US R15
U 1 1 5EA6E48C
P 10800 6100
F 0 "R15" H 10850 6150 50  0000 L CNN
F 1 "100" H 10850 6050 50  0000 L CNN
F 2 "Resistor_SMD:R_0603_1608Metric" V 10840 6090 50  0001 C CNN
F 3 "~" H 10800 6100 50  0001 C CNN
	1    10800 6100
	1    0    0    -1  
$EndComp
$Comp
L Device:R_US R11
U 1 1 5EA6E9BF
P 10700 6100
F 0 "R11" H 10550 6150 50  0000 L CNN
F 1 "100" H 10500 6050 50  0000 L CNN
F 2 "Resistor_SMD:R_0603_1608Metric" V 10740 6090 50  0001 C CNN
F 3 "~" H 10700 6100 50  0001 C CNN
	1    10700 6100
	1    0    0    -1  
$EndComp
$Comp
L huckleberry_pi-rescue:+3V3-16v_power #PWR?
U 1 1 5EA7134E
P 10750 4800
AR Path="/5EA7134E" Ref="#PWR?"  Part="1" 
AR Path="/5E74ACE7/5EA7134E" Ref="#PWR050"  Part="1" 
F 0 "#PWR050" H 10750 4650 50  0001 C CNN
F 1 "+3V3" H 10850 4900 50  0000 C CNN
F 2 "" H 10750 4800 50  0001 C CNN
F 3 "" H 10750 4800 50  0001 C CNN
	1    10750 4800
	1    0    0    -1  
$EndComp
$Comp
L power:GND #PWR051
U 1 1 5EA72FCB
P 10750 6300
F 0 "#PWR051" H 10750 6050 50  0001 C CNN
F 1 "GND" H 10755 6127 50  0000 C CNN
F 2 "" H 10750 6300 50  0001 C CNN
F 3 "" H 10750 6300 50  0001 C CNN
	1    10750 6300
	1    0    0    -1  
$EndComp
Wire Wire Line
	10700 5150 10700 5250
Wire Wire Line
	10800 5150 10800 5250
Wire Wire Line
	10700 4850 10750 4850
Wire Wire Line
	10750 4850 10750 4800
Wire Wire Line
	10800 4850 10750 4850
Connection ~ 10750 4850
Wire Wire Line
	10700 6250 10750 6250
Wire Wire Line
	10750 6250 10750 6300
Wire Wire Line
	10800 6250 10750 6250
Connection ~ 10750 6250
Wire Wire Line
	10700 5900 10700 5950
Wire Wire Line
	10800 5900 10800 5950
Wire Wire Line
	10850 5250 10800 5250
Connection ~ 10800 5250
Wire Wire Line
	10800 5250 10800 5300
Wire Wire Line
	10650 5250 10700 5250
Connection ~ 10700 5250
Wire Wire Line
	10700 5250 10700 5300
Text Notes 9250 6550 0    50   ~ 0
              | IV_MX5 | TRST\neMMC Boot    |   1   | 1\nSD Card Boot |   0   | 0\nUSB_ISP      |   1    | 0
Wire Notes Line
	10350 3800 11200 3800
Wire Notes Line
	11200 3800 11200 6600
Wire Notes Line
	11200 6600 9200 6600
Wire Notes Line
	9200 6600 9200 6150
Wire Notes Line
	9200 6150 10350 6150
Wire Notes Line
	10350 6150 10350 3800
Text Label 4750 1150 1    50   ~ 0
JTAG_TMS
Text Label 4850 1150 1    50   ~ 0
JTAG_TCK
Text Label 5050 1150 1    50   ~ 0
JTAG_TDO
Text Label 4950 1150 1    50   ~ 0
JTAG_RTCK
$Comp
L Connector:Conn_01x03_Male J2
U 1 1 5EB18904
P 8550 6350
F 0 "J2" H 8658 6539 50  0000 C CNN
F 1 "Conn_01x03_Male" H 8658 6540 50  0001 C CNN
F 2 "Connector_PinHeader_2.54mm:PinHeader_1x03_P2.54mm_Vertical" H 8550 6350 50  0001 C CNN
F 3 "~" H 8550 6350 50  0001 C CNN
	1    8550 6350
	1    0    0    -1  
$EndComp
Text Label 5650 1150 1    50   ~ 0
UART0_TX
Text Label 5550 1150 1    50   ~ 0
UART0_RX
Text Label 8750 6250 0    50   ~ 0
UART0_TX
Text Label 8750 6350 0    50   ~ 0
UART0_RX
$Comp
L power:GND #PWR042
U 1 1 5EB20F29
P 8750 6450
F 0 "#PWR042" H 8750 6200 50  0001 C CNN
F 1 "GND" H 8755 6277 50  0000 C CNN
F 2 "" H 8750 6450 50  0001 C CNN
F 3 "" H 8750 6450 50  0001 C CNN
	1    8750 6450
	1    0    0    -1  
$EndComp
Text Notes 8500 6500 1    50   ~ 0
UART 0
Wire Notes Line
	8400 6100 8400 6650
Wire Notes Line
	8400 6650 9150 6650
Wire Notes Line
	9150 6650 9150 6100
Wire Notes Line
	9150 6100 8400 6100
Text GLabel 7050 5450 2    50   Input ~ 0
MAC_SMI_MDIO
Text GLabel 7050 5350 2    50   Input ~ 0
MAC_SMI_MDC
Text Label 8350 1900 2    50   ~ 0
eMMC_CLK
Text Label 8400 3100 2    50   ~ 0
eMMC_D5
Text Label 8400 2900 2    50   ~ 0
eMMC_D3
Text Label 8400 3000 2    50   ~ 0
eMMC_D4
Text Label 8400 2600 2    50   ~ 0
eMMC_D0
Text Label 8400 2700 2    50   ~ 0
eMMC_D1
Text Label 8400 3300 2    50   ~ 0
eMMC_D7
Text Label 8400 3200 2    50   ~ 0
eMMC_D6
Text Label 8400 2500 2    50   ~ 0
eMMC_CMD
Text Label 5950 1150 1    50   ~ 0
eMMC_D2
Text Label 8400 2800 2    50   ~ 0
eMMC_D2
$Comp
L Device:R_US R5
U 1 1 5E7C0509
P 8150 2350
F 0 "R5" H 8000 2450 50  0000 L CNN
F 1 "51k" H 7950 2300 50  0000 L CNN
F 2 "Resistor_SMD:R_0603_1608Metric" V 8190 2340 50  0001 C CNN
F 3 "~" H 8150 2350 50  0001 C CNN
	1    8150 2350
	0    1    1    0   
$EndComp
$Comp
L Device:R_US R4
U 1 1 5E7C3844
P 7950 2500
F 0 "R4" V 8000 2400 50  0000 L CNN
F 1 "10k" V 8050 2500 50  0000 L CNN
F 2 "Resistor_SMD:R_0603_1608Metric" V 7990 2490 50  0001 C CNN
F 3 "~" H 7950 2500 50  0001 C CNN
	1    7950 2500
	-1   0    0    1   
$EndComp
Text Label 7950 2650 3    50   ~ 0
eMMC_CMD
$Comp
L Device:R_US R6
U 1 1 5E7CBF0D
P 8400 2100
F 0 "R6" H 8450 2000 50  0000 L CNN
F 1 "10" H 8250 2100 50  0000 L CNN
F 2 "Resistor_SMD:R_0603_1608Metric" V 8440 2090 50  0001 C CNN
F 3 "~" H 8400 2100 50  0001 C CNN
	1    8400 2100
	-1   0    0    1   
$EndComp
Wire Wire Line
	8350 1900 8400 1900
Wire Wire Line
	8400 1900 8400 1950
Wire Wire Line
	8400 2250 8400 2300
NoConn ~ 9600 2800
$Comp
L Device:C C5
U 1 1 5E7D5101
P 9800 2750
F 0 "C5" H 9800 2850 50  0000 L CNN
F 1 "1uF" H 9800 2650 50  0000 L CNN
F 2 "Capacitor_SMD:C_0603_1608Metric" H 9838 2600 50  0001 C CNN
F 3 "~" H 9800 2750 50  0001 C CNN
	1    9800 2750
	-1   0    0    1   
$EndComp
$Comp
L power:GND #PWR046
U 1 1 5E7D5981
P 9950 3300
F 0 "#PWR046" H 9950 3050 50  0001 C CNN
F 1 "GND" H 9955 3127 50  0000 C CNN
F 2 "" H 9950 3300 50  0001 C CNN
F 3 "" H 9950 3300 50  0001 C CNN
	1    9950 3300
	1    0    0    -1  
$EndComp
$Comp
L Device:C C6
U 1 1 5E7DEAC8
P 9950 2550
F 0 "C6" H 9950 2650 50  0000 L CNN
F 1 "0.1uF" H 9850 2450 50  0000 L CNN
F 2 "Capacitor_SMD:C_0603_1608Metric" H 9988 2400 50  0001 C CNN
F 3 "~" H 9950 2550 50  0001 C CNN
	1    9950 2550
	-1   0    0    1   
$EndComp
$Comp
L Device:C C8
U 1 1 5E7DF08B
P 10150 2450
F 0 "C8" H 10150 2550 50  0000 L CNN
F 1 "0.1uF" H 10050 2350 50  0000 L CNN
F 2 "Capacitor_SMD:C_0603_1608Metric" H 10188 2300 50  0001 C CNN
F 3 "~" H 10150 2450 50  0001 C CNN
	1    10150 2450
	-1   0    0    1   
$EndComp
Wire Wire Line
	9600 2300 9700 2300
Connection ~ 9700 2300
Wire Wire Line
	9700 2300 9700 2400
Wire Wire Line
	9700 2400 9600 2400
Text Notes 8650 1950 0    50   ~ 0
8GB eMMC storage
Wire Notes Line
	7800 1800 7800 3550
Wire Notes Line
	10250 3550 10250 1800
Wire Wire Line
	7950 2300 7950 2350
Wire Wire Line
	8000 2350 7950 2350
Connection ~ 7950 2350
Wire Wire Line
	10150 2300 9700 2300
Wire Wire Line
	9950 2400 9700 2400
Connection ~ 9700 2400
Wire Wire Line
	9600 2600 9800 2600
Wire Wire Line
	9950 3300 9950 3200
Wire Wire Line
	9600 3200 9950 3200
Connection ~ 9950 3200
Wire Wire Line
	9950 3200 9950 2900
Wire Wire Line
	9600 3300 9950 3300
Connection ~ 9950 3300
Wire Wire Line
	9800 2900 9950 2900
Connection ~ 9950 2900
Wire Wire Line
	9950 2900 9950 2700
Wire Wire Line
	10150 2600 10150 2900
Wire Wire Line
	10150 2900 9950 2900
Wire Notes Line
	10250 3550 7800 3550
Wire Notes Line
	7800 1800 10250 1800
Wire Wire Line
	8400 2400 8300 2400
Wire Wire Line
	8300 2400 8300 2350
Text GLabel 7050 5750 2    50   Input ~ 0
UserLED
$Comp
L power:+1V5 #PWR02
U 1 1 5E99DF58
P 1050 5150
F 0 "#PWR02" H 1050 5000 50  0001 C CNN
F 1 "+1V5" V 1065 5278 50  0000 L CNN
F 2 "" H 1050 5150 50  0001 C CNN
F 3 "" H 1050 5150 50  0001 C CNN
	1    1050 5150
	0    -1   -1   0   
$EndComp
$Comp
L power:GND #PWR06
U 1 1 5E99E901
P 1550 5300
F 0 "#PWR06" H 1550 5050 50  0001 C CNN
F 1 "GND" V 1555 5172 50  0000 R CNN
F 2 "" H 1550 5300 50  0001 C CNN
F 3 "" H 1550 5300 50  0001 C CNN
	1    1550 5300
	0    1    1    0   
$EndComp
Wire Wire Line
	1600 5350 1550 5350
Wire Wire Line
	1550 5350 1550 5300
Wire Wire Line
	1600 5250 1550 5250
Wire Wire Line
	1550 5250 1550 5300
Connection ~ 1550 5300
$Comp
L power:GND #PWR022
U 1 1 5E9A1F77
P 1600 5650
F 0 "#PWR022" H 1600 5400 50  0001 C CNN
F 1 "GND" V 1605 5522 50  0000 R CNN
F 2 "" H 1600 5650 50  0001 C CNN
F 3 "" H 1600 5650 50  0001 C CNN
	1    1600 5650
	0    1    1    0   
$EndComp
$Comp
L power:+1V2 #PWR08
U 1 1 5E9AA95C
P 1600 3650
F 0 "#PWR08" H 1600 3500 50  0001 C CNN
F 1 "+1V2" V 1615 3778 50  0000 L CNN
F 2 "" H 1600 3650 50  0001 C CNN
F 3 "" H 1600 3650 50  0001 C CNN
	1    1600 3650
	0    -1   -1   0   
$EndComp
$Comp
L power:+1V2 #PWR011
U 1 1 5E9AAC74
P 1600 3950
F 0 "#PWR011" H 1600 3800 50  0001 C CNN
F 1 "+1V2" V 1615 4078 50  0000 L CNN
F 2 "" H 1600 3950 50  0001 C CNN
F 3 "" H 1600 3950 50  0001 C CNN
	1    1600 3950
	0    -1   -1   0   
$EndComp
$Comp
L power:+1V2 #PWR07
U 1 1 5E9B0780
P 1600 1950
F 0 "#PWR07" H 1600 1800 50  0001 C CNN
F 1 "+1V2" V 1615 2078 50  0000 L CNN
F 2 "" H 1600 1950 50  0001 C CNN
F 3 "" H 1600 1950 50  0001 C CNN
	1    1600 1950
	0    -1   -1   0   
$EndComp
NoConn ~ 3450 1150
$Comp
L power:GND #PWR034
U 1 1 5E9F6EFC
P 7050 4350
F 0 "#PWR034" H 7050 4100 50  0001 C CNN
F 1 "GND" V 7055 4222 50  0000 R CNN
F 2 "" H 7050 4350 50  0001 C CNN
F 3 "" H 7050 4350 50  0001 C CNN
	1    7050 4350
	0    -1   -1   0   
$EndComp
$Comp
L Device:L L3
U 1 1 5E9FDC4E
P 7500 4450
F 0 "L3" V 7319 4450 50  0000 C CNN
F 1 "4.7uH" V 7410 4450 50  0000 C CNN
F 2 "Inductor_SMD:L_0603_1608Metric" H 7500 4450 50  0001 C CNN
F 3 "~" H 7500 4450 50  0001 C CNN
	1    7500 4450
	0    1    1    0   
$EndComp
Wire Wire Line
	7050 4450 7350 4450
Wire Wire Line
	7750 4450 7700 4450
Wire Wire Line
	7050 4650 7200 4650
Wire Wire Line
	7700 4650 7700 4450
Connection ~ 7700 4450
Wire Wire Line
	7700 4450 7650 4450
$Comp
L Device:L L2
U 1 1 5EA11D70
P 1200 5150
F 0 "L2" V 1019 5150 50  0000 C CNN
F 1 "4.7uH" V 1110 5150 50  0000 C CNN
F 2 "Inductor_SMD:L_0603_1608Metric" H 1200 5150 50  0001 C CNN
F 3 "~" H 1200 5150 50  0001 C CNN
	1    1200 5150
	0    1    1    0   
$EndComp
$Comp
L power:+1V2 #PWR01
U 1 1 5E99D402
P 1000 5450
F 0 "#PWR01" H 1000 5300 50  0001 C CNN
F 1 "+1V2" V 1015 5578 50  0000 L CNN
F 2 "" H 1000 5450 50  0001 C CNN
F 3 "" H 1000 5450 50  0001 C CNN
	1    1000 5450
	0    -1   -1   0   
$EndComp
$Comp
L Device:L L1
U 1 1 5EA257C7
P 1150 5450
F 0 "L1" V 969 5450 50  0000 C CNN
F 1 "4.7uH" V 1060 5450 50  0000 C CNN
F 2 "Inductor_SMD:L_0603_1608Metric" H 1150 5450 50  0001 C CNN
F 3 "~" H 1150 5450 50  0001 C CNN
	1    1150 5450
	0    1    1    0   
$EndComp
Wire Wire Line
	1600 5150 1350 5150
Wire Wire Line
	1300 5450 1600 5450
Text Label 7750 4450 0    50   ~ 0
0.9V
Wire Wire Line
	7050 4750 7200 4750
Wire Wire Line
	7200 4750 7200 4650
Connection ~ 7200 4650
Wire Wire Line
	7200 4650 7700 4650
$Comp
L power:+1V2 #PWR036
U 1 1 5EA32DD1
P 7050 4850
F 0 "#PWR036" H 7050 4700 50  0001 C CNN
F 1 "+1V2" V 7065 4978 50  0000 L CNN
F 2 "" H 7050 4850 50  0001 C CNN
F 3 "" H 7050 4850 50  0001 C CNN
	1    7050 4850
	0    1    1    0   
$EndComp
$Comp
L power:+1V2 #PWR037
U 1 1 5EA33344
P 7050 4950
F 0 "#PWR037" H 7050 4800 50  0001 C CNN
F 1 "+1V2" V 7065 5078 50  0000 L CNN
F 2 "" H 7050 4950 50  0001 C CNN
F 3 "" H 7050 4950 50  0001 C CNN
	1    7050 4950
	0    1    1    0   
$EndComp
Text Label 5750 6650 3    50   ~ 0
0.9V
Text Label 5450 6650 3    50   ~ 0
0.9V
Wire Wire Line
	5450 6600 5450 6650
Wire Wire Line
	5750 6600 5750 6650
$Comp
L Device:C C3
U 1 1 5EA48D02
P 7700 4800
F 0 "C3" H 7700 4900 50  0000 L CNN
F 1 "0.1uF" H 7600 4700 50  0000 L CNN
F 2 "Capacitor_SMD:C_0603_1608Metric" H 7738 4650 50  0001 C CNN
F 3 "~" H 7700 4800 50  0001 C CNN
	1    7700 4800
	-1   0    0    1   
$EndComp
Connection ~ 7700 4650
$Comp
L Device:C C4
U 1 1 5EA49D0F
P 8000 4800
F 0 "C4" H 8000 4900 50  0000 L CNN
F 1 "0.1uF" H 7900 4700 50  0000 L CNN
F 2 "Capacitor_SMD:C_0603_1608Metric" H 8038 4650 50  0001 C CNN
F 3 "~" H 8000 4800 50  0001 C CNN
	1    8000 4800
	-1   0    0    1   
$EndComp
$Comp
L power:GND #PWR040
U 1 1 5EA4A266
P 7850 4950
F 0 "#PWR040" H 7850 4700 50  0001 C CNN
F 1 "GND" H 7855 4777 50  0000 C CNN
F 2 "" H 7850 4950 50  0001 C CNN
F 3 "" H 7850 4950 50  0001 C CNN
	1    7850 4950
	1    0    0    -1  
$EndComp
Wire Wire Line
	7700 4950 7850 4950
Wire Wire Line
	7850 4950 8000 4950
Connection ~ 7850 4950
Wire Wire Line
	8000 4650 7700 4650
$Comp
L power:+1V2 #PWR014
U 1 1 5EA5D41A
P 1600 4250
F 0 "#PWR014" H 1600 4100 50  0001 C CNN
F 1 "+1V2" V 1615 4378 50  0000 L CNN
F 2 "" H 1600 4250 50  0001 C CNN
F 3 "" H 1600 4250 50  0001 C CNN
	1    1600 4250
	0    -1   -1   0   
$EndComp
$Comp
L power:+1V2 #PWR016
U 1 1 5EA5DDB2
P 1600 4450
F 0 "#PWR016" H 1600 4300 50  0001 C CNN
F 1 "+1V2" V 1615 4578 50  0000 L CNN
F 2 "" H 1600 4450 50  0001 C CNN
F 3 "" H 1600 4450 50  0001 C CNN
	1    1600 4450
	0    -1   -1   0   
$EndComp
$Comp
L power:+1V5 #PWR013
U 1 1 5EA5F3D4
P 1600 4150
F 0 "#PWR013" H 1600 4000 50  0001 C CNN
F 1 "+1V5" V 1615 4278 50  0000 L CNN
F 2 "" H 1600 4150 50  0001 C CNN
F 3 "" H 1600 4150 50  0001 C CNN
	1    1600 4150
	0    -1   -1   0   
$EndComp
$Comp
L power:+1V5 #PWR015
U 1 1 5EA5FEBE
P 1600 4350
F 0 "#PWR015" H 1600 4200 50  0001 C CNN
F 1 "+1V5" V 1615 4478 50  0000 L CNN
F 2 "" H 1600 4350 50  0001 C CNN
F 3 "" H 1600 4350 50  0001 C CNN
	1    1600 4350
	0    -1   -1   0   
$EndComp
$Comp
L power:+1V5 #PWR017
U 1 1 5EA60387
P 1600 4550
F 0 "#PWR017" H 1600 4400 50  0001 C CNN
F 1 "+1V5" V 1615 4678 50  0000 L CNN
F 2 "" H 1600 4550 50  0001 C CNN
F 3 "" H 1600 4550 50  0001 C CNN
	1    1600 4550
	0    -1   -1   0   
$EndComp
$Comp
L power:+1V5 #PWR012
U 1 1 5EA60F77
P 1600 4050
F 0 "#PWR012" H 1600 3900 50  0001 C CNN
F 1 "+1V5" V 1615 4178 50  0000 L CNN
F 2 "" H 1600 4050 50  0001 C CNN
F 3 "" H 1600 4050 50  0001 C CNN
	1    1600 4050
	0    -1   -1   0   
$EndComp
$Comp
L Device:R_US R3
U 1 1 5EA8FF1C
P 1250 4850
F 0 "R3" V 1318 4896 50  0000 L CNN
F 1 "240" V 1300 4650 50  0000 L CNN
F 2 "Resistor_SMD:R_0603_1608Metric" V 1290 4840 50  0001 C CNN
F 3 "~" H 1250 4850 50  0001 C CNN
	1    1250 4850
	0    -1   -1   0   
$EndComp
$Comp
L power:GND #PWR03
U 1 1 5EA9EDA3
P 1100 4850
F 0 "#PWR03" H 1100 4600 50  0001 C CNN
F 1 "GND" V 1105 4722 50  0000 R CNN
F 2 "" H 1100 4850 50  0001 C CNN
F 3 "" H 1100 4850 50  0001 C CNN
	1    1100 4850
	0    1    1    0   
$EndComp
Text Label 1600 4750 2    50   ~ 0
DDR3_VREF
Wire Wire Line
	1600 4850 1400 4850
Wire Notes Line
	550  7750 1550 7750
Wire Notes Line
	550  6450 550  7750
Wire Notes Line
	1550 6450 550  6450
Wire Notes Line
	1550 7750 1550 6450
Text Notes 1500 6700 3    50   ~ 0
Reference Voltage.\nUse Accurate resistors
Connection ~ 1150 6750
Wire Wire Line
	1250 6750 1150 6750
Wire Wire Line
	1150 6750 1150 6700
Wire Wire Line
	1100 6750 1150 6750
Connection ~ 1250 7100
Wire Wire Line
	1250 7100 1250 7150
Wire Wire Line
	1100 7150 1100 7100
Wire Wire Line
	1100 7100 1250 7100
Connection ~ 1100 7100
Wire Wire Line
	1100 7050 1100 7100
Connection ~ 1150 7450
Wire Wire Line
	1250 7450 1150 7450
Wire Wire Line
	1150 7450 1150 7500
Wire Wire Line
	1100 7450 1150 7450
Wire Wire Line
	1250 7100 1250 7050
Wire Wire Line
	1000 7100 1100 7100
$Comp
L Device:C C2
U 1 1 5EB5E78F
P 1250 7300
F 0 "C2" H 1150 7400 50  0000 L CNN
F 1 "0.1uF" H 1150 7200 50  0000 L CNN
F 2 "Capacitor_SMD:C_0603_1608Metric" H 1288 7150 50  0001 C CNN
F 3 "~" H 1250 7300 50  0001 C CNN
	1    1250 7300
	-1   0    0    1   
$EndComp
$Comp
L Device:R_US R2
U 1 1 5EB5E795
P 1100 7300
F 0 "R2" H 1000 7400 50  0000 L CNN
F 1 "2k" H 950 7300 50  0000 L CNN
F 2 "Resistor_SMD:R_0603_1608Metric" V 1140 7290 50  0001 C CNN
F 3 "~" H 1100 7300 50  0001 C CNN
	1    1100 7300
	1    0    0    -1  
$EndComp
$Comp
L Device:C C1
U 1 1 5EB5E79B
P 1250 6900
F 0 "C1" H 1150 7000 50  0000 L CNN
F 1 "0.1uF" H 1150 6800 50  0000 L CNN
F 2 "Capacitor_SMD:C_0603_1608Metric" H 1288 6750 50  0001 C CNN
F 3 "~" H 1250 6900 50  0001 C CNN
	1    1250 6900
	-1   0    0    1   
$EndComp
$Comp
L Device:R_US R1
U 1 1 5EB5E7A1
P 1100 6900
F 0 "R1" H 1000 7000 50  0000 L CNN
F 1 "2k" H 950 6900 50  0000 L CNN
F 2 "Resistor_SMD:R_0603_1608Metric" V 1140 6890 50  0001 C CNN
F 3 "~" H 1100 6900 50  0001 C CNN
	1    1100 6900
	1    0    0    -1  
$EndComp
$Comp
L power:GND #PWR05
U 1 1 5EB5E7A7
P 1150 7500
F 0 "#PWR05" H 1150 7250 50  0001 C CNN
F 1 "GND" H 1155 7327 50  0000 C CNN
F 2 "" H 1150 7500 50  0001 C CNN
F 3 "" H 1150 7500 50  0001 C CNN
	1    1150 7500
	1    0    0    -1  
$EndComp
$Comp
L power:+1V5 #PWR04
U 1 1 5EB5E7AD
P 1150 6700
F 0 "#PWR04" H 1150 6550 50  0001 C CNN
F 1 "+1V5" H 1165 6873 50  0000 C CNN
F 2 "" H 1150 6700 50  0001 C CNN
F 3 "" H 1150 6700 50  0001 C CNN
	1    1150 6700
	1    0    0    -1  
$EndComp
Text Label 1000 7100 2    50   ~ 0
DDR3_VREF
Text GLabel 7050 3750 2    50   Input ~ 0
RMII_1_RXER
Text GLabel 7050 3650 2    50   Input ~ 0
RMII_1_CRSDV
Text GLabel 7050 3550 2    50   Input ~ 0
RMII_1_RXD_0
Text GLabel 7050 3450 2    50   Input ~ 0
RMII_1_RXD_1
Text GLabel 7050 3350 2    50   Input ~ 0
RMII_1_TXD_0
Text GLabel 7050 3250 2    50   Input ~ 0
RMII_1_TXD_1
Text GLabel 7050 3150 2    50   Input ~ 0
RMII_1_TXEN
Text GLabel 7050 4150 2    50   Input ~ 0
RMII_CLK_OUT
Text GLabel 7050 5250 2    50   Input ~ 0
RMII_0_RXER
Text GLabel 7050 5150 2    50   Input ~ 0
RMII_0_CRSDV
Text GLabel 7050 5050 2    50   Input ~ 0
RMII_0_RXD_0
Text GLabel 7050 4250 2    50   Input ~ 0
RMII_0_RXD_1
Text GLabel 7050 4050 2    50   Input ~ 0
RMII_0_TXD_0
Text GLabel 7050 3950 2    50   Input ~ 0
RMII_0_TXD_1
Text GLabel 7050 3850 2    50   Input ~ 0
RMII_0_TXEN
$Comp
L Connector:Conn_01x08_Male J1
U 1 1 5ED68E52
P 2200 7750
F 0 "J1" V 2300 8200 50  0000 C CNN
F 1 "Conn_01x08_Male" V 2036 7678 50  0001 C CNN
F 2 "Connector_PinHeader_2.54mm:PinHeader_1x08_P2.54mm_Vertical" H 2200 7750 50  0001 C CNN
F 3 "~" H 2200 7750 50  0001 C CNN
	1    2200 7750
	0    -1   -1   0   
$EndComp
Text Notes 1850 7100 0    50   ~ 0
Breakout 8 GPIO Pins
$Comp
L SP7021:SP7021 U1
U 1 1 5E74AE43
P 4050 3600
F 0 "U1" H 4100 4000 50  0000 C CNN
F 1 "SP7021" H 4100 3750 50  0000 C CNN
F 2 "footprints:SP7021" H 3950 3450 50  0001 C CNN
F 3 "https://www.snapeda.com/parts/SP7021/Sunplus%20Technology%20CO/datasheet/" H 4050 3600 50  0001 C CNN
F 4 "https://tibbo.com/store/plus1.html" H 4050 3600 50  0001 C CNN "orderLink"
F 5 "https://sunplus-tibbo.atlassian.net/wiki/spaces/doc/pages/375783456/Demo+Board" H 4050 3600 50  0001 C CNN "otherInfo"
	1    4050 3600
	1    0    0    -1  
$EndComp
Text Label 1600 5750 2    50   ~ 0
GPIO_P0_0
Text Label 1600 5850 2    50   ~ 0
GPIO_P0_1
Text Label 1600 5950 2    50   ~ 0
GPIO_P0_2
Text Label 2250 6600 3    50   ~ 0
GPIO_P0_3
Text Label 2350 6600 3    50   ~ 0
GPIO_P0_4
Text Label 2450 6600 3    50   ~ 0
GPIO_P0_5
Text Label 2650 6600 3    50   ~ 0
GPIO_P0_6
Text Label 2750 6600 3    50   ~ 0
GPIO_P0_7
Text Label 1900 7550 1    50   ~ 0
GPIO_P0_0
Text Label 2000 7550 1    50   ~ 0
GPIO_P0_1
Text Label 2100 7550 1    50   ~ 0
GPIO_P0_2
Text Label 2200 7550 1    50   ~ 0
GPIO_P0_3
Text Label 2300 7550 1    50   ~ 0
GPIO_P0_4
Text Label 2400 7550 1    50   ~ 0
GPIO_P0_5
Text Label 2500 7550 1    50   ~ 0
GPIO_P0_6
Text Label 2600 7550 1    50   ~ 0
GPIO_P0_7
Wire Notes Line
	2700 7750 1700 7750
Wire Notes Line
	1700 7750 1700 7000
Wire Notes Line
	1700 7000 2700 7000
Wire Notes Line
	2700 7000 2700 7750
Text GLabel 5850 6600 3    50   Input ~ 0
GPIO_P4_0
Text GLabel 5950 6600 3    50   Input ~ 0
GPIO_P4_1
Text GLabel 6050 6600 3    50   Input ~ 0
GPIO_P4_2
Text GLabel 6150 6600 3    50   Input ~ 0
GPIO_P4_3
Text GLabel 6250 6600 3    50   Input ~ 0
GPIO_P4_4
Text GLabel 6350 6600 3    50   Input ~ 0
GPIO_P4_5
Text GLabel 6450 6600 3    50   Input ~ 0
GPIO_P4_6
Text GLabel 6550 6600 3    50   Input ~ 0
GPIO_P4_7
Text GLabel 2850 6600 3    50   Input ~ 0
GPIO_P1_0
Text GLabel 2950 6600 3    50   Input ~ 0
GPIO_P1_1
Text GLabel 3050 6600 3    50   Input ~ 0
GPIO_P1_2
Text GLabel 3150 6600 3    50   Input ~ 0
GPIO_P1_3
Text GLabel 3250 6600 3    50   Input ~ 0
GPIO_P1_4
Text GLabel 3350 6600 3    50   Input ~ 0
GPIO_P1_5
Text GLabel 3450 6600 3    50   Input ~ 0
GPIO_P1_6
Text GLabel 3550 6600 3    50   Input ~ 0
GPIO_P1_7
Text GLabel 3650 6600 3    50   Input ~ 0
GPIO_P2_0
Text GLabel 3750 6600 3    50   Input ~ 0
GPIO_P2_1
Text GLabel 3850 6600 3    50   Input ~ 0
GPIO_P2_2
Text GLabel 3950 6600 3    50   Input ~ 0
GPIO_P2_3
Text GLabel 4050 6600 3    50   Input ~ 0
GPIO_P2_4
Text GLabel 4150 6600 3    50   Input ~ 0
GPIO_P2_5
Text GLabel 4250 6600 3    50   Input ~ 0
GPIO_P2_6
Text GLabel 4350 6600 3    50   Input ~ 0
GPIO_P2_7
Text GLabel 4650 6600 3    50   Input ~ 0
GPIO_P3_0
Text GLabel 4750 6600 3    50   Input ~ 0
GPIO_P3_1
Text GLabel 4850 6600 3    50   Input ~ 0
GPIO_P3_2
Text GLabel 4950 6600 3    50   Input ~ 0
GPIO_P3_3
Text GLabel 5050 6600 3    50   Input ~ 0
GPIO_P3_4
Text GLabel 5150 6600 3    50   Input ~ 0
GPIO_P3_5
Text GLabel 5250 6600 3    50   Input ~ 0
GPIO_P3_6
Text GLabel 5350 6600 3    50   Input ~ 0
GPIO_P3_7
NoConn ~ 7050 5550
NoConn ~ 7050 5650
NoConn ~ 7050 1750
NoConn ~ 5450 1150
NoConn ~ 5250 1150
NoConn ~ 5150 1150
NoConn ~ 5350 1150
$Comp
L eMMC_VFBGA_153:IS21ES04G-JQLI U2
U 1 1 5E817C7D
P 9000 2750
F 0 "U2" H 9000 3467 50  0000 C CNN
F 1 "IS21ES04G-JQLI" H 9000 3376 50  0000 C CNN
F 2 "footprints:100_FBGA" H 9000 2750 50  0001 C CNN
F 3 "http://www.issi.com/WW/pdf/IS21-22ES04G.pdf" H 9000 2750 50  0001 C CNN
F 4 "706-IS21ES04G-JQLI-ND" H 9000 3375 50  0001 C CNN "Digi-Key_PN"
	1    9000 2750
	1    0    0    -1  
$EndComp
$Comp
L power:GND #PWR010
U 1 1 5EC3801B
P 1750 6600
F 0 "#PWR010" H 1750 6350 50  0001 C CNN
F 1 "GND" H 1755 6472 50  0000 R CNN
F 2 "" H 1750 6600 50  0001 C CNN
F 3 "" H 1750 6600 50  0001 C CNN
	1    1750 6600
	1    0    0    -1  
$EndComp
Text GLabel 1600 5550 0    50   Input ~ 0
3v3_CPU
Text GLabel 2550 6600 3    50   Input ~ 0
3v3_CPU
Text GLabel 4550 6600 3    50   Input ~ 0
3v3_CPU
Text GLabel 7050 5950 2    50   Input ~ 0
3v3_CPU
Text GLabel 7050 4550 2    50   Input ~ 0
3v3_CPU
Text GLabel 7050 2650 2    50   Input ~ 0
3v3_CPU
Text GLabel 7950 2300 0    50   Input ~ 0
3v3_eMMC
Text GLabel 9700 2200 2    50   Input ~ 0
3v3_eMMC
Wire Wire Line
	9700 2200 9700 2300
Text GLabel 4550 1150 1    50   Input ~ 0
3v3_CPU
Text GLabel 3350 1150 1    50   Input ~ 0
3v3_CPU
Text GLabel 2550 1150 1    50   Input ~ 0
3v3_CPU
Text GLabel 1600 4650 0    50   Input ~ 0
3v3_CPU
Text GLabel 1600 3850 0    50   Input ~ 0
3v3_CPU
Text GLabel 1600 5050 0    50   Input ~ 0
3v3_CPU
Text GLabel 1600 4950 0    50   Input ~ 0
3v3_CPU
$EndSCHEMATC
