EESchema Schematic File Version 4
LIBS:huckleberry_pi-cache
EELAYER 29 0
EELAYER END
$Descr A4 11693 8268
encoding utf-8
Sheet 5 6
Title "Huckleberry Pi"
Date "2020-03-26"
Rev "0"
Comp ""
Comment1 ""
Comment2 ""
Comment3 ""
Comment4 ""
$EndDescr
$Comp
L Interface_Ethernet:DP83848C U11
U 1 1 5EB41B44
P 8250 2750
F 0 "U11" H 7450 4300 50  0000 C CNN
F 1 "DP83848C" H 8850 4300 50  0000 C CNN
F 2 "Package_QFP:LQFP-48_7x7mm_P0.5mm" H 9250 1200 50  0001 C CNN
F 3 "http://www.ti.com/lit/ds/symlink/dp83848c.pdf" H 8250 2750 50  0001 C CNN
F 4 "DP83848CVV/NOPB-ND" H 8250 2750 50  0001 C CNN "Digi-Key_PN"
	1    8250 2750
	1    0    0    -1  
$EndComp
$Comp
L power:+3V3 #PWR0154
U 1 1 5EB4BEC4
P 8250 1000
F 0 "#PWR0154" H 8250 850 50  0001 C CNN
F 1 "+3V3" H 8265 1173 50  0000 C CNN
F 2 "" H 8250 1000 50  0001 C CNN
F 3 "" H 8250 1000 50  0001 C CNN
	1    8250 1000
	1    0    0    -1  
$EndComp
$Comp
L power:+3V3 #PWR0133
U 1 1 5EB4C1A9
P 1000 5300
F 0 "#PWR0133" H 1000 5150 50  0001 C CNN
F 1 "+3V3" H 1015 5473 50  0000 C CNN
F 2 "" H 1000 5300 50  0001 C CNN
F 3 "" H 1000 5300 50  0001 C CNN
	1    1000 5300
	1    0    0    -1  
$EndComp
$Comp
L Device:C C74
U 1 1 5EB4C90A
P 800 5450
F 0 "C74" H 915 5496 50  0000 L CNN
F 1 "0.1uF" H 915 5405 50  0000 L CNN
F 2 "Capacitor_SMD:C_0603_1608Metric" H 838 5300 50  0001 C CNN
F 3 "~" H 800 5450 50  0001 C CNN
	1    800  5450
	1    0    0    -1  
$EndComp
$Comp
L Device:C C75
U 1 1 5EB4D063
P 1250 5450
F 0 "C75" H 1365 5496 50  0000 L CNN
F 1 "0.1uF" H 1365 5405 50  0000 L CNN
F 2 "Capacitor_SMD:C_0603_1608Metric" H 1288 5300 50  0001 C CNN
F 3 "~" H 1250 5450 50  0001 C CNN
	1    1250 5450
	1    0    0    -1  
$EndComp
$Comp
L Device:C C76
U 1 1 5EB4D45A
P 1700 5450
F 0 "C76" H 1815 5496 50  0000 L CNN
F 1 "0.1uF" H 1815 5405 50  0000 L CNN
F 2 "Capacitor_SMD:C_0603_1608Metric" H 1738 5300 50  0001 C CNN
F 3 "~" H 1700 5450 50  0001 C CNN
	1    1700 5450
	1    0    0    -1  
$EndComp
$Comp
L Device:C C77
U 1 1 5EB4D822
P 2150 5450
F 0 "C77" H 2265 5496 50  0000 L CNN
F 1 "0.1uF" H 2265 5405 50  0000 L CNN
F 2 "Capacitor_SMD:C_0603_1608Metric" H 2188 5300 50  0001 C CNN
F 3 "~" H 2150 5450 50  0001 C CNN
	1    2150 5450
	1    0    0    -1  
$EndComp
$Comp
L Device:C C78
U 1 1 5EB4E9A9
P 2600 5450
F 0 "C78" H 2715 5496 50  0000 L CNN
F 1 "0.1uF" H 2715 5405 50  0000 L CNN
F 2 "Capacitor_SMD:C_0603_1608Metric" H 2638 5300 50  0001 C CNN
F 3 "~" H 2600 5450 50  0001 C CNN
	1    2600 5450
	1    0    0    -1  
$EndComp
$Comp
L Device:C C79
U 1 1 5EB4ED5D
P 3050 5450
F 0 "C79" H 3165 5496 50  0000 L CNN
F 1 "0.1uF" H 3165 5405 50  0000 L CNN
F 2 "Capacitor_SMD:C_0603_1608Metric" H 3088 5300 50  0001 C CNN
F 3 "~" H 3050 5450 50  0001 C CNN
	1    3050 5450
	1    0    0    -1  
$EndComp
$Comp
L power:GND #PWR0134
U 1 1 5EB4F87D
P 1000 5600
F 0 "#PWR0134" H 1000 5350 50  0001 C CNN
F 1 "GND" H 1005 5427 50  0000 C CNN
F 2 "" H 1000 5600 50  0001 C CNN
F 3 "" H 1000 5600 50  0001 C CNN
	1    1000 5600
	1    0    0    -1  
$EndComp
$Comp
L power:GND #PWR0155
U 1 1 5EB51CCB
P 8250 4400
F 0 "#PWR0155" H 8250 4150 50  0001 C CNN
F 1 "GND" H 8255 4227 50  0000 C CNN
F 2 "" H 8250 4400 50  0001 C CNN
F 3 "" H 8250 4400 50  0001 C CNN
	1    8250 4400
	1    0    0    -1  
$EndComp
Text Notes 1350 5150 0    50   ~ 0
ByPass Caps\n
Wire Notes Line
	650  5000 650  5850
Wire Notes Line
	650  5850 3850 5850
Wire Notes Line
	3850 5850 3850 5000
Wire Notes Line
	3850 5000 650  5000
Wire Wire Line
	800  5300 1000 5300
Wire Wire Line
	800  5600 1000 5600
Wire Wire Line
	1000 5600 1250 5600
Connection ~ 1000 5600
Wire Wire Line
	1250 5600 1700 5600
Connection ~ 1250 5600
Wire Wire Line
	1700 5600 2150 5600
Connection ~ 1700 5600
Wire Wire Line
	2150 5600 2600 5600
Connection ~ 2150 5600
Wire Wire Line
	2600 5600 3050 5600
Connection ~ 2600 5600
Wire Wire Line
	3050 5300 2600 5300
Wire Wire Line
	2600 5300 2150 5300
Connection ~ 2600 5300
Wire Wire Line
	2150 5300 1700 5300
Connection ~ 2150 5300
Wire Wire Line
	1000 5300 1250 5300
Connection ~ 1000 5300
Wire Wire Line
	1250 5300 1700 5300
Connection ~ 1250 5300
Connection ~ 1700 5300
$Comp
L Device:C C81
U 1 1 5EB5C7A9
P 3500 5450
F 0 "C81" H 3615 5496 50  0000 L CNN
F 1 "10F" H 3615 5405 50  0000 L CNN
F 2 "Capacitor_SMD:C_0603_1608Metric" H 3538 5300 50  0001 C CNN
F 3 "~" H 3500 5450 50  0001 C CNN
	1    3500 5450
	1    0    0    -1  
$EndComp
Wire Wire Line
	3500 5300 3050 5300
Connection ~ 3050 5300
Wire Wire Line
	3050 5600 3500 5600
Connection ~ 3050 5600
Wire Wire Line
	8150 1150 8250 1150
Wire Wire Line
	8350 1150 8250 1150
Connection ~ 8250 1150
Wire Wire Line
	8250 1000 8250 1150
Wire Wire Line
	8050 4350 8150 4350
Wire Wire Line
	8150 4350 8250 4350
Connection ~ 8150 4350
Wire Wire Line
	8250 4350 8350 4350
Connection ~ 8250 4350
Wire Wire Line
	8450 4350 8350 4350
Connection ~ 8350 4350
Wire Wire Line
	8250 4400 8250 4350
$Comp
L Device:R_US R57
U 1 1 5EB63CB0
P 7000 3450
F 0 "R57" V 6795 3450 50  0000 C CNN
F 1 "10k" V 6886 3450 50  0000 C CNN
F 2 "Resistor_SMD:R_0603_1608Metric" V 7040 3440 50  0001 C CNN
F 3 "~" H 7000 3450 50  0001 C CNN
	1    7000 3450
	0    1    1    0   
$EndComp
$Comp
L Device:R_US R58
U 1 1 5EB66B57
P 7000 3550
F 0 "R58" V 6950 3400 50  0000 C CNN
F 1 "10k" V 6950 3700 50  0000 C CNN
F 2 "Resistor_SMD:R_0603_1608Metric" V 7040 3540 50  0001 C CNN
F 3 "~" H 7000 3550 50  0001 C CNN
	1    7000 3550
	0    -1   -1   0   
$EndComp
$Comp
L power:+3V3 #PWR0150
U 1 1 5EB689C7
P 6750 3450
F 0 "#PWR0150" H 6750 3300 50  0001 C CNN
F 1 "+3V3" H 6765 3623 50  0000 C CNN
F 2 "" H 6750 3450 50  0001 C CNN
F 3 "" H 6750 3450 50  0001 C CNN
	1    6750 3450
	1    0    0    -1  
$EndComp
Wire Wire Line
	7250 3550 7150 3550
Wire Wire Line
	7250 3450 7150 3450
Wire Wire Line
	6750 3450 6800 3450
Wire Wire Line
	6850 3550 6800 3550
Wire Wire Line
	6800 3550 6800 3450
Connection ~ 6800 3450
Wire Wire Line
	6800 3450 6850 3450
Text GLabel 7250 3250 0    50   Input ~ 0
MAC_SMI_MDIO
Text GLabel 7250 3150 0    50   Input ~ 0
MAC_SMI_MDC
Text GLabel 1300 6400 0    50   Input ~ 0
MAC_SMI_MDIO
$Comp
L Device:R_US R44
U 1 1 5EB7706D
P 1500 6400
F 0 "R44" V 1295 6400 50  0000 C CNN
F 1 "1.5k" V 1386 6400 50  0000 C CNN
F 2 "Resistor_SMD:R_0603_1608Metric" V 1540 6390 50  0001 C CNN
F 3 "~" H 1500 6400 50  0001 C CNN
	1    1500 6400
	0    1    1    0   
$EndComp
$Comp
L power:+3V3 #PWR0135
U 1 1 5EB793B4
P 1700 6400
F 0 "#PWR0135" H 1700 6250 50  0001 C CNN
F 1 "+3V3" H 1715 6573 50  0000 C CNN
F 2 "" H 1700 6400 50  0001 C CNN
F 3 "" H 1700 6400 50  0001 C CNN
	1    1700 6400
	1    0    0    -1  
$EndComp
Wire Wire Line
	1350 6400 1300 6400
Wire Wire Line
	1700 6400 1650 6400
$Comp
L dk_Modular-Connectors-Jacks-With-Magnetics:RB1-125BAG1A J11
U 1 1 5EB859B0
P 9200 5600
F 0 "J11" H 9200 5500 50  0000 C CNN
F 1 "RB1-125BAG1A" H 9250 5700 50  0000 C CNN
F 2 "digikey-footprints:RJ45_Female_RB1-125BAG1A" H 9400 5800 60  0001 L CNN
F 3 "https://media.digikey.com/pdf/Data%20Sheets/WIZnet%20PDFs/RB1-125BAG1A_ApprovalSheet.pdf" H 9400 5900 60  0001 L CNN
F 4 "1278-1011-ND" H 9400 6000 60  0001 L CNN "Digi-Key_PN"
F 5 "RB1-125BAG1A" H 9400 6100 60  0001 L CNN "MPN"
F 6 "Connectors, Interconnects" H 9400 6200 60  0001 L CNN "Category"
F 7 "Modular Connectors - Jacks With Magnetics" H 9400 6300 60  0001 L CNN "Family"
F 8 "https://media.digikey.com/pdf/Data%20Sheets/WIZnet%20PDFs/RB1-125BAG1A_ApprovalSheet.pdf" H 9400 6400 60  0001 L CNN "DK_Datasheet_Link"
F 9 "/product-detail/en/wiznet/RB1-125BAG1A/1278-1011-ND/3829637" H 9400 6500 60  0001 L CNN "DK_Detail_Page"
F 10 "CONN MAGJACK 1PORT 100 BASE-T" H 9400 6600 60  0001 L CNN "Description"
F 11 "WIZnet" H 9400 6700 60  0001 L CNN "Manufacturer"
F 12 "Active" H 9400 6800 60  0001 L CNN "Status"
	1    9200 5600
	0    -1   -1   0   
$EndComp
Text GLabel 7250 2650 0    50   Input ~ 0
RMII_1_RXER
Text GLabel 7250 3050 0    50   Input ~ 0
RMII_1_CRSDV
Text GLabel 7250 2150 0    50   Input ~ 0
RMII_1_RXD_0
Text GLabel 7250 2250 0    50   Input ~ 0
RMII_1_RXD_1
Text GLabel 7250 1450 0    50   Input ~ 0
RMII_1_TXD_0
Text GLabel 7250 1550 0    50   Input ~ 0
RMII_1_TXD_1
Text GLabel 7250 1950 0    50   Input ~ 0
RMII_1_TXEN
NoConn ~ 7250 1850
NoConn ~ 7250 2550
NoConn ~ 7250 2950
$Comp
L Device:C C93
U 1 1 5E7DAE46
P 9350 4250
F 0 "C93" H 9235 4204 50  0000 R CNN
F 1 "0.1uF" H 9235 4295 50  0000 R CNN
F 2 "Capacitor_SMD:C_0603_1608Metric" H 9388 4100 50  0001 C CNN
F 3 "~" H 9350 4250 50  0001 C CNN
	1    9350 4250
	-1   0    0    1   
$EndComp
$Comp
L Device:C C94
U 1 1 5E7DD5B1
P 9700 4100
F 0 "C94" H 9585 4054 50  0000 R CNN
F 1 "0.1uF" H 9585 4145 50  0000 R CNN
F 2 "Capacitor_SMD:C_0603_1608Metric" H 9738 3950 50  0001 C CNN
F 3 "~" H 9700 4100 50  0001 C CNN
	1    9700 4100
	-1   0    0    1   
$EndComp
$Comp
L Device:C C95
U 1 1 5E7DD7F1
P 10050 3900
F 0 "C95" H 9935 3854 50  0000 R CNN
F 1 "0.1uF" H 9935 3945 50  0000 R CNN
F 2 "Capacitor_SMD:C_0603_1608Metric" H 10088 3750 50  0001 C CNN
F 3 "~" H 10050 3900 50  0001 C CNN
	1    10050 3900
	-1   0    0    1   
$EndComp
$Comp
L Device:C C96
U 1 1 5E7E1499
P 10400 3800
F 0 "C96" H 10285 3754 50  0000 R CNN
F 1 "10uF" H 10285 3845 50  0000 R CNN
F 2 "Capacitor_SMD:C_0603_1608Metric" H 10438 3650 50  0001 C CNN
F 3 "~" H 10400 3800 50  0001 C CNN
	1    10400 3800
	-1   0    0    1   
$EndComp
$Comp
L power:GND #PWR0161
U 1 1 5E7E1A93
P 10050 4400
F 0 "#PWR0161" H 10050 4150 50  0001 C CNN
F 1 "GND" H 10055 4227 50  0000 C CNN
F 2 "" H 10050 4400 50  0001 C CNN
F 3 "" H 10050 4400 50  0001 C CNN
	1    10050 4400
	1    0    0    -1  
$EndComp
Wire Wire Line
	10400 3950 10400 4400
Wire Wire Line
	10400 4400 10050 4400
Wire Wire Line
	10050 4400 9700 4400
Connection ~ 10050 4400
Wire Wire Line
	9700 4400 9700 4250
Connection ~ 9700 4400
Wire Wire Line
	9700 4400 9350 4400
Wire Wire Line
	10050 4050 10050 4400
Wire Wire Line
	10050 3750 10200 3750
Wire Wire Line
	10200 3750 10200 3650
Wire Wire Line
	10200 3650 10400 3650
Wire Wire Line
	10050 3750 9350 3750
Connection ~ 10050 3750
Wire Wire Line
	9250 3950 9350 3950
Wire Wire Line
	9350 4100 9350 4050
Wire Wire Line
	9350 4050 9250 4050
Wire Wire Line
	9350 4050 9350 3950
Connection ~ 9350 4050
Connection ~ 9350 3950
Wire Wire Line
	9350 3950 9700 3950
Wire Wire Line
	9350 3950 9350 3750
Connection ~ 9350 3750
Wire Wire Line
	9350 3750 9250 3750
NoConn ~ 7250 3750
NoConn ~ 7250 4050
Text GLabel 7250 3850 0    50   Input ~ 0
RMII_CLK_OUT
NoConn ~ 7250 2750
NoConn ~ 7250 2450
NoConn ~ 7250 2350
NoConn ~ 7250 1750
NoConn ~ 7250 1650
$Comp
L Device:R_US R63
U 1 1 5E7F5040
P 9450 3350
F 0 "R63" V 9245 3350 50  0000 C CNN
F 1 "2.2k" V 9336 3350 50  0000 C CNN
F 2 "Resistor_SMD:R_0603_1608Metric" V 9490 3340 50  0001 C CNN
F 3 "~" H 9450 3350 50  0001 C CNN
	1    9450 3350
	0    1    1    0   
$EndComp
$Comp
L Device:R_US R65
U 1 1 5E7F5DEB
P 9700 3450
F 0 "R65" V 9495 3450 50  0000 C CNN
F 1 "2.2k" V 9586 3450 50  0000 C CNN
F 2 "Resistor_SMD:R_0603_1608Metric" V 9740 3440 50  0001 C CNN
F 3 "~" H 9700 3450 50  0001 C CNN
	1    9700 3450
	0    1    1    0   
$EndComp
$Comp
L power:+3V3 #PWR0160
U 1 1 5E7F730E
P 9850 3350
F 0 "#PWR0160" H 9850 3200 50  0001 C CNN
F 1 "+3V3" H 9865 3523 50  0000 C CNN
F 2 "" H 9850 3350 50  0001 C CNN
F 3 "" H 9850 3350 50  0001 C CNN
	1    9850 3350
	1    0    0    -1  
$EndComp
Wire Wire Line
	9850 3350 9850 3450
Wire Wire Line
	9850 3350 9600 3350
Connection ~ 9850 3350
Wire Wire Line
	9550 3450 9250 3450
Wire Wire Line
	9250 3350 9300 3350
$Comp
L Device:R_US R66
U 1 1 5E7FBBB4
P 9950 3550
F 0 "R66" V 9745 3550 50  0000 C CNN
F 1 "4.87k" V 9836 3550 50  0000 C CNN
F 2 "Resistor_SMD:R_0603_1608Metric" V 9990 3540 50  0001 C CNN
F 3 "~" H 9950 3550 50  0001 C CNN
	1    9950 3550
	0    1    1    0   
$EndComp
$Comp
L power:GND #PWR0162
U 1 1 5E7FC6AF
P 10250 3550
F 0 "#PWR0162" H 10250 3300 50  0001 C CNN
F 1 "GND" V 10255 3422 50  0000 R CNN
F 2 "" H 10250 3550 50  0001 C CNN
F 3 "" H 10250 3550 50  0001 C CNN
	1    10250 3550
	0    -1   -1   0   
$EndComp
Wire Wire Line
	10250 3550 10100 3550
Wire Wire Line
	9800 3550 9250 3550
Text Label 9250 1450 0    50   ~ 0
TD_1+
Text Label 9250 1650 0    50   ~ 0
TD_1-
Text Label 9250 2150 0    50   ~ 0
RD_1+
Text Label 9250 2350 0    50   ~ 0
RD_1-
NoConn ~ 9250 3050
$Comp
L Device:R_US R62
U 1 1 5E800472
P 9350 2800
F 0 "R62" H 9282 2754 50  0000 R CNN
F 1 "330" H 9282 2845 50  0000 R CNN
F 2 "Resistor_SMD:R_0603_1608Metric" V 9390 2790 50  0001 C CNN
F 3 "~" H 9350 2800 50  0001 C CNN
	1    9350 2800
	-1   0    0    1   
$EndComp
$Comp
L Device:R_US R64
U 1 1 5E804764
P 9650 2900
F 0 "R64" H 9582 2854 50  0000 R CNN
F 1 "330" H 9582 2945 50  0000 R CNN
F 2 "Resistor_SMD:R_0603_1608Metric" V 9690 2890 50  0001 C CNN
F 3 "~" H 9650 2900 50  0001 C CNN
	1    9650 2900
	-1   0    0    1   
$EndComp
Text Label 9350 2650 0    50   ~ 0
LINK_LED_1
Text Label 9650 2750 0    50   ~ 0
ACT_LED_1
Wire Wire Line
	9650 3050 9650 3150
Wire Wire Line
	9650 3150 9250 3150
Wire Wire Line
	9250 2950 9350 2950
Text Label 9400 5000 1    50   ~ 0
LINK_LED_1
Text Label 9400 6100 3    50   ~ 0
ACT_LED_1
$Comp
L power:GND #PWR0158
U 1 1 5E81A91B
P 9500 6100
F 0 "#PWR0158" H 9500 5850 50  0001 C CNN
F 1 "GND" V 9505 5972 50  0000 R CNN
F 2 "" H 9500 6100 50  0001 C CNN
F 3 "" H 9500 6100 50  0001 C CNN
	1    9500 6100
	0    -1   -1   0   
$EndComp
$Comp
L power:GND #PWR0157
U 1 1 5E81C346
P 9500 5000
F 0 "#PWR0157" H 9500 4750 50  0001 C CNN
F 1 "GND" V 9505 4872 50  0000 R CNN
F 2 "" H 9500 5000 50  0001 C CNN
F 3 "" H 9500 5000 50  0001 C CNN
	1    9500 5000
	0    -1   -1   0   
$EndComp
$Comp
L power:GND #PWR0159
U 1 1 5E81DDB4
P 9650 5600
F 0 "#PWR0159" H 9650 5350 50  0001 C CNN
F 1 "GND" H 9655 5427 50  0000 C CNN
F 2 "" H 9650 5600 50  0001 C CNN
F 3 "" H 9650 5600 50  0001 C CNN
	1    9650 5600
	1    0    0    -1  
$EndComp
$Comp
L power:GND #PWR0156
U 1 1 5E9B5D96
P 8650 5550
F 0 "#PWR0156" H 8650 5300 50  0001 C CNN
F 1 "GND" V 8655 5422 50  0000 R CNN
F 2 "" H 8650 5550 50  0001 C CNN
F 3 "" H 8650 5550 50  0001 C CNN
	1    8650 5550
	0    1    1    0   
$EndComp
Wire Wire Line
	8700 5500 8700 5550
Wire Wire Line
	8700 5550 8650 5550
Wire Wire Line
	8700 5600 8700 5550
Connection ~ 8700 5550
Text Label 8700 5800 2    50   ~ 0
TD_1-
Text Label 8700 5900 2    50   ~ 0
TD_1+
$Comp
L Device:R_US R61
U 1 1 5E9BB925
P 8000 5700
F 0 "R61" V 8205 5700 50  0000 C CNN
F 1 "10" V 8114 5700 50  0000 C CNN
F 2 "Resistor_SMD:R_0603_1608Metric" V 8040 5690 50  0001 C CNN
F 3 "~" H 8000 5700 50  0001 C CNN
	1    8000 5700
	0    -1   -1   0   
$EndComp
$Comp
L Device:C C91
U 1 1 5E9BE42C
P 8200 5850
F 0 "C91" H 8085 5804 50  0000 R CNN
F 1 "10nF" H 8150 5950 50  0000 R CNN
F 2 "Capacitor_SMD:C_0603_1608Metric" H 8238 5700 50  0001 C CNN
F 3 "~" H 8200 5850 50  0001 C CNN
	1    8200 5850
	-1   0    0    1   
$EndComp
$Comp
L power:GND #PWR0153
U 1 1 5E9BEBA1
P 8200 6000
F 0 "#PWR0153" H 8200 5750 50  0001 C CNN
F 1 "GND" H 8205 5827 50  0000 C CNN
F 2 "" H 8200 6000 50  0001 C CNN
F 3 "" H 8200 6000 50  0001 C CNN
	1    8200 6000
	1    0    0    -1  
$EndComp
$Comp
L power:+3V3 #PWR0152
U 1 1 5E9BF454
P 7850 5700
F 0 "#PWR0152" H 7850 5550 50  0001 C CNN
F 1 "+3V3" H 7865 5873 50  0000 C CNN
F 2 "" H 7850 5700 50  0001 C CNN
F 3 "" H 7850 5700 50  0001 C CNN
	1    7850 5700
	0    -1   -1   0   
$EndComp
Wire Wire Line
	8150 5700 8200 5700
Wire Wire Line
	8200 5700 8700 5700
Connection ~ 8200 5700
$Comp
L Device:C C92
U 1 1 5E9C4E59
P 8400 5050
F 0 "C92" H 8285 5004 50  0000 R CNN
F 1 "6.8uF" H 8350 5150 50  0000 R CNN
F 2 "Capacitor_SMD:C_0603_1608Metric" H 8438 4900 50  0001 C CNN
F 3 "~" H 8400 5050 50  0001 C CNN
	1    8400 5050
	-1   0    0    1   
$EndComp
$Comp
L Device:C C90
U 1 1 5E9C5871
P 8150 5150
F 0 "C90" H 8150 5050 50  0000 R CNN
F 1 "6.8uF" H 8100 5250 50  0000 R CNN
F 2 "Capacitor_SMD:C_0603_1608Metric" H 8188 5000 50  0001 C CNN
F 3 "~" H 8150 5150 50  0001 C CNN
	1    8150 5150
	-1   0    0    1   
$EndComp
$Comp
L Device:C C89
U 1 1 5E9C6529
P 7700 5400
F 0 "C89" H 7700 5300 50  0000 R CNN
F 1 "10nF" V 7850 5450 50  0000 R CNN
F 2 "Capacitor_SMD:C_0603_1608Metric" H 7738 5250 50  0001 C CNN
F 3 "~" H 7700 5400 50  0001 C CNN
	1    7700 5400
	0    -1   -1   0   
$EndComp
$Comp
L power:GND #PWR0151
U 1 1 5E9C7C5D
P 7550 5400
F 0 "#PWR0151" H 7550 5150 50  0001 C CNN
F 1 "GND" H 7555 5227 50  0000 C CNN
F 2 "" H 7550 5400 50  0001 C CNN
F 3 "" H 7550 5400 50  0001 C CNN
	1    7550 5400
	1    0    0    -1  
$EndComp
$Comp
L Device:R_US R60
U 1 1 5E9C81E9
P 7700 5100
F 0 "R60" V 7905 5100 50  0000 C CNN
F 1 "49.9" V 7814 5100 50  0000 C CNN
F 2 "Resistor_SMD:R_0603_1608Metric" V 7740 5090 50  0001 C CNN
F 3 "~" H 7700 5100 50  0001 C CNN
	1    7700 5100
	0    -1   -1   0   
$EndComp
$Comp
L Device:R_US R59
U 1 1 5E9CAA98
P 7700 4800
F 0 "R59" V 7905 4800 50  0000 C CNN
F 1 "49.9" V 7814 4800 50  0000 C CNN
F 2 "Resistor_SMD:R_0603_1608Metric" V 7740 4790 50  0001 C CNN
F 3 "~" H 7700 4800 50  0001 C CNN
	1    7700 4800
	0    -1   -1   0   
$EndComp
Wire Wire Line
	8700 5400 7950 5400
Wire Wire Line
	7950 5400 7950 5100
Wire Wire Line
	7950 4800 7850 4800
Connection ~ 7950 5400
Wire Wire Line
	7950 5400 7850 5400
Wire Wire Line
	7850 5100 7950 5100
Connection ~ 7950 5100
Wire Wire Line
	7950 5100 7950 4800
Wire Wire Line
	8150 5300 8700 5300
Wire Wire Line
	8700 5200 8400 5200
Text Label 8150 5000 1    50   ~ 0
RD_1+
Text Label 8400 4900 1    50   ~ 0
RD_1-
Text Label 7550 4800 2    50   ~ 0
RD_1-
Text Label 7550 5100 2    50   ~ 0
RD_1+
Text Notes 9150 800  0    50   ~ 0
Ethernet 1 Circuit
$Comp
L Interface_Ethernet:DP83848C U10
U 1 1 5E9F3FA7
P 2150 2650
F 0 "U10" H 1350 4200 50  0000 C CNN
F 1 "DP83848C" H 2750 4200 50  0000 C CNN
F 2 "Package_QFP:LQFP-48_7x7mm_P0.5mm" H 3150 1100 50  0001 C CNN
F 3 "http://www.ti.com/lit/ds/symlink/dp83848c.pdf" H 2150 2650 50  0001 C CNN
F 4 "DP83848CVV/NOPB-ND" H 2150 2650 50  0001 C CNN "Digi-Key_PN"
	1    2150 2650
	1    0    0    -1  
$EndComp
$Comp
L power:+3V3 #PWR0136
U 1 1 5E9F3FAD
P 2150 900
F 0 "#PWR0136" H 2150 750 50  0001 C CNN
F 1 "+3V3" H 2165 1073 50  0000 C CNN
F 2 "" H 2150 900 50  0001 C CNN
F 3 "" H 2150 900 50  0001 C CNN
	1    2150 900 
	1    0    0    -1  
$EndComp
$Comp
L power:GND #PWR0137
U 1 1 5E9F3FB3
P 2150 4300
F 0 "#PWR0137" H 2150 4050 50  0001 C CNN
F 1 "GND" H 2155 4127 50  0000 C CNN
F 2 "" H 2150 4300 50  0001 C CNN
F 3 "" H 2150 4300 50  0001 C CNN
	1    2150 4300
	1    0    0    -1  
$EndComp
Wire Wire Line
	2050 1050 2150 1050
Wire Wire Line
	2250 1050 2150 1050
Connection ~ 2150 1050
Wire Wire Line
	2150 900  2150 1050
Wire Wire Line
	1950 4250 2050 4250
Wire Wire Line
	2050 4250 2150 4250
Connection ~ 2050 4250
Wire Wire Line
	2150 4250 2250 4250
Connection ~ 2150 4250
Wire Wire Line
	2350 4250 2250 4250
Connection ~ 2250 4250
Wire Wire Line
	2150 4300 2150 4250
$Comp
L Device:R_US R42
U 1 1 5E9F3FC5
P 900 3350
F 0 "R42" V 695 3350 50  0000 C CNN
F 1 "10k" V 786 3350 50  0000 C CNN
F 2 "Resistor_SMD:R_0603_1608Metric" V 940 3340 50  0001 C CNN
F 3 "~" H 900 3350 50  0001 C CNN
	1    900  3350
	0    1    1    0   
$EndComp
$Comp
L Device:R_US R43
U 1 1 5E9F3FCB
P 900 3450
F 0 "R43" V 850 3300 50  0000 C CNN
F 1 "10k" V 850 3600 50  0000 C CNN
F 2 "Resistor_SMD:R_0603_1608Metric" V 940 3440 50  0001 C CNN
F 3 "~" H 900 3450 50  0001 C CNN
	1    900  3450
	0    -1   -1   0   
$EndComp
$Comp
L power:+3V3 #PWR0132
U 1 1 5E9F3FD1
P 650 3350
F 0 "#PWR0132" H 650 3200 50  0001 C CNN
F 1 "+3V3" H 665 3523 50  0000 C CNN
F 2 "" H 650 3350 50  0001 C CNN
F 3 "" H 650 3350 50  0001 C CNN
	1    650  3350
	1    0    0    -1  
$EndComp
Wire Wire Line
	1150 3450 1050 3450
Wire Wire Line
	1150 3350 1050 3350
Wire Wire Line
	650  3350 700  3350
Wire Wire Line
	750  3450 700  3450
Wire Wire Line
	700  3450 700  3350
Connection ~ 700  3350
Wire Wire Line
	700  3350 750  3350
Text GLabel 1150 3150 0    50   Input ~ 0
MAC_SMI_MDIO
Text GLabel 1150 3050 0    50   Input ~ 0
MAC_SMI_MDC
$Comp
L dk_Modular-Connectors-Jacks-With-Magnetics:RB1-125BAG1A J10
U 1 1 5E9F3FE9
P 5650 2050
F 0 "J10" H 5650 1950 50  0000 C CNN
F 1 "RB1-125BAG1A" H 5700 2150 50  0000 C CNN
F 2 "digikey-footprints:RJ45_Female_RB1-125BAG1A" H 5850 2250 60  0001 L CNN
F 3 "https://media.digikey.com/pdf/Data%20Sheets/WIZnet%20PDFs/RB1-125BAG1A_ApprovalSheet.pdf" H 5850 2350 60  0001 L CNN
F 4 "1278-1011-ND" H 5850 2450 60  0001 L CNN "Digi-Key_PN"
F 5 "RB1-125BAG1A" H 5850 2550 60  0001 L CNN "MPN"
F 6 "Connectors, Interconnects" H 5850 2650 60  0001 L CNN "Category"
F 7 "Modular Connectors - Jacks With Magnetics" H 5850 2750 60  0001 L CNN "Family"
F 8 "https://media.digikey.com/pdf/Data%20Sheets/WIZnet%20PDFs/RB1-125BAG1A_ApprovalSheet.pdf" H 5850 2850 60  0001 L CNN "DK_Datasheet_Link"
F 9 "/product-detail/en/wiznet/RB1-125BAG1A/1278-1011-ND/3829637" H 5850 2950 60  0001 L CNN "DK_Detail_Page"
F 10 "CONN MAGJACK 1PORT 100 BASE-T" H 5850 3050 60  0001 L CNN "Description"
F 11 "WIZnet" H 5850 3150 60  0001 L CNN "Manufacturer"
F 12 "Active" H 5850 3250 60  0001 L CNN "Status"
	1    5650 2050
	0    -1   -1   0   
$EndComp
Text GLabel 1150 2550 0    50   Input ~ 0
RMII_0_RXER
Text GLabel 1150 2950 0    50   Input ~ 0
RMII_0_CRSDV
Text GLabel 1150 2050 0    50   Input ~ 0
RMII_0_RXD_0
Text GLabel 1150 2150 0    50   Input ~ 0
RMII_0_RXD_1
Text GLabel 1150 1350 0    50   Input ~ 0
RMII_0_TXD_0
Text GLabel 1150 1450 0    50   Input ~ 0
RMII_0_TXD_1
Text GLabel 1150 1850 0    50   Input ~ 0
RMII_0_TXEN
NoConn ~ 1150 1750
NoConn ~ 1150 2450
NoConn ~ 1150 2850
$Comp
L Device:C C80
U 1 1 5E9F3FF9
P 3250 4150
F 0 "C80" H 3135 4104 50  0000 R CNN
F 1 "0.1uF" H 3135 4195 50  0000 R CNN
F 2 "Capacitor_SMD:C_0603_1608Metric" H 3288 4000 50  0001 C CNN
F 3 "~" H 3250 4150 50  0001 C CNN
	1    3250 4150
	-1   0    0    1   
$EndComp
$Comp
L Device:C C82
U 1 1 5E9F3FFF
P 3600 4000
F 0 "C82" H 3485 3954 50  0000 R CNN
F 1 "0.1uF" H 3485 4045 50  0000 R CNN
F 2 "Capacitor_SMD:C_0603_1608Metric" H 3638 3850 50  0001 C CNN
F 3 "~" H 3600 4000 50  0001 C CNN
	1    3600 4000
	-1   0    0    1   
$EndComp
$Comp
L Device:C C83
U 1 1 5E9F4005
P 3950 3800
F 0 "C83" H 3835 3754 50  0000 R CNN
F 1 "0.1uF" H 3835 3845 50  0000 R CNN
F 2 "Capacitor_SMD:C_0603_1608Metric" H 3988 3650 50  0001 C CNN
F 3 "~" H 3950 3800 50  0001 C CNN
	1    3950 3800
	-1   0    0    1   
$EndComp
$Comp
L Device:C C85
U 1 1 5E9F400B
P 4300 3700
F 0 "C85" H 4185 3654 50  0000 R CNN
F 1 "10uF" H 4185 3745 50  0000 R CNN
F 2 "Capacitor_SMD:C_0603_1608Metric" H 4338 3550 50  0001 C CNN
F 3 "~" H 4300 3700 50  0001 C CNN
	1    4300 3700
	-1   0    0    1   
$EndComp
$Comp
L power:GND #PWR0139
U 1 1 5E9F4011
P 3950 4300
F 0 "#PWR0139" H 3950 4050 50  0001 C CNN
F 1 "GND" H 3955 4127 50  0000 C CNN
F 2 "" H 3950 4300 50  0001 C CNN
F 3 "" H 3950 4300 50  0001 C CNN
	1    3950 4300
	1    0    0    -1  
$EndComp
Wire Wire Line
	4300 3850 4300 4300
Wire Wire Line
	4300 4300 3950 4300
Wire Wire Line
	3950 4300 3600 4300
Connection ~ 3950 4300
Wire Wire Line
	3600 4300 3600 4150
Connection ~ 3600 4300
Wire Wire Line
	3600 4300 3250 4300
Wire Wire Line
	3950 3950 3950 4300
Wire Wire Line
	3950 3650 4100 3650
Wire Wire Line
	4100 3650 4100 3550
Wire Wire Line
	4100 3550 4300 3550
Wire Wire Line
	3950 3650 3250 3650
Connection ~ 3950 3650
Wire Wire Line
	3150 3850 3250 3850
Wire Wire Line
	3250 4000 3250 3950
Wire Wire Line
	3250 3950 3150 3950
Wire Wire Line
	3250 3950 3250 3850
Connection ~ 3250 3950
Connection ~ 3250 3850
Wire Wire Line
	3250 3850 3600 3850
Wire Wire Line
	3250 3850 3250 3650
Connection ~ 3250 3650
Wire Wire Line
	3250 3650 3150 3650
NoConn ~ 1150 3650
NoConn ~ 1150 3950
Text GLabel 1150 3750 0    50   Input ~ 0
RMII_CLK_OUT
NoConn ~ 1150 2650
NoConn ~ 1150 2350
NoConn ~ 1150 2250
NoConn ~ 1150 1650
NoConn ~ 1150 1550
$Comp
L Device:R_US R46
U 1 1 5E9F4036
P 3350 3250
F 0 "R46" V 3145 3250 50  0000 C CNN
F 1 "2.2k" V 3236 3250 50  0000 C CNN
F 2 "Resistor_SMD:R_0603_1608Metric" V 3390 3240 50  0001 C CNN
F 3 "~" H 3350 3250 50  0001 C CNN
	1    3350 3250
	0    1    1    0   
$EndComp
$Comp
L Device:R_US R48
U 1 1 5E9F403C
P 3600 3350
F 0 "R48" V 3395 3350 50  0000 C CNN
F 1 "2.2k" V 3486 3350 50  0000 C CNN
F 2 "Resistor_SMD:R_0603_1608Metric" V 3640 3340 50  0001 C CNN
F 3 "~" H 3600 3350 50  0001 C CNN
	1    3600 3350
	0    1    1    0   
$EndComp
$Comp
L power:+3V3 #PWR0138
U 1 1 5E9F4042
P 3750 3250
F 0 "#PWR0138" H 3750 3100 50  0001 C CNN
F 1 "+3V3" H 3765 3423 50  0000 C CNN
F 2 "" H 3750 3250 50  0001 C CNN
F 3 "" H 3750 3250 50  0001 C CNN
	1    3750 3250
	1    0    0    -1  
$EndComp
Wire Wire Line
	3750 3250 3750 3350
Wire Wire Line
	3750 3250 3500 3250
Connection ~ 3750 3250
Wire Wire Line
	3450 3350 3150 3350
Wire Wire Line
	3150 3250 3200 3250
$Comp
L Device:R_US R49
U 1 1 5E9F404D
P 3850 3450
F 0 "R49" V 3645 3450 50  0000 C CNN
F 1 "4.87k" V 3736 3450 50  0000 C CNN
F 2 "Resistor_SMD:R_0603_1608Metric" V 3890 3440 50  0001 C CNN
F 3 "~" H 3850 3450 50  0001 C CNN
	1    3850 3450
	0    1    1    0   
$EndComp
$Comp
L power:GND #PWR0141
U 1 1 5E9F4053
P 4150 3450
F 0 "#PWR0141" H 4150 3200 50  0001 C CNN
F 1 "GND" V 4155 3322 50  0000 R CNN
F 2 "" H 4150 3450 50  0001 C CNN
F 3 "" H 4150 3450 50  0001 C CNN
	1    4150 3450
	0    -1   -1   0   
$EndComp
Wire Wire Line
	4150 3450 4000 3450
Wire Wire Line
	3700 3450 3150 3450
Text Label 3150 1350 0    50   ~ 0
TD_0+
Text Label 3150 1550 0    50   ~ 0
TD_0-
Text Label 3150 2050 0    50   ~ 0
RD_0+
Text Label 3150 2250 0    50   ~ 0
RD_0-
NoConn ~ 3150 2950
$Comp
L Device:R_US R45
U 1 1 5E9F4060
P 3250 2700
F 0 "R45" H 3182 2654 50  0000 R CNN
F 1 "330" H 3182 2745 50  0000 R CNN
F 2 "Resistor_SMD:R_0603_1608Metric" V 3290 2690 50  0001 C CNN
F 3 "~" H 3250 2700 50  0001 C CNN
	1    3250 2700
	-1   0    0    1   
$EndComp
$Comp
L Device:R_US R47
U 1 1 5E9F4066
P 3550 2800
F 0 "R47" H 3482 2754 50  0000 R CNN
F 1 "330" H 3482 2845 50  0000 R CNN
F 2 "Resistor_SMD:R_0603_1608Metric" V 3590 2790 50  0001 C CNN
F 3 "~" H 3550 2800 50  0001 C CNN
	1    3550 2800
	-1   0    0    1   
$EndComp
Text Label 3250 2550 0    50   ~ 0
LINK_LED_0
Text Label 3550 2650 0    50   ~ 0
ACT_LED_0
Wire Wire Line
	3550 2950 3550 3050
Wire Wire Line
	3550 3050 3150 3050
Wire Wire Line
	3150 2850 3250 2850
Text Label 5850 1450 1    50   ~ 0
LINK_LED_0
Text Label 5850 2550 3    50   ~ 0
ACT_LED_0
$Comp
L power:GND #PWR0147
U 1 1 5E9F4073
P 5950 2550
F 0 "#PWR0147" H 5950 2300 50  0001 C CNN
F 1 "GND" V 5955 2422 50  0000 R CNN
F 2 "" H 5950 2550 50  0001 C CNN
F 3 "" H 5950 2550 50  0001 C CNN
	1    5950 2550
	0    -1   -1   0   
$EndComp
$Comp
L power:GND #PWR0146
U 1 1 5E9F4079
P 5950 1450
F 0 "#PWR0146" H 5950 1200 50  0001 C CNN
F 1 "GND" V 5955 1322 50  0000 R CNN
F 2 "" H 5950 1450 50  0001 C CNN
F 3 "" H 5950 1450 50  0001 C CNN
	1    5950 1450
	0    -1   -1   0   
$EndComp
$Comp
L power:GND #PWR0148
U 1 1 5E9F407F
P 6100 2050
F 0 "#PWR0148" H 6100 1800 50  0001 C CNN
F 1 "GND" H 6105 1877 50  0000 C CNN
F 2 "" H 6100 2050 50  0001 C CNN
F 3 "" H 6100 2050 50  0001 C CNN
	1    6100 2050
	1    0    0    -1  
$EndComp
$Comp
L power:GND #PWR0144
U 1 1 5E9F4085
P 5100 2000
F 0 "#PWR0144" H 5100 1750 50  0001 C CNN
F 1 "GND" V 5105 1872 50  0000 R CNN
F 2 "" H 5100 2000 50  0001 C CNN
F 3 "" H 5100 2000 50  0001 C CNN
	1    5100 2000
	0    1    1    0   
$EndComp
Wire Wire Line
	5150 1950 5150 2000
Wire Wire Line
	5150 2000 5100 2000
Wire Wire Line
	5150 2050 5150 2000
Connection ~ 5150 2000
Text Label 5150 2250 2    50   ~ 0
TD_0-
Text Label 5150 2350 2    50   ~ 0
TD_0+
$Comp
L Device:R_US R52
U 1 1 5E9F4091
P 4450 2150
F 0 "R52" V 4655 2150 50  0000 C CNN
F 1 "10" V 4564 2150 50  0000 C CNN
F 2 "Resistor_SMD:R_0603_1608Metric" V 4490 2140 50  0001 C CNN
F 3 "~" H 4450 2150 50  0001 C CNN
	1    4450 2150
	0    -1   -1   0   
$EndComp
$Comp
L Device:C C87
U 1 1 5E9F4097
P 4650 2300
F 0 "C87" H 4535 2254 50  0000 R CNN
F 1 "10nF" H 4600 2400 50  0000 R CNN
F 2 "Capacitor_SMD:C_0603_1608Metric" H 4688 2150 50  0001 C CNN
F 3 "~" H 4650 2300 50  0001 C CNN
	1    4650 2300
	-1   0    0    1   
$EndComp
$Comp
L power:GND #PWR0143
U 1 1 5E9F409D
P 4650 2450
F 0 "#PWR0143" H 4650 2200 50  0001 C CNN
F 1 "GND" H 4655 2277 50  0000 C CNN
F 2 "" H 4650 2450 50  0001 C CNN
F 3 "" H 4650 2450 50  0001 C CNN
	1    4650 2450
	1    0    0    -1  
$EndComp
$Comp
L power:+3V3 #PWR0142
U 1 1 5E9F40A3
P 4300 2150
F 0 "#PWR0142" H 4300 2000 50  0001 C CNN
F 1 "+3V3" H 4315 2323 50  0000 C CNN
F 2 "" H 4300 2150 50  0001 C CNN
F 3 "" H 4300 2150 50  0001 C CNN
	1    4300 2150
	0    -1   -1   0   
$EndComp
Wire Wire Line
	4600 2150 4650 2150
Wire Wire Line
	4650 2150 5150 2150
Connection ~ 4650 2150
$Comp
L Device:C C88
U 1 1 5E9F40AC
P 4850 1500
F 0 "C88" H 4735 1454 50  0000 R CNN
F 1 "6.8uF" H 4800 1600 50  0000 R CNN
F 2 "Capacitor_SMD:C_0603_1608Metric" H 4888 1350 50  0001 C CNN
F 3 "~" H 4850 1500 50  0001 C CNN
	1    4850 1500
	-1   0    0    1   
$EndComp
$Comp
L Device:C C86
U 1 1 5E9F40B2
P 4600 1600
F 0 "C86" H 4600 1500 50  0000 R CNN
F 1 "6.8uF" H 4550 1700 50  0000 R CNN
F 2 "Capacitor_SMD:C_0603_1608Metric" H 4638 1450 50  0001 C CNN
F 3 "~" H 4600 1600 50  0001 C CNN
	1    4600 1600
	-1   0    0    1   
$EndComp
$Comp
L Device:C C84
U 1 1 5E9F40B8
P 4150 1850
F 0 "C84" H 4150 1750 50  0000 R CNN
F 1 "10nF" V 4300 1900 50  0000 R CNN
F 2 "Capacitor_SMD:C_0603_1608Metric" H 4188 1700 50  0001 C CNN
F 3 "~" H 4150 1850 50  0001 C CNN
	1    4150 1850
	0    -1   -1   0   
$EndComp
$Comp
L power:GND #PWR0140
U 1 1 5E9F40BE
P 4000 1850
F 0 "#PWR0140" H 4000 1600 50  0001 C CNN
F 1 "GND" H 4005 1677 50  0000 C CNN
F 2 "" H 4000 1850 50  0001 C CNN
F 3 "" H 4000 1850 50  0001 C CNN
	1    4000 1850
	1    0    0    -1  
$EndComp
$Comp
L Device:R_US R51
U 1 1 5E9F40C4
P 4150 1550
F 0 "R51" V 4355 1550 50  0000 C CNN
F 1 "49.9" V 4264 1550 50  0000 C CNN
F 2 "Resistor_SMD:R_0603_1608Metric" V 4190 1540 50  0001 C CNN
F 3 "~" H 4150 1550 50  0001 C CNN
	1    4150 1550
	0    -1   -1   0   
$EndComp
$Comp
L Device:R_US R50
U 1 1 5E9F40CA
P 4150 1250
F 0 "R50" V 4355 1250 50  0000 C CNN
F 1 "49.9" V 4264 1250 50  0000 C CNN
F 2 "Resistor_SMD:R_0603_1608Metric" V 4190 1240 50  0001 C CNN
F 3 "~" H 4150 1250 50  0001 C CNN
	1    4150 1250
	0    -1   -1   0   
$EndComp
Wire Wire Line
	5150 1850 4400 1850
Wire Wire Line
	4400 1850 4400 1550
Wire Wire Line
	4400 1250 4300 1250
Connection ~ 4400 1850
Wire Wire Line
	4400 1850 4300 1850
Wire Wire Line
	4300 1550 4400 1550
Connection ~ 4400 1550
Wire Wire Line
	4400 1550 4400 1250
Wire Wire Line
	4600 1750 5150 1750
Wire Wire Line
	5150 1650 4850 1650
Text Label 4600 1450 1    50   ~ 0
RD_0+
Text Label 4850 1350 1    50   ~ 0
RD_0-
Text Label 4000 1250 2    50   ~ 0
RD_0-
Text Label 4000 1550 2    50   ~ 0
RD_0+
Text Notes 3050 700  0    50   ~ 0
Ethernet 0 Circuit
Wire Notes Line
	6350 550  6350 4550
Wire Notes Line
	6350 4550 550  4550
Wire Notes Line
	550  4550 550  550 
Wire Notes Line
	550  550  6350 550 
Wire Notes Line
	6450 550  6450 6500
Wire Notes Line
	6450 6500 10800 6500
Wire Notes Line
	10800 6500 10800 550 
Wire Notes Line
	10800 550  6450 550 
Text Notes 850  6150 0    50   ~ 0
Pull up data line
Wire Notes Line
	1850 6500 650  6500
Wire Notes Line
	650  6500 650  6050
Wire Notes Line
	650  6050 1850 6050
Wire Notes Line
	1850 6050 1850 6500
$Comp
L Device:R_US R53
U 1 1 5EBDE5F7
P 5400 3300
F 0 "R53" V 5605 3300 50  0000 C CNN
F 1 "49.9" V 5514 3300 50  0000 C CNN
F 2 "Resistor_SMD:R_0603_1608Metric" V 5440 3290 50  0001 C CNN
F 3 "~" H 5400 3300 50  0001 C CNN
	1    5400 3300
	0    -1   -1   0   
$EndComp
$Comp
L Device:R_US R54
U 1 1 5EBE11D2
P 5400 3650
F 0 "R54" V 5605 3650 50  0000 C CNN
F 1 "49.9" V 5514 3650 50  0000 C CNN
F 2 "Resistor_SMD:R_0603_1608Metric" V 5440 3640 50  0001 C CNN
F 3 "~" H 5400 3650 50  0001 C CNN
	1    5400 3650
	0    -1   -1   0   
$EndComp
$Comp
L power:+3V3 #PWR0145
U 1 1 5EBE83C1
P 5150 3250
F 0 "#PWR0145" H 5150 3100 50  0001 C CNN
F 1 "+3V3" H 5165 3423 50  0000 C CNN
F 2 "" H 5150 3250 50  0001 C CNN
F 3 "" H 5150 3250 50  0001 C CNN
	1    5150 3250
	1    0    0    -1  
$EndComp
Text Label 5550 3300 0    50   ~ 0
TD_0-
Text Label 5550 3650 0    50   ~ 0
TD_0+
Wire Wire Line
	5150 3250 5150 3300
Wire Wire Line
	5150 3650 5250 3650
Wire Wire Line
	5250 3300 5150 3300
Connection ~ 5150 3300
Wire Wire Line
	5150 3300 5150 3650
$Comp
L Device:R_US R55
U 1 1 5EC03F63
P 6850 5850
F 0 "R55" V 7055 5850 50  0000 C CNN
F 1 "49.9" V 6964 5850 50  0000 C CNN
F 2 "Resistor_SMD:R_0603_1608Metric" V 6890 5840 50  0001 C CNN
F 3 "~" H 6850 5850 50  0001 C CNN
	1    6850 5850
	0    -1   -1   0   
$EndComp
$Comp
L Device:R_US R56
U 1 1 5EC03F69
P 6850 6200
F 0 "R56" V 7055 6200 50  0000 C CNN
F 1 "49.9" V 6964 6200 50  0000 C CNN
F 2 "Resistor_SMD:R_0603_1608Metric" V 6890 6190 50  0001 C CNN
F 3 "~" H 6850 6200 50  0001 C CNN
	1    6850 6200
	0    -1   -1   0   
$EndComp
$Comp
L power:+3V3 #PWR0149
U 1 1 5EC03F6F
P 6600 5800
F 0 "#PWR0149" H 6600 5650 50  0001 C CNN
F 1 "+3V3" H 6615 5973 50  0000 C CNN
F 2 "" H 6600 5800 50  0001 C CNN
F 3 "" H 6600 5800 50  0001 C CNN
	1    6600 5800
	1    0    0    -1  
$EndComp
Text Label 7000 5850 0    50   ~ 0
TD_1-
Text Label 7000 6200 0    50   ~ 0
TD_1+
Wire Wire Line
	6600 5800 6600 5850
Wire Wire Line
	6600 6200 6700 6200
Wire Wire Line
	6700 5850 6600 5850
Connection ~ 6600 5850
Wire Wire Line
	6600 5850 6600 6200
$EndSCHEMATC
