EESchema Schematic File Version 4
LIBS:huckleberry_pi-cache
EELAYER 29 0
EELAYER END
$Descr A4 11693 8268
encoding utf-8
Sheet 6 6
Title "Huckleberry Pi"
Date "2020-03-26"
Rev "0"
Comp ""
Comment1 ""
Comment2 ""
Comment3 ""
Comment4 ""
$EndDescr
Text GLabel 12400 4900 2    50   Input ~ 0
GPIO_P3_1
Text GLabel 10400 5900 0    50   Input ~ 0
GPIO_P3_2
Text GLabel 10400 4700 0    50   Input ~ 0
GPIO_P3_3
Text GLabel 10400 5800 0    50   Input ~ 0
GPIO_P3_4
Text GLabel 10400 5700 0    50   Input ~ 0
GPIO_P3_5
Text GLabel 10400 5600 0    50   Input ~ 0
GPIO_P3_6
Text GLabel 10400 5500 0    50   Input ~ 0
GPIO_P3_7
$Comp
L dk_USB-DVI-HDMI-Connectors:2000-1-2-41-00-BK J?
U 1 1 5EF5E5BC
P 5150 4500
AR Path="/5E755028/5EF5E5BC" Ref="J?"  Part="1" 
AR Path="/5EC9AF07/5EF5E5BC" Ref="J12"  Part="1" 
F 0 "J12" H 5150 5331 60  0000 C CNN
F 1 "2000-1-2-41-00-BK" H 5150 5331 60  0001 C CNN
F 2 "digikey-footprints:HDMI_A_Female_2000-1-2-41-00-BK" H 5350 4700 60  0001 L CNN
F 3 "http://www.cnctech.us/pdfs/2000-1-2-41-00-BK.pdf" H 5350 4800 60  0001 L CNN
F 4 "1175-1703-ND" H 5350 4900 60  0001 L CNN "Digi-Key_PN"
F 5 "2000-1-2-41-00-BK" H 5350 5000 60  0001 L CNN "MPN"
F 6 "Connectors, Interconnects" H 5350 5100 60  0001 L CNN "Category"
F 7 "USB, DVI, HDMI Connectors" H 5350 5200 60  0001 L CNN "Family"
F 8 "http://www.cnctech.us/pdfs/2000-1-2-41-00-BK.pdf" H 5350 5300 60  0001 L CNN "DK_Datasheet_Link"
F 9 "/product-detail/en/cnc-tech/2000-1-2-41-00-BK/1175-1703-ND/4867012" H 5350 5400 60  0001 L CNN "DK_Detail_Page"
F 10 "CONN RCPT HDMI 19POS SMD R/A" H 5350 5500 60  0001 L CNN "Description"
F 11 "CNC Tech" H 5350 5600 60  0001 L CNN "Manufacturer"
F 12 "Active" H 5350 5700 60  0001 L CNN "Status"
	1    5150 4500
	1    0    0    -1  
$EndComp
$Comp
L Device:R_US R?
U 1 1 5EF5E5CA
P 3950 4600
AR Path="/5E755028/5EF5E5CA" Ref="R?"  Part="1" 
AR Path="/5EC9AF07/5EF5E5CA" Ref="R72"  Part="1" 
F 0 "R72" V 3850 4650 50  0000 C CNN
F 1 "27K" V 3850 4500 50  0000 C CNN
F 2 "Resistor_SMD:R_0603_1608Metric" V 3990 4590 50  0001 C CNN
F 3 "~" H 3950 4600 50  0001 C CNN
	1    3950 4600
	0    -1   -1   0   
$EndComp
$Comp
L power:+3V3 #PWR?
U 1 1 5EF5E5D0
P 3700 4600
AR Path="/5E755028/5EF5E5D0" Ref="#PWR?"  Part="1" 
AR Path="/5EC9AF07/5EF5E5D0" Ref="#PWR0176"  Part="1" 
F 0 "#PWR0176" H 3700 4450 50  0001 C CNN
F 1 "+3V3" H 3715 4773 50  0000 C CNN
F 2 "" H 3700 4600 50  0001 C CNN
F 3 "" H 3700 4600 50  0001 C CNN
	1    3700 4600
	1    0    0    -1  
$EndComp
$Comp
L Device:D D?
U 1 1 5EF5E5D7
P 4300 4600
AR Path="/5E755028/5EF5E5D7" Ref="D?"  Part="1" 
AR Path="/5EC9AF07/5EF5E5D7" Ref="D9"  Part="1" 
F 0 "D9" H 4200 4550 50  0000 C CNN
F 1 "1N914BWT" H 4300 4475 50  0001 C CNN
F 2 "Diode_SMD:D_SOD-323" H 4300 4600 50  0001 C CNN
F 3 "https://www.onsemi.com/pub/Collateral/1N914BWS-D.pdf" H 4300 4600 50  0001 C CNN
F 4 "1N914BWSCT-ND" H 4300 4600 50  0001 C CNN "Digi-Key_PN"
	1    4300 4600
	-1   0    0    1   
$EndComp
Wire Wire Line
	3700 4600 3800 4600
Wire Wire Line
	4100 4600 4150 4600
Wire Wire Line
	4450 4600 4750 4600
$Comp
L Device:R_US R?
U 1 1 5EF5E5E0
P 4400 4900
AR Path="/5E755028/5EF5E5E0" Ref="R?"  Part="1" 
AR Path="/5EC9AF07/5EF5E5E0" Ref="R77"  Part="1" 
F 0 "R77" V 4300 4950 50  0000 C CNN
F 1 "20K" V 4300 4800 50  0000 C CNN
F 2 "Resistor_SMD:R_0603_1608Metric" V 4440 4890 50  0001 C CNN
F 3 "~" H 4400 4900 50  0001 C CNN
	1    4400 4900
	0    -1   -1   0   
$EndComp
$Comp
L Device:R_US R?
U 1 1 5EF5E5E6
P 4100 5100
AR Path="/5E755028/5EF5E5E6" Ref="R?"  Part="1" 
AR Path="/5EC9AF07/5EF5E5E6" Ref="R76"  Part="1" 
F 0 "R76" V 4000 5150 50  0000 C CNN
F 1 "51K" V 4000 5000 50  0000 C CNN
F 2 "Resistor_SMD:R_0603_1608Metric" V 4140 5090 50  0001 C CNN
F 3 "~" H 4100 5100 50  0001 C CNN
	1    4100 5100
	1    0    0    -1  
$EndComp
Wire Wire Line
	4050 4900 4100 4900
Wire Wire Line
	4550 4900 4750 4900
Wire Wire Line
	4100 4950 4100 4900
Connection ~ 4100 4900
Wire Wire Line
	4100 4900 4250 4900
$Comp
L power:GND #PWR?
U 1 1 5EF5E5F2
P 4200 5350
AR Path="/5E755028/5EF5E5F2" Ref="#PWR?"  Part="1" 
AR Path="/5EC9AF07/5EF5E5F2" Ref="#PWR0183"  Part="1" 
F 0 "#PWR0183" H 4200 5100 50  0001 C CNN
F 1 "GND" H 4200 5200 50  0000 C CNN
F 2 "" H 4200 5350 50  0001 C CNN
F 3 "" H 4200 5350 50  0001 C CNN
	1    4200 5350
	1    0    0    -1  
$EndComp
Wire Wire Line
	4100 5250 4100 5350
Wire Wire Line
	4100 5350 4200 5350
Wire Wire Line
	4850 5300 4200 5300
Wire Wire Line
	4200 5300 4200 5350
Connection ~ 4200 5350
$Comp
L power:+5V #PWR?
U 1 1 5EF5E5FF
P 6500 4900
AR Path="/5E755028/5EF5E5FF" Ref="#PWR?"  Part="1" 
AR Path="/5EC9AF07/5EF5E5FF" Ref="#PWR0193"  Part="1" 
F 0 "#PWR0193" H 6500 4750 50  0001 C CNN
F 1 "+5V" H 6515 5073 50  0000 C CNN
F 2 "" H 6500 4900 50  0001 C CNN
F 3 "" H 6500 4900 50  0001 C CNN
	1    6500 4900
	1    0    0    -1  
$EndComp
$Comp
L Device:C C?
U 1 1 5EF5E605
P 5650 5050
AR Path="/5E755028/5EF5E605" Ref="C?"  Part="1" 
AR Path="/5EC9AF07/5EF5E605" Ref="C113"  Part="1" 
F 0 "C113" V 5398 5050 50  0000 C CNN
F 1 "0.1uF" V 5489 5050 50  0000 C CNN
F 2 "Capacitor_SMD:C_0603_1608Metric" H 5688 4900 50  0001 C CNN
F 3 "~" H 5650 5050 50  0001 C CNN
	1    5650 5050
	-1   0    0    1   
$EndComp
$Comp
L Device:C C?
U 1 1 5EF5E60B
P 6050 5050
AR Path="/5E755028/5EF5E60B" Ref="C?"  Part="1" 
AR Path="/5EC9AF07/5EF5E60B" Ref="C114"  Part="1" 
F 0 "C114" V 5798 5050 50  0000 C CNN
F 1 "10uF" V 5889 5050 50  0000 C CNN
F 2 "Capacitor_SMD:C_0603_1608Metric" H 6088 4900 50  0001 C CNN
F 3 "~" H 6050 5050 50  0001 C CNN
	1    6050 5050
	-1   0    0    1   
$EndComp
$Comp
L power:GND #PWR?
U 1 1 5EF5E611
P 6650 5200
AR Path="/5E755028/5EF5E611" Ref="#PWR?"  Part="1" 
AR Path="/5EC9AF07/5EF5E611" Ref="#PWR0194"  Part="1" 
F 0 "#PWR0194" H 6650 4950 50  0001 C CNN
F 1 "GND" H 6650 5050 50  0000 C CNN
F 2 "" H 6650 5200 50  0001 C CNN
F 3 "" H 6650 5200 50  0001 C CNN
	1    6650 5200
	1    0    0    -1  
$EndComp
Wire Wire Line
	5550 4100 6650 4100
Wire Wire Line
	6650 4100 6650 4400
Wire Wire Line
	5550 4400 6650 4400
Connection ~ 6650 4400
Wire Wire Line
	6650 4400 6650 5200
Wire Wire Line
	6500 4900 6050 4900
Wire Wire Line
	5550 4900 5650 4900
Wire Wire Line
	5650 4900 6050 4900
Connection ~ 5650 4900
Connection ~ 6050 4900
Wire Wire Line
	5650 5200 6050 5200
Wire Wire Line
	6050 5200 6650 5200
Connection ~ 6050 5200
Connection ~ 6650 5200
NoConn ~ 5550 4700
Wire Wire Line
	4200 4200 4750 4200
Connection ~ 4200 5300
Wire Wire Line
	4750 4500 4200 4500
Connection ~ 4200 4500
Wire Wire Line
	4200 4500 4200 4200
Wire Wire Line
	4750 4800 4200 4800
Wire Wire Line
	4200 4500 4200 4800
Connection ~ 4200 4800
Wire Wire Line
	4200 4800 4200 5300
Text Notes 4250 3700 0    50   ~ 0
HDMI Connector
Wire Notes Line
	3600 3600 6750 3600
Wire Notes Line
	6750 3600 6750 5550
Wire Notes Line
	6750 5550 3600 5550
Wire Notes Line
	3600 5550 3600 3600
$Comp
L power:+5V #PWR?
U 1 1 5EF5E636
P 5750 3800
AR Path="/5E755028/5EF5E636" Ref="#PWR?"  Part="1" 
AR Path="/5EC9AF07/5EF5E636" Ref="#PWR0190"  Part="1" 
F 0 "#PWR0190" H 5750 3650 50  0001 C CNN
F 1 "+5V" H 5750 3950 50  0000 C CNN
F 2 "" H 5750 3800 50  0001 C CNN
F 3 "" H 5750 3800 50  0001 C CNN
	1    5750 3800
	1    0    0    -1  
$EndComp
$Comp
L Device:R_US R?
U 1 1 5EF5E63C
P 6050 4000
AR Path="/5E755028/5EF5E63C" Ref="R?"  Part="1" 
AR Path="/5EC9AF07/5EF5E63C" Ref="R83"  Part="1" 
F 0 "R83" V 6100 4150 50  0000 C CNN
F 1 "4.75k" V 6000 4150 50  0000 C CNN
F 2 "Resistor_SMD:R_0603_1608Metric" V 6090 3990 50  0001 C CNN
F 3 "~" H 6050 4000 50  0001 C CNN
	1    6050 4000
	0    -1   -1   0   
$EndComp
$Comp
L Device:R_US R?
U 1 1 5EF5E642
P 6050 3800
AR Path="/5E755028/5EF5E642" Ref="R?"  Part="1" 
AR Path="/5EC9AF07/5EF5E642" Ref="R82"  Part="1" 
F 0 "R82" V 6100 3700 50  0000 C CNN
F 1 "4.75k" V 5950 3700 50  0000 C CNN
F 2 "Resistor_SMD:R_0603_1608Metric" V 6090 3790 50  0001 C CNN
F 3 "~" H 6050 3800 50  0001 C CNN
	1    6050 3800
	0    -1   -1   0   
$EndComp
Wire Wire Line
	5750 3800 5750 4000
Wire Wire Line
	5750 4000 5900 4000
Wire Wire Line
	5900 3800 5750 3800
Connection ~ 5750 3800
Wire Wire Line
	6200 3800 6300 3800
Wire Wire Line
	6200 4000 6300 4000
$Comp
L power:+3V3 #PWR?
U 1 1 5EF5E64E
P 3800 3850
AR Path="/5E755028/5EF5E64E" Ref="#PWR?"  Part="1" 
AR Path="/5EC9AF07/5EF5E64E" Ref="#PWR0178"  Part="1" 
F 0 "#PWR0178" H 3800 3700 50  0001 C CNN
F 1 "+3V3" H 3815 4023 50  0000 C CNN
F 2 "" H 3800 3850 50  0001 C CNN
F 3 "" H 3800 3850 50  0001 C CNN
	1    3800 3850
	1    0    0    -1  
$EndComp
$Comp
L Device:C C?
U 1 1 5EF5E654
P 3800 4000
AR Path="/5E755028/5EF5E654" Ref="C?"  Part="1" 
AR Path="/5EC9AF07/5EF5E654" Ref="C105"  Part="1" 
F 0 "C105" V 3548 4000 50  0000 C CNN
F 1 "0.1uF" V 3639 4000 50  0000 C CNN
F 2 "Capacitor_SMD:C_0603_1608Metric" H 3838 3850 50  0001 C CNN
F 3 "~" H 3800 4000 50  0001 C CNN
	1    3800 4000
	-1   0    0    1   
$EndComp
$Comp
L power:GND #PWR?
U 1 1 5EF5E65A
P 3800 4150
AR Path="/5E755028/5EF5E65A" Ref="#PWR?"  Part="1" 
AR Path="/5EC9AF07/5EF5E65A" Ref="#PWR0179"  Part="1" 
F 0 "#PWR0179" H 3800 3900 50  0001 C CNN
F 1 "GND" H 3800 4000 50  0000 C CNN
F 2 "" H 3800 4150 50  0001 C CNN
F 3 "" H 3800 4150 50  0001 C CNN
	1    3800 4150
	1    0    0    -1  
$EndComp
Text Label 10400 3300 2    50   ~ 0
FPGA_DDC_SCL
Text Label 12000 3500 0    50   ~ 0
FPGA_DDC_SDA
Text Label 6300 3800 0    50   ~ 0
FPGA_DDC_SCL
Text Label 6300 4000 0    50   ~ 0
FPGA_DDC_SDA
Text Label 5550 4800 0    50   ~ 0
FPGA_DDC_SDA
Text Label 4750 4700 2    50   ~ 0
FPGA_DDC_SCL
Text Label 4750 4300 2    50   ~ 0
FPGA_HDMITX_DP0
Text Label 4750 4400 2    50   ~ 0
FPGA_HDMITX_DN0
Text Label 4750 4000 2    50   ~ 0
FPGA_HDMITX_DP2
Text Label 4750 4100 2    50   ~ 0
FPGA_HDMITX_DN2
Text Label 5550 4300 0    50   ~ 0
FPGA_HDMITX_DN1
Text Label 5550 4200 0    50   ~ 0
FPGA_HDMITX_DP1
Text Label 5550 4500 0    50   ~ 0
FPGA_HDMITX_CP
Text Label 5550 4600 0    50   ~ 0
FPGA_HDMITX_CN
$Comp
L Switch:SW_Push SW?
U 1 1 5F0E886A
P 4800 2600
AR Path="/5E74ACE7/5F0E886A" Ref="SW?"  Part="1" 
AR Path="/5EC9AF07/5F0E886A" Ref="SW3"  Part="1" 
F 0 "SW3" H 4800 2793 50  0000 C CNN
F 1 "SW_Push" H 4800 2794 50  0001 C CNN
F 2 "Button_Switch_SMD:SW_SPST_EVQQ2" H 4800 2800 50  0001 C CNN
F 3 "https://dznh3ojzb2azq.cloudfront.net/products/Tactile/PTS645/documents/datasheet.pdf" H 4800 2800 50  0001 C CNN
F 4 "CKN9084CT-ND" H 4800 2600 50  0001 C CNN "Digi-Key_PN"
	1    4800 2600
	1    0    0    -1  
$EndComp
$Comp
L Device:R_US R?
U 1 1 5F0E8870
P 4600 2450
AR Path="/5E74ACE7/5F0E8870" Ref="R?"  Part="1" 
AR Path="/5EC9AF07/5F0E8870" Ref="R87"  Part="1" 
F 0 "R87" H 4450 2500 50  0000 L CNN
F 1 "10k" H 4400 2400 50  0000 L CNN
F 2 "Resistor_SMD:R_0603_1608Metric" V 4640 2440 50  0001 C CNN
F 3 "~" H 4600 2450 50  0001 C CNN
	1    4600 2450
	1    0    0    -1  
$EndComp
Text Label 4550 2600 3    50   ~ 0
RESET
$Comp
L power:+3V3 #PWR?
U 1 1 5F0E8877
P 4600 2300
AR Path="/5E74ACE7/5F0E8877" Ref="#PWR?"  Part="1" 
AR Path="/5EC9AF07/5F0E8877" Ref="#PWR0199"  Part="1" 
F 0 "#PWR0199" H 4600 2150 50  0001 C CNN
F 1 "+3V3" H 4615 2473 50  0000 C CNN
F 2 "" H 4600 2300 50  0001 C CNN
F 3 "" H 4600 2300 50  0001 C CNN
	1    4600 2300
	1    0    0    -1  
$EndComp
$Comp
L power:GND #PWR?
U 1 1 5F0E887D
P 5000 2600
AR Path="/5E74ACE7/5F0E887D" Ref="#PWR?"  Part="1" 
AR Path="/5EC9AF07/5F0E887D" Ref="#PWR0202"  Part="1" 
F 0 "#PWR0202" H 5000 2350 50  0001 C CNN
F 1 "GND" H 5005 2427 50  0000 C CNN
F 2 "" H 5000 2600 50  0001 C CNN
F 3 "" H 5000 2600 50  0001 C CNN
	1    5000 2600
	1    0    0    -1  
$EndComp
Wire Wire Line
	4550 2600 4600 2600
Connection ~ 4600 2600
Text Notes 4500 2050 0    50   ~ 0
RESET Circuit
Wire Notes Line
	4350 1950 4350 2850
Wire Notes Line
	4350 2850 5100 2850
Wire Notes Line
	5100 2850 5100 1950
Wire Notes Line
	5100 1950 4350 1950
Text Label 12000 4100 0    50   ~ 0
RESET
$Comp
L dk_Interface-Controllers:FT2232HL-REEL U13
U 1 1 5F1F3649
P 2200 3850
F 0 "U13" H 2700 4000 60  0000 L CNN
F 1 "FT2232HL-REEL" V 2850 4200 60  0000 L CNN
F 2 "digikey-footprints:LQFP-64_10x10mm" V 2400 4050 60  0001 L CNN
F 3 "https://www.ftdichip.com/Support/Documents/DataSheets/ICs/DS_FT2232H.pdf" H 2400 4150 60  0001 L CNN
F 4 "768-1024-1-ND" H 2400 4250 60  0001 L CNN "Digi-Key_PN"
F 5 "FT2232HL-REEL" H 2400 4350 60  0001 L CNN "MPN"
F 6 "Integrated Circuits (ICs)" H 2400 4450 60  0001 L CNN "Category"
F 7 "Interface - Controllers" H 2400 4550 60  0001 L CNN "Family"
F 8 "https://www.ftdichip.com/Support/Documents/DataSheets/ICs/DS_FT2232H.pdf" H 2400 4650 60  0001 L CNN "DK_Datasheet_Link"
F 9 "/product-detail/en/ftdi-future-technology-devices-international-ltd/FT2232HL-REEL/768-1024-1-ND/1986057" H 2400 4750 60  0001 L CNN "DK_Detail_Page"
F 10 "IC USB HS DUAL UART/FIFO 64-LQFP" H 2400 4850 60  0001 L CNN "Description"
F 11 "FTDI, Future Technology Devices International Ltd" H 2400 4950 60  0001 L CNN "Manufacturer"
F 12 "Active" H 2400 5050 60  0001 L CNN "Status"
	1    2200 3850
	1    0    0    -1  
$EndComp
$Comp
L S25FL127SAB:S25FL127SABMFI103 U12
U 1 1 5E8B6A3E
P 1550 6700
F 0 "U12" H 2975 6981 60  0000 C CNN
F 1 "S25FL127SABMFI103" H 2975 7087 60  0001 C CNN
F 2 "Package_SO:SOIJ-8_5.3x5.3mm_P1.27mm" H 3050 6940 60  0001 C CNN
F 3 "https://www.cypress.com/file/177961/download" H 2975 6981 60  0001 C CNN
F 4 "428-4028-1-ND" H 1550 6700 50  0001 C CNN "Digi-Key_PN"
	1    1550 6700
	1    0    0    -1  
$EndComp
Text Label 3750 7000 0    50   ~ 0
ICE_MOSI
Text Label 2200 6800 2    50   ~ 0
ICE_MISO
Text Label 3800 1650 3    50   ~ 0
ICE_SCK
Text Label 4050 1650 3    50   ~ 0
ICE_SS
Text Label 3750 6900 0    50   ~ 0
ICE_SCK
Text Label 2200 6700 2    50   ~ 0
ICE_SS
$Comp
L power:+3V3 #PWR?
U 1 1 5E8F8135
P 3750 6700
AR Path="/5E755028/5E8F8135" Ref="#PWR?"  Part="1" 
AR Path="/5EC9AF07/5E8F8135" Ref="#PWR0177"  Part="1" 
F 0 "#PWR0177" H 3750 6550 50  0001 C CNN
F 1 "+3V3" H 3765 6873 50  0000 C CNN
F 2 "" H 3750 6700 50  0001 C CNN
F 3 "" H 3750 6700 50  0001 C CNN
	1    3750 6700
	1    0    0    -1  
$EndComp
$Comp
L power:GND #PWR?
U 1 1 5E900AAC
P 2200 7000
AR Path="/5E755028/5E900AAC" Ref="#PWR?"  Part="1" 
AR Path="/5EC9AF07/5E900AAC" Ref="#PWR0172"  Part="1" 
F 0 "#PWR0172" H 2200 6750 50  0001 C CNN
F 1 "GND" H 2200 6850 50  0000 C CNN
F 2 "" H 2200 7000 50  0001 C CNN
F 3 "" H 2200 7000 50  0001 C CNN
	1    2200 7000
	1    0    0    -1  
$EndComp
NoConn ~ 2200 6900
NoConn ~ 3750 6800
$Comp
L Device:R_US R?
U 1 1 5E909BEF
P 3800 1500
AR Path="/5E755028/5E909BEF" Ref="R?"  Part="1" 
AR Path="/5EC9AF07/5E909BEF" Ref="R71"  Part="1" 
F 0 "R71" V 3850 1400 50  0000 C CNN
F 1 "4.75k" V 3700 1400 50  0000 C CNN
F 2 "Resistor_SMD:R_0603_1608Metric" V 3840 1490 50  0001 C CNN
F 3 "~" H 3800 1500 50  0001 C CNN
	1    3800 1500
	1    0    0    -1  
$EndComp
$Comp
L Device:R_US R?
U 1 1 5E90C92E
P 4050 1500
AR Path="/5E755028/5E90C92E" Ref="R?"  Part="1" 
AR Path="/5EC9AF07/5E90C92E" Ref="R73"  Part="1" 
F 0 "R73" V 4100 1400 50  0000 C CNN
F 1 "4.75k" V 3950 1400 50  0000 C CNN
F 2 "Resistor_SMD:R_0603_1608Metric" V 4090 1490 50  0001 C CNN
F 3 "~" H 4050 1500 50  0001 C CNN
	1    4050 1500
	1    0    0    -1  
$EndComp
$Comp
L power:+3V3 #PWR?
U 1 1 5E932C93
P 3950 1350
AR Path="/5E755028/5E932C93" Ref="#PWR?"  Part="1" 
AR Path="/5EC9AF07/5E932C93" Ref="#PWR0180"  Part="1" 
F 0 "#PWR0180" H 3950 1200 50  0001 C CNN
F 1 "+3V3" H 3965 1523 50  0000 C CNN
F 2 "" H 3950 1350 50  0001 C CNN
F 3 "" H 3950 1350 50  0001 C CNN
	1    3950 1350
	1    0    0    -1  
$EndComp
Wire Wire Line
	4050 1350 3950 1350
Wire Wire Line
	3800 1350 3950 1350
Connection ~ 3950 1350
Text Notes 2450 6350 0    50   ~ 0
16MB storage
Wire Notes Line
	4100 7250 1850 7250
Wire Notes Line
	1850 7250 1850 6250
Wire Notes Line
	1850 6250 4100 6250
Wire Notes Line
	4100 6250 4100 7250
Text Label 3950 6150 2    50   ~ 0
CRESET
$Comp
L Device:R_US R?
U 1 1 5E94D66A
P 3850 6000
AR Path="/5E754FE4/5E94D66A" Ref="R?"  Part="1" 
AR Path="/5EC9AF07/5E94D66A" Ref="R80"  Part="1" 
F 0 "R80" V 3800 6050 50  0000 L CNN
F 1 "10k" V 3750 5900 50  0000 L CNN
F 2 "Resistor_SMD:R_0603_1608Metric" V 3890 5990 50  0001 C CNN
F 3 "~" H 3850 6000 50  0001 C CNN
	1    3850 6000
	0    1    1    0   
$EndComp
$Comp
L power:+3V3 #PWR0188
U 1 1 5E9536BA
P 3700 6000
F 0 "#PWR0188" H 3700 5850 50  0001 C CNN
F 1 "+3V3" H 3715 6173 50  0000 C CNN
F 2 "" H 3700 6000 50  0001 C CNN
F 3 "" H 3700 6000 50  0001 C CNN
	1    3700 6000
	1    0    0    -1  
$EndComp
Wire Wire Line
	4000 6150 3950 6150
Text Label 1400 3150 2    50   ~ 0
CRESET
Text Label 1400 2450 2    50   ~ 0
ICE_SCK
Text Label 1400 2550 2    50   ~ 0
ICE_MOSI
Text Label 1400 2650 2    50   ~ 0
ICE_MISO
Text Label 1400 2850 2    50   ~ 0
ICE_SS
NoConn ~ 1400 2750
NoConn ~ 1400 2950
NoConn ~ 1400 3250
NoConn ~ 1400 3350
NoConn ~ 1400 3450
NoConn ~ 1400 3550
NoConn ~ 1400 3650
NoConn ~ 1400 3750
NoConn ~ 1400 3850
NoConn ~ 1400 3950
NoConn ~ 1400 4750
NoConn ~ 1400 4850
NoConn ~ 1400 4950
NoConn ~ 1400 5050
NoConn ~ 1400 5150
NoConn ~ 1400 5250
NoConn ~ 1400 5350
NoConn ~ 1400 5450
NoConn ~ 3000 2150
NoConn ~ 3000 2250
$Comp
L power:GND #PWR?
U 1 1 5E9B7DA9
P 2400 5850
AR Path="/5E755028/5E9B7DA9" Ref="#PWR?"  Part="1" 
AR Path="/5EC9AF07/5E9B7DA9" Ref="#PWR0174"  Part="1" 
F 0 "#PWR0174" H 2400 5600 50  0001 C CNN
F 1 "GND" H 2400 5700 50  0000 C CNN
F 2 "" H 2400 5850 50  0001 C CNN
F 3 "" H 2400 5850 50  0001 C CNN
	1    2400 5850
	1    0    0    -1  
$EndComp
$Comp
L power:GND #PWR?
U 1 1 5E9B9963
P 1400 2050
AR Path="/5E755028/5E9B9963" Ref="#PWR?"  Part="1" 
AR Path="/5EC9AF07/5E9B9963" Ref="#PWR0170"  Part="1" 
F 0 "#PWR0170" H 1400 1800 50  0001 C CNN
F 1 "GND" H 1400 1900 50  0000 C CNN
F 2 "" H 1400 2050 50  0001 C CNN
F 3 "" H 1400 2050 50  0001 C CNN
	1    1400 2050
	0    1    1    0   
$EndComp
Wire Wire Line
	2000 5750 2000 5850
Wire Wire Line
	2000 5850 2100 5850
Wire Wire Line
	2400 5850 2500 5850
Wire Wire Line
	2800 5850 2800 5750
Connection ~ 2400 5850
Wire Wire Line
	2700 5750 2700 5850
Connection ~ 2700 5850
Wire Wire Line
	2700 5850 2800 5850
Wire Wire Line
	2600 5850 2600 5750
Connection ~ 2600 5850
Wire Wire Line
	2600 5850 2700 5850
Wire Wire Line
	2500 5750 2500 5850
Connection ~ 2500 5850
Wire Wire Line
	2500 5850 2600 5850
Wire Wire Line
	2400 5850 2400 5750
Wire Wire Line
	2300 5750 2300 5850
Connection ~ 2300 5850
Wire Wire Line
	2300 5850 2400 5850
Wire Wire Line
	2200 5850 2200 5750
Connection ~ 2200 5850
Wire Wire Line
	2200 5850 2300 5850
Wire Wire Line
	2100 5750 2100 5850
Connection ~ 2100 5850
Wire Wire Line
	2100 5850 2200 5850
Wire Wire Line
	2100 1450 2100 1300
Wire Wire Line
	2100 1300 2200 1300
Wire Wire Line
	2300 1300 2400 1300
Wire Wire Line
	2400 1300 2400 1450
Connection ~ 2300 1300
Wire Wire Line
	2300 1450 2300 1300
Wire Wire Line
	2200 1300 2200 1450
Connection ~ 2200 1300
Wire Wire Line
	2200 1300 2250 1300
$Comp
L Device:C C?
U 1 1 5E9EAEDA
P 1550 900
AR Path="/5E755028/5E9EAEDA" Ref="C?"  Part="1" 
AR Path="/5EC9AF07/5E9EAEDA" Ref="C102"  Part="1" 
F 0 "C102" V 1298 900 50  0000 C CNN
F 1 "0.1uF" V 1389 900 50  0000 C CNN
F 2 "Capacitor_SMD:C_0603_1608Metric" H 1588 750 50  0001 C CNN
F 3 "~" H 1550 900 50  0001 C CNN
	1    1550 900 
	-1   0    0    1   
$EndComp
$Comp
L Device:C C?
U 1 1 5E9F484D
P 1950 900
AR Path="/5E755028/5E9F484D" Ref="C?"  Part="1" 
AR Path="/5EC9AF07/5E9F484D" Ref="C103"  Part="1" 
F 0 "C103" V 1698 900 50  0000 C CNN
F 1 "0.1uF" V 1789 900 50  0000 C CNN
F 2 "Capacitor_SMD:C_0603_1608Metric" H 1988 750 50  0001 C CNN
F 3 "~" H 1950 900 50  0001 C CNN
	1    1950 900 
	-1   0    0    1   
$EndComp
$Comp
L Device:C C?
U 1 1 5E9F4E39
P 2400 900
AR Path="/5E755028/5E9F4E39" Ref="C?"  Part="1" 
AR Path="/5EC9AF07/5E9F4E39" Ref="C104"  Part="1" 
F 0 "C104" V 2148 900 50  0000 C CNN
F 1 "0.1uF" V 2239 900 50  0000 C CNN
F 2 "Capacitor_SMD:C_0603_1608Metric" H 2438 750 50  0001 C CNN
F 3 "~" H 2400 900 50  0001 C CNN
	1    2400 900 
	-1   0    0    1   
$EndComp
$Comp
L Device:C C?
U 1 1 5E9F536A
P 1150 900
AR Path="/5E755028/5E9F536A" Ref="C?"  Part="1" 
AR Path="/5EC9AF07/5E9F536A" Ref="C99"  Part="1" 
F 0 "C99" V 898 900 50  0000 C CNN
F 1 "0.1uF" V 989 900 50  0000 C CNN
F 2 "Capacitor_SMD:C_0603_1608Metric" H 1188 750 50  0001 C CNN
F 3 "~" H 1150 900 50  0001 C CNN
	1    1150 900 
	-1   0    0    1   
$EndComp
$Comp
L power:GND #PWR?
U 1 1 5E9FC301
P 950 750
AR Path="/5E755028/5E9FC301" Ref="#PWR?"  Part="1" 
AR Path="/5EC9AF07/5E9FC301" Ref="#PWR0166"  Part="1" 
F 0 "#PWR0166" H 950 500 50  0001 C CNN
F 1 "GND" H 950 600 50  0000 C CNN
F 2 "" H 950 750 50  0001 C CNN
F 3 "" H 950 750 50  0001 C CNN
	1    950  750 
	1    0    0    -1  
$EndComp
Wire Wire Line
	950  750  1150 750 
Wire Wire Line
	1150 750  1550 750 
Connection ~ 1150 750 
Wire Wire Line
	1550 750  1950 750 
Connection ~ 1550 750 
Wire Wire Line
	1950 750  2400 750 
Connection ~ 1950 750 
Wire Wire Line
	2400 1050 2000 1050
Wire Wire Line
	1950 1050 1900 1050
Connection ~ 1950 1050
Wire Wire Line
	1550 1050 1150 1050
Connection ~ 1550 1050
Wire Wire Line
	1800 1450 1800 1050
Connection ~ 1800 1050
Wire Wire Line
	1800 1050 1550 1050
Wire Wire Line
	1900 1050 1900 1450
Connection ~ 1900 1050
Wire Wire Line
	1900 1050 1800 1050
Wire Wire Line
	2000 1450 2000 1050
Connection ~ 2000 1050
Wire Wire Line
	2000 1050 1950 1050
Wire Wire Line
	3000 1950 3000 1050
Wire Wire Line
	3000 1050 2400 1050
Connection ~ 2400 1050
$Comp
L Connector:USB_B_Micro J?
U 1 1 5EA3442B
P 6850 1100
AR Path="/5E755028/5EA3442B" Ref="J?"  Part="1" 
AR Path="/5EC9AF07/5EA3442B" Ref="J14"  Part="1" 
F 0 "J14" H 6907 1567 50  0000 C CNN
F 1 "USB_B_Micro" H 6907 1476 50  0000 C CNN
F 2 "footprints:USB_Micro-B_GCT_USB3076-30-A" H 7000 1050 50  0001 C CNN
F 3 "~" H 7000 1050 50  0001 C CNN
F 4 "609-4616-1-ND" H 6850 1100 50  0001 C CNN "Digi-Key_PN"
	1    6850 1100
	1    0    0    -1  
$EndComp
$Comp
L power:GND #PWR?
U 1 1 5EA34438
P 6800 1550
AR Path="/5E755028/5EA34438" Ref="#PWR?"  Part="1" 
AR Path="/5EC9AF07/5EA34438" Ref="#PWR0211"  Part="1" 
F 0 "#PWR0211" H 6800 1300 50  0001 C CNN
F 1 "GND" H 6805 1377 50  0000 C CNN
F 2 "" H 6800 1550 50  0001 C CNN
F 3 "" H 6800 1550 50  0001 C CNN
	1    6800 1550
	1    0    0    -1  
$EndComp
Wire Wire Line
	6750 1500 6750 1550
Wire Wire Line
	6750 1550 6800 1550
Wire Wire Line
	6850 1500 6850 1550
Wire Wire Line
	6850 1550 6800 1550
Connection ~ 6800 1550
Text Notes 6700 600  0    50   ~ 0
USB Micro
Wire Notes Line
	6600 500  6600 1800
Wire Notes Line
	6600 1800 7650 1800
Wire Notes Line
	7650 1800 7650 500 
Wire Notes Line
	7650 500  6600 500 
$Comp
L power:VBUS #PWR0215
U 1 1 5EA3BB8C
P 7150 900
F 0 "#PWR0215" H 7150 750 50  0001 C CNN
F 1 "VBUS" V 7165 1028 50  0000 L CNN
F 2 "" H 7150 900 50  0001 C CNN
F 3 "" H 7150 900 50  0001 C CNN
	1    7150 900 
	0    1    1    0   
$EndComp
$Comp
L power:VBUS #PWR0214
U 1 1 5EA43990
P 7100 1650
F 0 "#PWR0214" H 7100 1500 50  0001 C CNN
F 1 "VBUS" V 7150 1600 50  0000 L CNN
F 2 "" H 7100 1650 50  0001 C CNN
F 3 "" H 7100 1650 50  0001 C CNN
	1    7100 1650
	0    -1   -1   0   
$EndComp
$Comp
L Device:D D?
U 1 1 5EA4E228
P 7250 1650
AR Path="/5E755028/5EA4E228" Ref="D?"  Part="1" 
AR Path="/5EC9AF07/5EA4E228" Ref="D17"  Part="1" 
F 0 "D17" H 7150 1600 50  0000 C CNN
F 1 "1N914BWT" H 7250 1525 50  0001 C CNN
F 2 "Diode_SMD:D_SOD-323" H 7250 1650 50  0001 C CNN
F 3 "https://www.onsemi.com/pub/Collateral/1N914BWS-D.pdf" H 7250 1650 50  0001 C CNN
F 4 "1N914BWSCT-ND" H 7250 1650 50  0001 C CNN "Digi-Key_PN"
	1    7250 1650
	-1   0    0    1   
$EndComp
$Comp
L power:+5V #PWR0216
U 1 1 5EA5BF8F
P 7400 1650
F 0 "#PWR0216" H 7400 1500 50  0001 C CNN
F 1 "+5V" V 7350 1650 50  0000 L CNN
F 2 "" H 7400 1650 50  0001 C CNN
F 3 "" H 7400 1650 50  0001 C CNN
	1    7400 1650
	0    1    1    0   
$EndComp
$Comp
L power:VBUS #PWR0164
U 1 1 5EA9E79F
P 750 5350
F 0 "#PWR0164" H 750 5200 50  0001 C CNN
F 1 "VBUS" V 800 5300 50  0000 L CNN
F 2 "" H 750 5350 50  0001 C CNN
F 3 "" H 750 5350 50  0001 C CNN
	1    750  5350
	0    -1   -1   0   
$EndComp
$Comp
L Device:R_US R?
U 1 1 5EAB0E75
P 900 5350
AR Path="/5E755028/5EAB0E75" Ref="R?"  Part="1" 
AR Path="/5EC9AF07/5EAB0E75" Ref="R67"  Part="1" 
F 0 "R67" V 950 5250 50  0000 C CNN
F 1 "4.75k" V 800 5250 50  0000 C CNN
F 2 "Resistor_SMD:R_0603_1608Metric" V 940 5340 50  0001 C CNN
F 3 "~" H 900 5350 50  0001 C CNN
	1    900  5350
	0    -1   -1   0   
$EndComp
$Comp
L Device:R_US R?
U 1 1 5EAB77CC
P 1150 5750
AR Path="/5E755028/5EAB77CC" Ref="R?"  Part="1" 
AR Path="/5EC9AF07/5EAB77CC" Ref="R70"  Part="1" 
F 0 "R70" V 1200 5650 50  0000 C CNN
F 1 "10k" V 1050 5650 50  0000 C CNN
F 2 "Resistor_SMD:R_0603_1608Metric" V 1190 5740 50  0001 C CNN
F 3 "~" H 1150 5750 50  0001 C CNN
	1    1150 5750
	1    0    0    -1  
$EndComp
$Comp
L power:GND #PWR?
U 1 1 5EABA915
P 1150 5900
AR Path="/5E755028/5EABA915" Ref="#PWR?"  Part="1" 
AR Path="/5EC9AF07/5EABA915" Ref="#PWR0169"  Part="1" 
F 0 "#PWR0169" H 1150 5650 50  0001 C CNN
F 1 "GND" H 1150 5750 50  0000 C CNN
F 2 "" H 1150 5900 50  0001 C CNN
F 3 "" H 1150 5900 50  0001 C CNN
	1    1150 5900
	1    0    0    -1  
$EndComp
Wire Wire Line
	1400 5550 1150 5550
Wire Wire Line
	1150 5550 1150 5600
Wire Wire Line
	1050 5350 1150 5350
Wire Wire Line
	1150 5350 1150 5550
Connection ~ 1150 5550
Text Label 1400 3050 2    50   ~ 0
CDONE
$Comp
L Device:R_US R?
U 1 1 5EB76769
P 4050 2450
AR Path="/5E754FE4/5EB76769" Ref="R?"  Part="1" 
AR Path="/5EC9AF07/5EB76769" Ref="R74"  Part="1" 
F 0 "R74" V 4000 2450 50  0000 L CNN
F 1 "200" V 4100 2400 50  0000 L CNN
F 2 "Resistor_SMD:R_0603_1608Metric" V 4090 2440 50  0001 C CNN
F 3 "~" H 4050 2450 50  0001 C CNN
	1    4050 2450
	-1   0    0    1   
$EndComp
$Comp
L Device:R_US R?
U 1 1 5EB7FBF3
P 4050 2800
AR Path="/5E754FE4/5EB7FBF3" Ref="R?"  Part="1" 
AR Path="/5EC9AF07/5EB7FBF3" Ref="R75"  Part="1" 
F 0 "R75" V 4000 2800 50  0000 L CNN
F 1 "100" V 4100 2750 50  0000 L CNN
F 2 "Resistor_SMD:R_0603_1608Metric" V 4090 2790 50  0001 C CNN
F 3 "~" H 4050 2800 50  0001 C CNN
	1    4050 2800
	-1   0    0    1   
$EndComp
$Comp
L Device:LED D?
U 1 1 5EB84AC6
P 4050 3100
AR Path="/5E754FE4/5EB84AC6" Ref="D?"  Part="1" 
AR Path="/5EC9AF07/5EB84AC6" Ref="D8"  Part="1" 
F 0 "D8" H 4100 3150 50  0000 R CNN
F 1 "LED" V 3998 2983 50  0001 R CNN
F 2 "LED_SMD:LED_0603_1608Metric" H 4050 3100 50  0001 C CNN
F 3 "~" H 4050 3100 50  0001 C CNN
	1    4050 3100
	0    -1   -1   0   
$EndComp
$Comp
L power:GND #PWR?
U 1 1 5EB9304D
P 4050 3250
AR Path="/5E754FE4/5EB9304D" Ref="#PWR?"  Part="1" 
AR Path="/5EC9AF07/5EB9304D" Ref="#PWR0182"  Part="1" 
F 0 "#PWR0182" H 4050 3000 50  0001 C CNN
F 1 "GND" H 4055 3077 50  0000 C CNN
F 2 "" H 4050 3250 50  0001 C CNN
F 3 "" H 4050 3250 50  0001 C CNN
	1    4050 3250
	1    0    0    -1  
$EndComp
$Comp
L power:+3V3 #PWR0181
U 1 1 5EBA01E6
P 4050 2300
F 0 "#PWR0181" H 4050 2150 50  0001 C CNN
F 1 "+3V3" H 4065 2473 50  0000 C CNN
F 2 "" H 4050 2300 50  0001 C CNN
F 3 "" H 4050 2300 50  0001 C CNN
	1    4050 2300
	1    0    0    -1  
$EndComp
Text Label 3950 2650 2    50   ~ 0
CDONE
Wire Wire Line
	4050 2600 4050 2650
Wire Wire Line
	3950 2650 4050 2650
Connection ~ 4050 2650
$Comp
L Device:R_US R?
U 1 1 5EC0A8CC
P 1100 2150
AR Path="/5E754FE4/5EC0A8CC" Ref="R?"  Part="1" 
AR Path="/5EC9AF07/5EC0A8CC" Ref="R69"  Part="1" 
F 0 "R69" V 1050 2150 50  0000 L CNN
F 1 "10k" V 1150 2100 50  0000 L CNN
F 2 "Resistor_SMD:R_0603_1608Metric" V 1140 2140 50  0001 C CNN
F 3 "~" H 1100 2150 50  0001 C CNN
	1    1100 2150
	0    -1   -1   0   
$EndComp
$Comp
L power:+3V3 #PWR0165
U 1 1 5EC113C4
P 900 2150
F 0 "#PWR0165" H 900 2000 50  0001 C CNN
F 1 "+3V3" H 915 2323 50  0000 C CNN
F 2 "" H 900 2150 50  0001 C CNN
F 3 "" H 900 2150 50  0001 C CNN
	1    900  2150
	1    0    0    -1  
$EndComp
Wire Wire Line
	900  2150 950  2150
Wire Wire Line
	1250 2150 1400 2150
Text Label 1400 1850 2    50   ~ 0
FPGA_DM
Text Label 1400 1950 2    50   ~ 0
FPGA_DP
Text Label 7150 1200 0    50   ~ 0
FPGA_DM
Text Label 7150 1100 0    50   ~ 0
FPGA_DP
NoConn ~ 7150 1300
$Comp
L Device:R_US R?
U 1 1 5EC49B03
P 1000 1750
AR Path="/5E754FE4/5EC49B03" Ref="R?"  Part="1" 
AR Path="/5EC9AF07/5EC49B03" Ref="R68"  Part="1" 
F 0 "R68" V 950 1750 50  0000 L CNN
F 1 "12k" V 1050 1700 50  0000 L CNN
F 2 "Resistor_SMD:R_0603_1608Metric" V 1040 1740 50  0001 C CNN
F 3 "~" H 1000 1750 50  0001 C CNN
	1    1000 1750
	0    -1   -1   0   
$EndComp
$Comp
L power:GND #PWR?
U 1 1 5EC4C2AD
P 750 1750
AR Path="/5E755028/5EC4C2AD" Ref="#PWR?"  Part="1" 
AR Path="/5EC9AF07/5EC4C2AD" Ref="#PWR0163"  Part="1" 
F 0 "#PWR0163" H 750 1500 50  0001 C CNN
F 1 "GND" H 750 1600 50  0000 C CNN
F 2 "" H 750 1750 50  0001 C CNN
F 3 "" H 750 1750 50  0001 C CNN
	1    750  1750
	1    0    0    -1  
$EndComp
Wire Wire Line
	750  1750 850  1750
Wire Wire Line
	1150 1750 1400 1750
Text Label 1400 1650 2    50   ~ 0
FPGA_OSCI
Text Label 3000 2050 0    50   ~ 0
FPGA_OSCO
Text Label 6500 2350 1    50   ~ 0
FPGA_OSCO
Text Label 6800 2350 1    50   ~ 0
FPGA_OSCI
$Comp
L Device:C C?
U 1 1 5EC644AE
P 6800 3100
AR Path="/5E74ACE7/5EC644AE" Ref="C?"  Part="1" 
AR Path="/5EC9AF07/5EC644AE" Ref="C116"  Part="1" 
F 0 "C116" H 6915 3146 50  0000 L CNN
F 1 "27pF" H 6915 3055 50  0000 L CNN
F 2 "Capacitor_SMD:C_0603_1608Metric" H 6838 2950 50  0001 C CNN
F 3 "~" H 6800 3100 50  0001 C CNN
	1    6800 3100
	1    0    0    -1  
$EndComp
$Comp
L Device:C C?
U 1 1 5EC644B4
P 6500 3100
AR Path="/5E74ACE7/5EC644B4" Ref="C?"  Part="1" 
AR Path="/5EC9AF07/5EC644B4" Ref="C115"  Part="1" 
F 0 "C115" H 6615 3146 50  0000 L CNN
F 1 "27pF" H 6615 3055 50  0000 L CNN
F 2 "Capacitor_SMD:C_0603_1608Metric" H 6538 2950 50  0001 C CNN
F 3 "~" H 6500 3100 50  0001 C CNN
	1    6500 3100
	1    0    0    -1  
$EndComp
$Comp
L power:GND #PWR?
U 1 1 5EC644BA
P 6650 3250
AR Path="/5E74ACE7/5EC644BA" Ref="#PWR?"  Part="1" 
AR Path="/5EC9AF07/5EC644BA" Ref="#PWR0198"  Part="1" 
F 0 "#PWR0198" H 6650 3000 50  0001 C CNN
F 1 "GND" H 6655 3077 50  0000 C CNN
F 2 "" H 6650 3250 50  0001 C CNN
F 3 "" H 6650 3250 50  0001 C CNN
	1    6650 3250
	1    0    0    -1  
$EndComp
Wire Wire Line
	6500 3250 6650 3250
Wire Wire Line
	6650 3250 6800 3250
Connection ~ 6650 3250
Text Notes 6500 1950 0    50   ~ 0
Crystal
$Comp
L Device:Crystal_GND24 Y2
U 1 1 5EC85F24
P 6650 2600
F 0 "Y2" H 6844 2600 50  0000 L CNN
F 1 "ABM8G-12.000MHZ-4Y-T3" H 6844 2555 50  0001 L CNN
F 2 "Crystal:Crystal_SMD_Abracon_ABM8G-4Pin_3.2x2.5mm" H 6650 2600 50  0001 C CNN
F 3 "https://abracon.com/Resonators/ABM8G.pdf" H 6650 2600 50  0001 C CNN
F 4 "535-10901-1-ND" H 6650 2600 50  0001 C CNN "Digi-Key_PN"
	1    6650 2600
	1    0    0    -1  
$EndComp
$Comp
L power:GND #PWR?
U 1 1 5EC873D3
P 6650 2800
AR Path="/5E74ACE7/5EC873D3" Ref="#PWR?"  Part="1" 
AR Path="/5EC9AF07/5EC873D3" Ref="#PWR0197"  Part="1" 
F 0 "#PWR0197" H 6650 2550 50  0001 C CNN
F 1 "GND" H 6655 2627 50  0000 C CNN
F 2 "" H 6650 2800 50  0001 C CNN
F 3 "" H 6650 2800 50  0001 C CNN
	1    6650 2800
	1    0    0    -1  
$EndComp
$Comp
L power:GND #PWR?
U 1 1 5EC87780
P 6650 2400
AR Path="/5E74ACE7/5EC87780" Ref="#PWR?"  Part="1" 
AR Path="/5EC9AF07/5EC87780" Ref="#PWR0196"  Part="1" 
F 0 "#PWR0196" H 6650 2150 50  0001 C CNN
F 1 "GND" H 6655 2227 50  0000 C CNN
F 2 "" H 6650 2400 50  0001 C CNN
F 3 "" H 6650 2400 50  0001 C CNN
	1    6650 2400
	-1   0    0    1   
$EndComp
Wire Wire Line
	6800 2950 6800 2600
Wire Wire Line
	6500 2600 6500 2950
Wire Wire Line
	6500 2350 6500 2600
Connection ~ 6500 2600
Wire Wire Line
	6800 2600 6800 2350
Connection ~ 6800 2600
Wire Notes Line
	6400 1850 7100 1850
Wire Notes Line
	7100 1850 7100 3500
Wire Notes Line
	7100 3500 6400 3500
Wire Notes Line
	6400 3500 6400 1850
$Comp
L AT93C56B:AT93C56B-SSHM-T U14
U 1 1 5ED1E3F7
P 4700 6250
F 0 "U14" H 5500 6350 60  0000 C CNN
F 1 "AT93C56B-SSHM-T" H 5500 6637 60  0001 C CNN
F 2 "Package_SO:SOIC-8_3.9x4.9mm_P1.27mm" H 5500 6490 60  0001 C CNN
F 3 "http://www.microchip.com/mymicrochip/filehandler.aspx?ddocname=en589935" H 5500 6531 60  0001 C CNN
F 4 "AT93C56B-SSHM-TCT-ND" H 4700 6250 50  0001 C CNN "Digi-Key_PN"
	1    4700 6250
	1    0    0    -1  
$EndComp
$Comp
L power:+3V3 #PWR0187
U 1 1 5ED2194A
P 4700 7050
F 0 "#PWR0187" H 4700 6900 50  0001 C CNN
F 1 "+3V3" H 4715 7223 50  0000 C CNN
F 2 "" H 4700 7050 50  0001 C CNN
F 3 "" H 4700 7050 50  0001 C CNN
	1    4700 7050
	0    -1   -1   0   
$EndComp
$Comp
L power:GND #PWR?
U 1 1 5ED239CB
P 6300 6650
AR Path="/5E754FE4/5ED239CB" Ref="#PWR?"  Part="1" 
AR Path="/5EC9AF07/5ED239CB" Ref="#PWR0192"  Part="1" 
F 0 "#PWR0192" H 6300 6400 50  0001 C CNN
F 1 "GND" H 6305 6477 50  0000 C CNN
F 2 "" H 6300 6650 50  0001 C CNN
F 3 "" H 6300 6650 50  0001 C CNN
	1    6300 6650
	1    0    0    -1  
$EndComp
NoConn ~ 4700 6550
$Comp
L Device:R_US R?
U 1 1 5ED2CAFB
P 5450 5950
AR Path="/5E754FE4/5ED2CAFB" Ref="R?"  Part="1" 
AR Path="/5EC9AF07/5ED2CAFB" Ref="R81"  Part="1" 
F 0 "R81" V 5400 5950 50  0000 L CNN
F 1 "2.2k" V 5500 5900 50  0000 L CNN
F 2 "Resistor_SMD:R_0603_1608Metric" V 5490 5940 50  0001 C CNN
F 3 "~" H 5450 5950 50  0001 C CNN
	1    5450 5950
	0    -1   -1   0   
$EndComp
$Comp
L Device:R_US R?
U 1 1 5ED2EF79
P 6550 6250
AR Path="/5E754FE4/5ED2EF79" Ref="R?"  Part="1" 
AR Path="/5EC9AF07/5ED2EF79" Ref="R84"  Part="1" 
F 0 "R84" V 6500 6250 50  0000 L CNN
F 1 "10k" V 6600 6200 50  0000 L CNN
F 2 "Resistor_SMD:R_0603_1608Metric" V 6590 6240 50  0001 C CNN
F 3 "~" H 6550 6250 50  0001 C CNN
	1    6550 6250
	0    -1   -1   0   
$EndComp
$Comp
L Device:R_US R?
U 1 1 5ED30EC0
P 4450 6450
AR Path="/5E754FE4/5ED30EC0" Ref="R?"  Part="1" 
AR Path="/5EC9AF07/5ED30EC0" Ref="R78"  Part="1" 
F 0 "R78" V 4400 6450 50  0000 L CNN
F 1 "10k" V 4500 6400 50  0000 L CNN
F 2 "Resistor_SMD:R_0603_1608Metric" V 4490 6440 50  0001 C CNN
F 3 "~" H 4450 6450 50  0001 C CNN
	1    4450 6450
	0    -1   -1   0   
$EndComp
$Comp
L Device:R_US R?
U 1 1 5ED3279B
P 4450 6650
AR Path="/5E754FE4/5ED3279B" Ref="R?"  Part="1" 
AR Path="/5EC9AF07/5ED3279B" Ref="R79"  Part="1" 
F 0 "R79" V 4400 6650 50  0000 L CNN
F 1 "10k" V 4500 6600 50  0000 L CNN
F 2 "Resistor_SMD:R_0603_1608Metric" V 4490 6640 50  0001 C CNN
F 3 "~" H 4450 6650 50  0001 C CNN
	1    4450 6650
	0    -1   -1   0   
$EndComp
Wire Wire Line
	4700 6250 4700 5950
Wire Wire Line
	4700 5950 5300 5950
Wire Wire Line
	5600 5950 6300 5950
Wire Wire Line
	6300 5950 6300 6250
Wire Wire Line
	6400 6250 6300 6250
Connection ~ 6300 6250
Wire Wire Line
	4700 6650 4650 6650
$Comp
L power:+3V3 #PWR0184
U 1 1 5ED48506
P 4300 6350
F 0 "#PWR0184" H 4300 6200 50  0001 C CNN
F 1 "+3V3" H 4315 6523 50  0000 C CNN
F 2 "" H 4300 6350 50  0001 C CNN
F 3 "" H 4300 6350 50  0001 C CNN
	1    4300 6350
	1    0    0    -1  
$EndComp
Wire Wire Line
	4300 6350 4300 6450
Wire Wire Line
	4300 6450 4300 6650
Connection ~ 4300 6450
$Comp
L power:+3V3 #PWR0195
U 1 1 5ED4F9DD
P 6750 6250
F 0 "#PWR0195" H 6750 6100 50  0001 C CNN
F 1 "+3V3" H 6765 6423 50  0000 C CNN
F 2 "" H 6750 6250 50  0001 C CNN
F 3 "" H 6750 6250 50  0001 C CNN
	1    6750 6250
	1    0    0    -1  
$EndComp
Wire Wire Line
	6750 6250 6700 6250
Text Label 4700 5950 1    50   ~ 0
EEDATA
Text Label 4650 6350 2    50   ~ 0
EECS
Text Label 4650 6800 2    50   ~ 0
EECLK
Wire Wire Line
	4650 6350 4650 6450
Wire Wire Line
	4600 6450 4650 6450
Connection ~ 4650 6450
Wire Wire Line
	4650 6450 4700 6450
Wire Wire Line
	4650 6800 4650 6650
Connection ~ 4650 6650
Wire Wire Line
	4650 6650 4600 6650
Text Label 3000 2350 0    50   ~ 0
EECLK
Text Label 1400 2350 2    50   ~ 0
EEDATA
Text Label 1400 2250 2    50   ~ 0
EECS
Text Notes 5300 5800 0    50   ~ 0
EEPROM\n
Wire Notes Line
	4150 5600 4150 7350
Wire Notes Line
	4150 7350 6900 7350
Wire Notes Line
	6900 7350 6900 5600
Wire Notes Line
	6900 5600 4150 5600
Text Label 2500 1450 1    50   ~ 0
VPLL
Text Label 2600 1450 1    50   ~ 0
VPHY
Text Label 600  6900 2    50   ~ 0
VPHY
Text Label 600  7100 2    50   ~ 0
VPLL
$Comp
L Device:C C?
U 1 1 5ED84C51
P 800 7250
AR Path="/5E755028/5ED84C51" Ref="C?"  Part="1" 
AR Path="/5EC9AF07/5ED84C51" Ref="C98"  Part="1" 
F 0 "C98" V 548 7250 50  0000 C CNN
F 1 "0.1uF" V 639 7250 50  0000 C CNN
F 2 "Capacitor_SMD:C_0603_1608Metric" H 838 7100 50  0001 C CNN
F 3 "~" H 800 7250 50  0001 C CNN
	1    800  7250
	-1   0    0    1   
$EndComp
$Comp
L Device:C C?
U 1 1 5ED865DD
P 1200 7250
AR Path="/5E755028/5ED865DD" Ref="C?"  Part="1" 
AR Path="/5EC9AF07/5ED865DD" Ref="C101"  Part="1" 
F 0 "C101" V 948 7250 50  0000 C CNN
F 1 "0.1uF" V 1039 7250 50  0000 C CNN
F 2 "Capacitor_SMD:C_0603_1608Metric" H 1238 7100 50  0001 C CNN
F 3 "~" H 1200 7250 50  0001 C CNN
	1    1200 7250
	-1   0    0    1   
$EndComp
$Comp
L Device:C C?
U 1 1 5ED8692F
P 800 6750
AR Path="/5E755028/5ED8692F" Ref="C?"  Part="1" 
AR Path="/5EC9AF07/5ED8692F" Ref="C97"  Part="1" 
F 0 "C97" V 548 6750 50  0000 C CNN
F 1 "0.1uF" V 639 6750 50  0000 C CNN
F 2 "Capacitor_SMD:C_0603_1608Metric" H 838 6600 50  0001 C CNN
F 3 "~" H 800 6750 50  0001 C CNN
	1    800  6750
	-1   0    0    1   
$EndComp
$Comp
L Device:C C?
U 1 1 5ED8718A
P 1200 6750
AR Path="/5E755028/5ED8718A" Ref="C?"  Part="1" 
AR Path="/5EC9AF07/5ED8718A" Ref="C100"  Part="1" 
F 0 "C100" V 948 6750 50  0000 C CNN
F 1 "0.1uF" V 1039 6750 50  0000 C CNN
F 2 "Capacitor_SMD:C_0603_1608Metric" H 1238 6600 50  0001 C CNN
F 3 "~" H 1200 6750 50  0001 C CNN
	1    1200 6750
	-1   0    0    1   
$EndComp
$Comp
L Device:L_Core_Ferrite_Small L8
U 1 1 5ED87B6F
P 1500 6900
F 0 "L8" V 1450 6950 50  0000 C CNN
F 1 "HZ0805E601R-10" V 1410 6900 50  0001 C CNN
F 2 "Fuse:Fuse_0805_2012Metric" H 1500 6900 50  0001 C CNN
F 3 "https://assets.lairdtech.com/home/brandworld/files/HZ0805E601R-10.pdf" H 1500 6900 50  0001 C CNN
F 4 "240-2399-1-ND" V 1500 6900 50  0001 C CNN "Digi-Key_PN"
	1    1500 6900
	0    1    1    0   
$EndComp
$Comp
L Device:L_Core_Ferrite_Small L9
U 1 1 5ED8A4DB
P 1500 7100
F 0 "L9" V 1450 7150 50  0000 C CNN
F 1 "HZ0805E601R-10" V 1410 7100 50  0001 C CNN
F 2 "Fuse:Fuse_0805_2012Metric" H 1500 7100 50  0001 C CNN
F 3 "https://assets.lairdtech.com/home/brandworld/files/HZ0805E601R-10.pdf" H 1500 7100 50  0001 C CNN
F 4 "240-2399-1-ND" V 1500 7100 50  0001 C CNN "Digi-Key_PN"
	1    1500 7100
	0    1    1    0   
$EndComp
$Comp
L power:GND #PWR?
U 1 1 5ED8EF4F
P 1000 7400
AR Path="/5E755028/5ED8EF4F" Ref="#PWR?"  Part="1" 
AR Path="/5EC9AF07/5ED8EF4F" Ref="#PWR0168"  Part="1" 
F 0 "#PWR0168" H 1000 7150 50  0001 C CNN
F 1 "GND" H 1000 7250 50  0000 C CNN
F 2 "" H 1000 7400 50  0001 C CNN
F 3 "" H 1000 7400 50  0001 C CNN
	1    1000 7400
	1    0    0    -1  
$EndComp
$Comp
L power:GND #PWR?
U 1 1 5ED90EBC
P 1000 6600
AR Path="/5E755028/5ED90EBC" Ref="#PWR?"  Part="1" 
AR Path="/5EC9AF07/5ED90EBC" Ref="#PWR0167"  Part="1" 
F 0 "#PWR0167" H 1000 6350 50  0001 C CNN
F 1 "GND" H 1000 6450 50  0000 C CNN
F 2 "" H 1000 6600 50  0001 C CNN
F 3 "" H 1000 6600 50  0001 C CNN
	1    1000 6600
	-1   0    0    1   
$EndComp
Wire Wire Line
	800  6600 1000 6600
Wire Wire Line
	1000 6600 1200 6600
Connection ~ 1000 6600
Wire Wire Line
	600  6900 800  6900
Wire Wire Line
	800  6900 1200 6900
Connection ~ 800  6900
Wire Wire Line
	1200 6900 1400 6900
Connection ~ 1200 6900
Wire Wire Line
	1600 7100 1650 7100
Wire Wire Line
	1650 7100 1650 6900
Wire Wire Line
	1650 6900 1600 6900
Connection ~ 1650 6900
Wire Wire Line
	1650 6900 1650 6850
Wire Wire Line
	1400 7100 1200 7100
Wire Wire Line
	1200 7100 800  7100
Connection ~ 1200 7100
Wire Wire Line
	800  7100 600  7100
Connection ~ 800  7100
Wire Wire Line
	800  7400 1000 7400
Wire Wire Line
	1000 7400 1200 7400
Connection ~ 1000 7400
Text Label 5050 1000 2    50   ~ 0
VCCPLL0
Text Label 5050 1300 2    50   ~ 0
GNDPLL0
$Comp
L Device:C C?
U 1 1 5F3179C6
P 5150 1150
AR Path="/5E755028/5F3179C6" Ref="C?"  Part="1" 
AR Path="/5EC9AF07/5F3179C6" Ref="C118"  Part="1" 
F 0 "C118" H 5150 1250 50  0000 C CNN
F 1 "10uF" H 5150 1050 50  0000 C CNN
F 2 "Capacitor_SMD:C_0603_1608Metric" H 5188 1000 50  0001 C CNN
F 3 "~" H 5150 1150 50  0001 C CNN
	1    5150 1150
	-1   0    0    1   
$EndComp
$Comp
L Device:C C?
U 1 1 5F3179CC
P 5350 1150
AR Path="/5E755028/5F3179CC" Ref="C?"  Part="1" 
AR Path="/5EC9AF07/5F3179CC" Ref="C120"  Part="1" 
F 0 "C120" H 5350 1250 50  0000 C CNN
F 1 "0.1uF" H 5350 1050 50  0000 C CNN
F 2 "Capacitor_SMD:C_0603_1608Metric" H 5388 1000 50  0001 C CNN
F 3 "~" H 5350 1150 50  0001 C CNN
	1    5350 1150
	-1   0    0    1   
$EndComp
$Comp
L Device:R_US R?
U 1 1 5F3179D2
P 5650 1000
AR Path="/5E754FE4/5F3179D2" Ref="R?"  Part="1" 
AR Path="/5EC9AF07/5F3179D2" Ref="R86"  Part="1" 
F 0 "R86" V 5600 1000 50  0000 L CNN
F 1 "100" V 5700 950 50  0000 L CNN
F 2 "Resistor_SMD:R_0603_1608Metric" V 5690 990 50  0001 C CNN
F 3 "~" H 5650 1000 50  0001 C CNN
	1    5650 1000
	0    -1   -1   0   
$EndComp
$Comp
L power:VCC #PWR0200
U 1 1 5F3179D8
P 5800 1000
F 0 "#PWR0200" H 5800 850 50  0001 C CNN
F 1 "VCC" H 5817 1173 50  0000 C CNN
F 2 "" H 5800 1000 50  0001 C CNN
F 3 "" H 5800 1000 50  0001 C CNN
	1    5800 1000
	1    0    0    -1  
$EndComp
Wire Wire Line
	5050 1000 5150 1000
Wire Wire Line
	5150 1000 5350 1000
Connection ~ 5150 1000
Wire Wire Line
	5350 1000 5500 1000
Connection ~ 5350 1000
Wire Wire Line
	5350 1300 5150 1300
Wire Wire Line
	5050 1300 5150 1300
Connection ~ 5150 1300
$Comp
L Device:C C?
U 1 1 5F3A8DCA
P 5900 1150
AR Path="/5E755028/5F3A8DCA" Ref="C?"  Part="1" 
AR Path="/5EC9AF07/5F3A8DCA" Ref="C121"  Part="1" 
F 0 "C121" H 5900 1250 50  0000 C CNN
F 1 "0.1uF" H 5900 1050 50  0000 C CNN
F 2 "Capacitor_SMD:C_0603_1608Metric" H 5938 1000 50  0001 C CNN
F 3 "~" H 5900 1150 50  0001 C CNN
	1    5900 1150
	-1   0    0    1   
$EndComp
$Comp
L Device:C C?
U 1 1 5F3A935A
P 6150 1150
AR Path="/5E755028/5F3A935A" Ref="C?"  Part="1" 
AR Path="/5EC9AF07/5F3A935A" Ref="C122"  Part="1" 
F 0 "C122" H 6150 1250 50  0000 C CNN
F 1 "0.1uF" H 6150 1050 50  0000 C CNN
F 2 "Capacitor_SMD:C_0603_1608Metric" H 6188 1000 50  0001 C CNN
F 3 "~" H 6150 1150 50  0001 C CNN
	1    6150 1150
	-1   0    0    1   
$EndComp
$Comp
L Device:C C?
U 1 1 5F3A9763
P 6400 1150
AR Path="/5E755028/5F3A9763" Ref="C?"  Part="1" 
AR Path="/5EC9AF07/5F3A9763" Ref="C123"  Part="1" 
F 0 "C123" H 6400 1250 50  0000 C CNN
F 1 "0.1uF" H 6400 1050 50  0000 C CNN
F 2 "Capacitor_SMD:C_0603_1608Metric" H 6438 1000 50  0001 C CNN
F 3 "~" H 6400 1150 50  0001 C CNN
	1    6400 1150
	-1   0    0    1   
$EndComp
$Comp
L power:GND #PWR?
U 1 1 5F3AC832
P 6150 1350
AR Path="/5E755028/5F3AC832" Ref="#PWR?"  Part="1" 
AR Path="/5EC9AF07/5F3AC832" Ref="#PWR0203"  Part="1" 
F 0 "#PWR0203" H 6150 1100 50  0001 C CNN
F 1 "GND" H 6150 1200 50  0000 C CNN
F 2 "" H 6150 1350 50  0001 C CNN
F 3 "" H 6150 1350 50  0001 C CNN
	1    6150 1350
	1    0    0    -1  
$EndComp
Connection ~ 5800 1000
Wire Wire Line
	5800 1000 5900 1000
Wire Wire Line
	5900 1000 6150 1000
Connection ~ 5900 1000
Wire Wire Line
	6150 1000 6400 1000
Connection ~ 6150 1000
Wire Wire Line
	6400 1300 6150 1300
Wire Wire Line
	6150 1300 5900 1300
Connection ~ 6150 1300
Wire Wire Line
	6150 1300 6150 1350
Wire Notes Line
	6550 750  4650 750 
Wire Notes Line
	4650 750  4650 1800
Wire Notes Line
	4650 1800 6550 1800
Wire Notes Line
	6550 1800 6550 750 
Text Notes 3800 1150 0    50   ~ 0
Pull-ups
Wire Notes Line
	3650 1050 3650 2000
Wire Notes Line
	3650 2000 4200 2000
Wire Notes Line
	4200 2000 4200 1050
Wire Notes Line
	4200 1050 3650 1050
Text Notes 4250 2550 3    50   ~ 0
Done LED
Wire Notes Line
	4300 3500 3650 3500
Wire Notes Line
	3650 3500 3650 2050
Wire Notes Line
	3650 2050 4300 2050
Wire Notes Line
	4300 2050 4300 3500
Text Notes 900  6350 0    50   ~ 0
PLL Supply
Wire Notes Line
	1800 7650 400  7650
Wire Notes Line
	400  7650 400  6250
Wire Notes Line
	400  6250 1800 6250
Wire Notes Line
	1800 6250 1800 7650
Text Notes 1600 700  0    50   ~ 0
FPGA Controller
Wire Notes Line
	3550 6200 550  6200
Wire Notes Line
	550  6200 550  550 
Wire Notes Line
	550  550  3550 550 
Wire Notes Line
	3550 550  3550 6200
$Comp
L Device:C C?
U 1 1 5FF68D7E
P 4450 3200
AR Path="/5E755028/5FF68D7E" Ref="C?"  Part="1" 
AR Path="/5EC9AF07/5FF68D7E" Ref="C106"  Part="1" 
F 0 "C106" H 4450 3300 50  0000 C CNN
F 1 "10uF" H 4450 3100 50  0000 C CNN
F 2 "Capacitor_SMD:C_0603_1608Metric" H 4488 3050 50  0001 C CNN
F 3 "~" H 4450 3200 50  0001 C CNN
	1    4450 3200
	-1   0    0    1   
$EndComp
$Comp
L power:GND #PWR?
U 1 1 5FF74726
P 4550 3350
AR Path="/5E754FE4/5FF74726" Ref="#PWR?"  Part="1" 
AR Path="/5EC9AF07/5FF74726" Ref="#PWR0186"  Part="1" 
F 0 "#PWR0186" H 4550 3100 50  0001 C CNN
F 1 "GND" H 4550 3250 50  0000 C CNN
F 2 "" H 4550 3350 50  0001 C CNN
F 3 "" H 4550 3350 50  0001 C CNN
	1    4550 3350
	1    0    0    -1  
$EndComp
$Comp
L Device:C C?
U 1 1 5FF77C59
P 4650 3200
AR Path="/5E755028/5FF77C59" Ref="C?"  Part="1" 
AR Path="/5EC9AF07/5FF77C59" Ref="C107"  Part="1" 
F 0 "C107" H 4650 3300 50  0000 C CNN
F 1 "10uF" H 4650 3100 50  0000 C CNN
F 2 "Capacitor_SMD:C_0603_1608Metric" H 4688 3050 50  0001 C CNN
F 3 "~" H 4650 3200 50  0001 C CNN
	1    4650 3200
	-1   0    0    1   
$EndComp
$Comp
L Device:C C?
U 1 1 5FF7803D
P 4850 3200
AR Path="/5E755028/5FF7803D" Ref="C?"  Part="1" 
AR Path="/5EC9AF07/5FF7803D" Ref="C108"  Part="1" 
F 0 "C108" H 4850 3300 50  0000 C CNN
F 1 "10uF" H 4850 3100 50  0000 C CNN
F 2 "Capacitor_SMD:C_0603_1608Metric" H 4888 3050 50  0001 C CNN
F 3 "~" H 4850 3200 50  0001 C CNN
	1    4850 3200
	-1   0    0    1   
$EndComp
$Comp
L Device:C C?
U 1 1 5FF782B3
P 5050 3200
AR Path="/5E755028/5FF782B3" Ref="C?"  Part="1" 
AR Path="/5EC9AF07/5FF782B3" Ref="C109"  Part="1" 
F 0 "C109" H 5050 3300 50  0000 C CNN
F 1 "0.1uF" H 5050 3100 50  0000 C CNN
F 2 "Capacitor_SMD:C_0603_1608Metric" H 5088 3050 50  0001 C CNN
F 3 "~" H 5050 3200 50  0001 C CNN
	1    5050 3200
	-1   0    0    1   
$EndComp
$Comp
L Device:C C?
U 1 1 5FF78739
P 5250 3200
AR Path="/5E755028/5FF78739" Ref="C?"  Part="1" 
AR Path="/5EC9AF07/5FF78739" Ref="C110"  Part="1" 
F 0 "C110" H 5250 3300 50  0000 C CNN
F 1 "0.1uF" H 5250 3100 50  0000 C CNN
F 2 "Capacitor_SMD:C_0603_1608Metric" H 5288 3050 50  0001 C CNN
F 3 "~" H 5250 3200 50  0001 C CNN
	1    5250 3200
	-1   0    0    1   
$EndComp
$Comp
L Device:C C?
U 1 1 5FF789CB
P 5450 3200
AR Path="/5E755028/5FF789CB" Ref="C?"  Part="1" 
AR Path="/5EC9AF07/5FF789CB" Ref="C111"  Part="1" 
F 0 "C111" H 5450 3300 50  0000 C CNN
F 1 "0.1uF" H 5450 3100 50  0000 C CNN
F 2 "Capacitor_SMD:C_0603_1608Metric" H 5488 3050 50  0001 C CNN
F 3 "~" H 5450 3200 50  0001 C CNN
	1    5450 3200
	-1   0    0    1   
$EndComp
$Comp
L Device:C C?
U 1 1 5FF78C6B
P 5650 3200
AR Path="/5E755028/5FF78C6B" Ref="C?"  Part="1" 
AR Path="/5EC9AF07/5FF78C6B" Ref="C112"  Part="1" 
F 0 "C112" H 5650 3300 50  0000 C CNN
F 1 "0.1uF" H 5650 3100 50  0000 C CNN
F 2 "Capacitor_SMD:C_0603_1608Metric" H 5688 3050 50  0001 C CNN
F 3 "~" H 5650 3200 50  0001 C CNN
	1    5650 3200
	-1   0    0    1   
$EndComp
Wire Wire Line
	4450 3350 4550 3350
Wire Wire Line
	4550 3350 4650 3350
Connection ~ 4550 3350
Wire Wire Line
	4650 3350 4850 3350
Connection ~ 4650 3350
Wire Wire Line
	4850 3350 5050 3350
Connection ~ 4850 3350
Wire Wire Line
	5050 3350 5250 3350
Connection ~ 5050 3350
Wire Wire Line
	5250 3350 5450 3350
Connection ~ 5250 3350
Wire Wire Line
	5450 3350 5650 3350
Connection ~ 5450 3350
Wire Wire Line
	5650 3050 5450 3050
Wire Wire Line
	5450 3050 5250 3050
Connection ~ 5450 3050
Wire Wire Line
	5250 3050 5050 3050
Connection ~ 5250 3050
Wire Wire Line
	5050 3050 4850 3050
Connection ~ 5050 3050
Wire Wire Line
	4850 3050 4650 3050
Connection ~ 4850 3050
Connection ~ 4650 3050
Text Notes 4750 3000 0    50   ~ 0
ByPass Caps
Wire Notes Line
	4350 3500 4350 2900
Text Label 10400 3400 2    50   ~ 0
FPGA_HDMITX_CN
Text Label 10400 3200 2    50   ~ 0
FPGA_HDMITX_CP
Text Label 12000 3700 0    50   ~ 0
FPGA_HDMITX_DN1
Text Label 12000 3800 0    50   ~ 0
FPGA_HDMITX_DP1
Text Label 12000 3900 0    50   ~ 0
FPGA_HDMITX_DN2
Text Label 12000 4000 0    50   ~ 0
FPGA_HDMITX_DP2
Text Label 10400 3500 2    50   ~ 0
FPGA_HDMITX_DP0
Text Label 12000 3600 0    50   ~ 0
FPGA_HDMITX_DN0
$Comp
L Connector:Conn_01x08_Male J?
U 1 1 5F09E748
P 9600 5100
AR Path="/5E74ACE7/5F09E748" Ref="J?"  Part="1" 
AR Path="/5EC9AF07/5F09E748" Ref="J15"  Part="1" 
F 0 "J15" V 9700 5550 50  0000 C CNN
F 1 "Conn_01x08_Male" V 9436 5028 50  0001 C CNN
F 2 "Connector_PinHeader_2.54mm:PinHeader_1x08_P2.54mm_Vertical" H 9600 5100 50  0001 C CNN
F 3 "~" H 9600 5100 50  0001 C CNN
	1    9600 5100
	-1   0    0    -1  
$EndComp
Text Label 4050 4900 2    50   ~ 0
FPGA_HDMI_HPD
$Comp
L Device:C C?
U 1 1 5E851246
P 5850 3200
AR Path="/5E755028/5E851246" Ref="C?"  Part="1" 
AR Path="/5EC9AF07/5E851246" Ref="C124"  Part="1" 
F 0 "C124" H 5850 3300 50  0000 C CNN
F 1 "0.1uF" H 5850 3100 50  0000 C CNN
F 2 "Capacitor_SMD:C_0603_1608Metric" H 5888 3050 50  0001 C CNN
F 3 "~" H 5850 3200 50  0001 C CNN
	1    5850 3200
	-1   0    0    1   
$EndComp
$Comp
L Device:C C?
U 1 1 5E851961
P 6050 3200
AR Path="/5E755028/5E851961" Ref="C?"  Part="1" 
AR Path="/5EC9AF07/5E851961" Ref="C125"  Part="1" 
F 0 "C125" H 6050 3300 50  0000 C CNN
F 1 "0.1uF" H 6050 3100 50  0000 C CNN
F 2 "Capacitor_SMD:C_0603_1608Metric" H 6088 3050 50  0001 C CNN
F 3 "~" H 6050 3200 50  0001 C CNN
	1    6050 3200
	-1   0    0    1   
$EndComp
$Comp
L Device:C C?
U 1 1 5E8520D3
P 6250 3200
AR Path="/5E755028/5E8520D3" Ref="C?"  Part="1" 
AR Path="/5EC9AF07/5E8520D3" Ref="C126"  Part="1" 
F 0 "C126" H 6250 3300 50  0000 C CNN
F 1 "0.1uF" H 6250 3100 50  0000 C CNN
F 2 "Capacitor_SMD:C_0603_1608Metric" H 6288 3050 50  0001 C CNN
F 3 "~" H 6250 3200 50  0001 C CNN
	1    6250 3200
	-1   0    0    1   
$EndComp
Wire Notes Line
	6350 3500 6350 2900
Wire Notes Line
	4350 3500 6350 3500
Wire Notes Line
	4350 2900 6350 2900
Wire Wire Line
	5650 3050 5850 3050
Connection ~ 5650 3050
Wire Wire Line
	6250 3350 6050 3350
Wire Wire Line
	6050 3350 5850 3350
Connection ~ 6050 3350
Wire Wire Line
	5650 3350 5850 3350
Connection ~ 5650 3350
Connection ~ 5850 3350
$Comp
L Device:Ferrite_Bead FB4
U 1 1 5EC9B7E9
P 4350 950
F 0 "FB4" H 4487 950 50  0000 L CNN
F 1 "Ferrite_Bead" H 4487 905 50  0001 L CNN
F 2 "Fuse:Fuse_0603_1608Metric" V 4280 950 50  0001 C CNN
F 3 "~" H 4350 950 50  0001 C CNN
F 4 "445-2205-1-ND" H 4350 950 50  0001 C CNN "Digi-Key_PN"
	1    4350 950 
	1    0    0    -1  
$EndComp
$Comp
L power:+3V3 #PWR?
U 1 1 5ECB39B1
P 4350 800
AR Path="/5E755028/5ECB39B1" Ref="#PWR?"  Part="1" 
AR Path="/5EC9AF07/5ECB39B1" Ref="#PWR021"  Part="1" 
F 0 "#PWR021" H 4350 650 50  0001 C CNN
F 1 "+3V3" H 4365 973 50  0000 C CNN
F 2 "" H 4350 800 50  0001 C CNN
F 3 "" H 4350 800 50  0001 C CNN
	1    4350 800 
	1    0    0    -1  
$EndComp
Text Label 4350 1100 3    50   ~ 0
FPGA_3V3
Text Label 5450 3000 0    50   ~ 0
FPGA_3V3
Wire Wire Line
	4450 3050 4650 3050
Wire Wire Line
	5450 3000 5450 3050
Wire Wire Line
	2250 1250 2250 1300
Connection ~ 2250 1300
Wire Wire Line
	2250 1300 2300 1300
$Comp
L power:+3V3 #PWR0171
U 1 1 5EF5899D
P 1650 6850
F 0 "#PWR0171" H 1650 6700 50  0001 C CNN
F 1 "+3V3" H 1665 7023 50  0000 C CNN
F 2 "" H 1650 6850 50  0001 C CNN
F 3 "" H 1650 6850 50  0001 C CNN
	1    1650 6850
	1    0    0    -1  
$EndComp
$Comp
L power:+3V3 #PWR?
U 1 1 5EF5F431
P 2700 1450
AR Path="/5E755028/5EF5F431" Ref="#PWR?"  Part="1" 
AR Path="/5EC9AF07/5EF5F431" Ref="#PWR0173"  Part="1" 
F 0 "#PWR0173" H 2700 1300 50  0001 C CNN
F 1 "+3V3" H 2715 1623 50  0000 C CNN
F 2 "" H 2700 1450 50  0001 C CNN
F 3 "" H 2700 1450 50  0001 C CNN
	1    2700 1450
	1    0    0    -1  
$EndComp
$Comp
L power:+3V3 #PWR?
U 1 1 5EF5FBF9
P 2250 1250
AR Path="/5E755028/5EF5FBF9" Ref="#PWR?"  Part="1" 
AR Path="/5EC9AF07/5EF5FBF9" Ref="#PWR0175"  Part="1" 
F 0 "#PWR0175" H 2250 1100 50  0001 C CNN
F 1 "+3V3" H 2265 1423 50  0000 C CNN
F 2 "" H 2250 1250 50  0001 C CNN
F 3 "" H 2250 1250 50  0001 C CNN
	1    2250 1250
	1    0    0    -1  
$EndComp
Wire Wire Line
	6050 3050 5850 3050
Connection ~ 5850 3050
Wire Wire Line
	6250 3050 6050 3050
Connection ~ 6050 3050
Text Label 9600 2900 0    50   ~ 0
FPGA_3V3
Text Label 9600 3000 0    50   ~ 0
FPGA_3V3
Text Label 12000 2900 0    50   ~ 0
FPGA_3V3
Text Label 12000 3000 0    50   ~ 0
FPGA_3V3
Text Label 12400 4600 0    50   ~ 0
FPGA_3V3
Text Label 12400 4700 0    50   ~ 0
FPGA_3V3
Text Label 9400 4600 0    50   ~ 0
FPGA_3V3
Text Label 9400 4700 0    50   ~ 0
FPGA_3V3
Text Label 9400 2100 0    50   ~ 0
FPGA_3V3
$Comp
L Device:R_US R?
U 1 1 5EDC0F81
P 7650 4600
AR Path="/5E755028/5EDC0F81" Ref="R?"  Part="1" 
AR Path="/5EC9AF07/5EDC0F81" Ref="R9"  Part="1" 
F 0 "R9" V 7700 4500 50  0000 C CNN
F 1 "10k" V 7550 4500 50  0000 C CNN
F 2 "Resistor_SMD:R_0603_1608Metric" V 7690 4590 50  0001 C CNN
F 3 "~" H 7650 4600 50  0001 C CNN
	1    7650 4600
	0    -1   -1   0   
$EndComp
$Comp
L power:GND #PWR0114
U 1 1 5EDD15D4
P 7500 4600
F 0 "#PWR0114" H 7500 4350 50  0001 C CNN
F 1 "GND" H 7505 4427 50  0000 C CNN
F 2 "" H 7500 4600 50  0001 C CNN
F 3 "" H 7500 4600 50  0001 C CNN
	1    7500 4600
	1    0    0    -1  
$EndComp
Text Label 10400 2900 2    50   ~ 0
CDONE
Text Label 10400 3000 2    50   ~ 0
CRESET
Text Label 11800 1400 0    50   ~ 0
GNDPLL0
Text Label 10400 1400 2    50   ~ 0
VCCPLL0
$Comp
L power:GND #PWR?
U 1 1 5EE3442B
P 11850 2450
AR Path="/5E755028/5EE3442B" Ref="#PWR?"  Part="1" 
AR Path="/5EC9AF07/5EE3442B" Ref="#PWR0115"  Part="1" 
F 0 "#PWR0115" H 11850 2200 50  0001 C CNN
F 1 "GND" H 11850 2300 50  0000 C CNN
F 2 "" H 11850 2450 50  0001 C CNN
F 3 "" H 11850 2450 50  0001 C CNN
	1    11850 2450
	1    0    0    -1  
$EndComp
Wire Wire Line
	11850 2450 11850 2400
Wire Wire Line
	11850 1600 11800 1600
Wire Wire Line
	11800 1700 11850 1700
Connection ~ 11850 1700
Wire Wire Line
	11850 1700 11850 1600
Wire Wire Line
	11850 1800 11800 1800
Connection ~ 11850 1800
Wire Wire Line
	11850 1800 11850 1700
Wire Wire Line
	11800 1900 11850 1900
Connection ~ 11850 1900
Wire Wire Line
	11850 1900 11850 1800
Wire Wire Line
	11850 2000 11800 2000
Connection ~ 11850 2000
Wire Wire Line
	11850 2000 11850 1900
Wire Wire Line
	11800 2100 11850 2100
Connection ~ 11850 2100
Wire Wire Line
	11850 2100 11850 2000
Wire Wire Line
	11850 2200 11800 2200
Connection ~ 11850 2200
Wire Wire Line
	11850 2200 11850 2100
Wire Wire Line
	11800 2300 11850 2300
Connection ~ 11850 2300
Wire Wire Line
	11850 2300 11850 2200
Wire Wire Line
	11850 2400 11800 2400
Connection ~ 11850 2400
Wire Wire Line
	11850 2400 11850 2300
$Comp
L Device:D D?
U 1 1 5EEA958B
P 10250 1700
AR Path="/5E755028/5EEA958B" Ref="D?"  Part="1" 
AR Path="/5EC9AF07/5EEA958B" Ref="D19"  Part="1" 
F 0 "D19" H 10150 1650 50  0000 C CNN
F 1 "1N914BWT" H 10250 1575 50  0001 C CNN
F 2 "Diode_SMD:D_SOD-323" H 10250 1700 50  0001 C CNN
F 3 "https://www.onsemi.com/pub/Collateral/1N914BWS-D.pdf" H 10250 1700 50  0001 C CNN
F 4 "1N914BWSCT-ND" H 10250 1700 50  0001 C CNN "Digi-Key_PN"
	1    10250 1700
	-1   0    0    1   
$EndComp
Text Label 10100 1700 2    50   ~ 0
FPGA_3V3
NoConn ~ 10400 1600
$Comp
L power:VCC #PWR0116
U 1 1 5EF44906
P 10300 2050
F 0 "#PWR0116" H 10300 1900 50  0001 C CNN
F 1 "VCC" H 10317 2223 50  0000 C CNN
F 2 "" H 10300 2050 50  0001 C CNN
F 3 "" H 10300 2050 50  0001 C CNN
	1    10300 2050
	0    -1   -1   0   
$EndComp
Wire Wire Line
	10300 2050 10350 2050
Wire Wire Line
	10350 2050 10350 2100
Wire Wire Line
	10350 2200 10400 2200
Wire Wire Line
	10400 1900 10350 1900
Wire Wire Line
	10350 1900 10350 2000
Connection ~ 10350 2050
Wire Wire Line
	10400 2100 10350 2100
Connection ~ 10350 2100
Wire Wire Line
	10350 2100 10350 2200
Wire Wire Line
	10400 2000 10350 2000
Connection ~ 10350 2000
Wire Wire Line
	10350 2000 10350 2050
Text GLabel 12000 3300 2    50   Input ~ 0
GPIO_P1_0
Text GLabel 12000 3200 2    50   Input ~ 0
GPIO_P1_1
Text GLabel 9600 4100 2    50   Input ~ 0
GPIO_P4_0
Text GLabel 9600 4000 2    50   Input ~ 0
GPIO_P4_1
Text GLabel 9600 3900 2    50   Input ~ 0
GPIO_P4_2
Text GLabel 9600 3800 2    50   Input ~ 0
GPIO_P4_3
Text GLabel 9600 3700 2    50   Input ~ 0
GPIO_P4_4
Text GLabel 9600 3600 2    50   Input ~ 0
GPIO_P4_5
Text GLabel 9600 3500 2    50   Input ~ 0
GPIO_P4_6
Text GLabel 9600 3400 2    50   Input ~ 0
GPIO_P4_7
Text Label 10400 4600 2    50   ~ 0
FPGA_OSCI
Text Label 7800 2100 2    50   ~ 0
ICE_SCK
Text Label 7800 2300 2    50   ~ 0
ICE_MOSI
Text Label 7800 2400 2    50   ~ 0
ICE_SS
Text Label 7800 2200 2    50   ~ 0
ICE_MISO
Text Notes 3150 6400 0    50   ~ 0
Change to N25Q032A13ESC40F
Text GLabel 10400 4100 0    50   Input ~ 0
GPIO_P1_2
Text GLabel 10400 4000 0    50   Input ~ 0
GPIO_P1_3
Text GLabel 10400 3900 0    50   Input ~ 0
GPIO_P1_4
Text GLabel 10400 3800 0    50   Input ~ 0
GPIO_P1_5
Text GLabel 10400 3700 0    50   Input ~ 0
GPIO_P1_6
Text GLabel 10400 3600 0    50   Input ~ 0
GPIO_P1_7
Text GLabel 12400 5800 2    50   Input ~ 0
GPIO_P2_0
Text GLabel 12400 5700 2    50   Input ~ 0
GPIO_P2_1
Text GLabel 12400 5600 2    50   Input ~ 0
GPIO_P2_2
Text GLabel 12400 5500 2    50   Input ~ 0
GPIO_P2_3
Text Label 1400 4050 2    50   ~ 0
RS232_Rx_TTL
Text Label 1400 4150 2    50   ~ 0
RS232_Tx_TTL
Text Label 1400 4250 2    50   ~ 0
RTSn
Text Label 1400 4350 2    50   ~ 0
CTSn
Text Label 1400 4450 2    50   ~ 0
DTRn
Text Notes 7300 6850 0    50   ~ 0
See:\nhttps://www.mouser.com/datasheet/2/225/icestickusermanual-952930.pdf
Text Label 1400 4550 2    50   ~ 0
DSRn
Text Label 1400 4650 2    50   ~ 0
DCDn
Text GLabel 12400 5400 2    50   Input ~ 0
GPIO_P2_4
Text GLabel 12400 5300 2    50   Input ~ 0
GPIO_P2_5
Text GLabel 12400 5200 2    50   Input ~ 0
GPIO_P2_6
Text GLabel 12400 5100 2    50   Input ~ 0
GPIO_P2_7
Text GLabel 12400 5000 2    50   Input ~ 0
GPIO_P3_0
$Comp
L ICE40HX1K-TQ144:ICE40HX1K-TQ144 U3
U 1 1 5ED02C1E
P 10000 3500
F 0 "U3" H 10100 5984 50  0000 C CNN
F 1 "ICE40HX1K-TQ144" H 10100 5893 50  0000 C CNN
F 2 "Package_QFP:TQFP-144_20x20mm_P0.5mm" H 10000 3500 50  0001 L BNN
F 3 "http://www.latticesemi.com/Products/FPGAandCPLD/iCE40" H 10000 3500 50  0001 L BNN
F 4 "220-1565-ND" H 10000 3500 50  0001 C CNN "Digi-Key_PN"
	1    10000 3500
	1    0    0    -1  
$EndComp
Text Label 10400 4800 2    50   ~ 0
RS232_Rx_TTL
Text Label 10400 4900 2    50   ~ 0
RS232_Tx_TTL
Text Label 10400 5000 2    50   ~ 0
RTSn
Text Label 10400 5100 2    50   ~ 0
CTSn
Text Label 10400 5200 2    50   ~ 0
DTRn
Text Label 10400 5300 2    50   ~ 0
DSRn
Text Label 10400 5400 2    50   ~ 0
DCDn
Wire Wire Line
	4000 6000 4000 6150
Text Label 12000 3400 0    50   ~ 0
FPGA_HDMI_HPD
$Comp
L Connector:Conn_01x08_Male J?
U 1 1 5F09364E
P 7600 5500
AR Path="/5E74ACE7/5F09364E" Ref="J?"  Part="1" 
AR Path="/5EC9AF07/5F09364E" Ref="J13"  Part="1" 
F 0 "J13" V 7550 5450 50  0000 C CNN
F 1 "Conn_01x08_Male" V 7436 5428 50  0001 C CNN
F 2 "Connector_PinHeader_2.54mm:PinHeader_1x08_P2.54mm_Vertical" H 7600 5500 50  0001 C CNN
F 3 "~" H 7600 5500 50  0001 C CNN
	1    7600 5500
	1    0    0    -1  
$EndComp
$Comp
L power:GND #PWR?
U 1 1 5E8A2B29
P 7200 5100
AR Path="/5E754FE4/5E8A2B29" Ref="#PWR?"  Part="1" 
AR Path="/5EC9AF07/5E8A2B29" Ref="#PWR0209"  Part="1" 
F 0 "#PWR0209" H 7200 4850 50  0001 C CNN
F 1 "GND" H 7205 4927 50  0000 C CNN
F 2 "" H 7200 5100 50  0001 C CNN
F 3 "" H 7200 5100 50  0001 C CNN
	1    7200 5100
	0    1    1    0   
$EndComp
$Comp
L Device:R_US R?
U 1 1 5E8A2B23
P 7650 5100
AR Path="/5E754FE4/5E8A2B23" Ref="R?"  Part="1" 
AR Path="/5EC9AF07/5E8A2B23" Ref="R93"  Part="1" 
F 0 "R93" V 7600 5100 50  0000 L CNN
F 1 "330" V 7600 4900 50  0000 L CNN
F 2 "Resistor_SMD:R_0603_1608Metric" V 7690 5090 50  0001 C CNN
F 3 "~" H 7650 5100 50  0001 C CNN
	1    7650 5100
	0    1    1    0   
$EndComp
$Comp
L Device:LED D?
U 1 1 5E8A2B1D
P 7350 5100
AR Path="/5E754FE4/5E8A2B1D" Ref="D?"  Part="1" 
AR Path="/5EC9AF07/5E8A2B1D" Ref="D16"  Part="1" 
F 0 "D16" H 7400 5150 50  0000 R CNN
F 1 "LED" V 7298 4983 50  0001 R CNN
F 2 "LED_SMD:LED_0603_1608Metric" H 7350 5100 50  0001 C CNN
F 3 "~" H 7350 5100 50  0001 C CNN
	1    7350 5100
	1    0    0    -1  
$EndComp
$Comp
L power:GND #PWR?
U 1 1 5E8A161F
P 7200 5000
AR Path="/5E754FE4/5E8A161F" Ref="#PWR?"  Part="1" 
AR Path="/5EC9AF07/5E8A161F" Ref="#PWR0208"  Part="1" 
F 0 "#PWR0208" H 7200 4750 50  0001 C CNN
F 1 "GND" H 7205 4827 50  0000 C CNN
F 2 "" H 7200 5000 50  0001 C CNN
F 3 "" H 7200 5000 50  0001 C CNN
	1    7200 5000
	0    1    1    0   
$EndComp
$Comp
L Device:R_US R?
U 1 1 5E8A1619
P 7650 5000
AR Path="/5E754FE4/5E8A1619" Ref="R?"  Part="1" 
AR Path="/5EC9AF07/5E8A1619" Ref="R92"  Part="1" 
F 0 "R92" V 7600 5000 50  0000 L CNN
F 1 "330" V 7600 4800 50  0000 L CNN
F 2 "Resistor_SMD:R_0603_1608Metric" V 7690 4990 50  0001 C CNN
F 3 "~" H 7650 5000 50  0001 C CNN
	1    7650 5000
	0    1    1    0   
$EndComp
$Comp
L Device:LED D?
U 1 1 5E8A1613
P 7350 5000
AR Path="/5E754FE4/5E8A1613" Ref="D?"  Part="1" 
AR Path="/5EC9AF07/5E8A1613" Ref="D15"  Part="1" 
F 0 "D15" H 7400 5050 50  0000 R CNN
F 1 "LED" V 7298 4883 50  0001 R CNN
F 2 "LED_SMD:LED_0603_1608Metric" H 7350 5000 50  0001 C CNN
F 3 "~" H 7350 5000 50  0001 C CNN
	1    7350 5000
	1    0    0    -1  
$EndComp
$Comp
L power:GND #PWR?
U 1 1 5E89FCD8
P 10000 5900
AR Path="/5E754FE4/5E89FCD8" Ref="#PWR?"  Part="1" 
AR Path="/5EC9AF07/5E89FCD8" Ref="#PWR0207"  Part="1" 
F 0 "#PWR0207" H 10000 5650 50  0001 C CNN
F 1 "GND" H 10005 5727 50  0000 C CNN
F 2 "" H 10000 5900 50  0001 C CNN
F 3 "" H 10000 5900 50  0001 C CNN
	1    10000 5900
	0    -1   -1   0   
$EndComp
$Comp
L Device:R_US R?
U 1 1 5E89FCD2
P 9550 5900
AR Path="/5E754FE4/5E89FCD2" Ref="R?"  Part="1" 
AR Path="/5EC9AF07/5E89FCD2" Ref="R91"  Part="1" 
F 0 "R91" V 9500 5900 50  0000 L CNN
F 1 "330" V 9500 5700 50  0000 L CNN
F 2 "Resistor_SMD:R_0603_1608Metric" V 9590 5890 50  0001 C CNN
F 3 "~" H 9550 5900 50  0001 C CNN
	1    9550 5900
	0    -1   -1   0   
$EndComp
$Comp
L Device:LED D?
U 1 1 5E89FCCC
P 9850 5900
AR Path="/5E754FE4/5E89FCCC" Ref="D?"  Part="1" 
AR Path="/5EC9AF07/5E89FCCC" Ref="D14"  Part="1" 
F 0 "D14" H 9900 5950 50  0000 R CNN
F 1 "LED" V 9798 5783 50  0001 R CNN
F 2 "LED_SMD:LED_0603_1608Metric" H 9850 5900 50  0001 C CNN
F 3 "~" H 9850 5900 50  0001 C CNN
	1    9850 5900
	-1   0    0    1   
$EndComp
$Comp
L power:GND #PWR?
U 1 1 5E89D0F2
P 10000 5700
AR Path="/5E754FE4/5E89D0F2" Ref="#PWR?"  Part="1" 
AR Path="/5EC9AF07/5E89D0F2" Ref="#PWR0206"  Part="1" 
F 0 "#PWR0206" H 10000 5450 50  0001 C CNN
F 1 "GND" H 10005 5527 50  0000 C CNN
F 2 "" H 10000 5700 50  0001 C CNN
F 3 "" H 10000 5700 50  0001 C CNN
	1    10000 5700
	0    -1   -1   0   
$EndComp
$Comp
L Device:R_US R?
U 1 1 5E89D0EC
P 9550 5700
AR Path="/5E754FE4/5E89D0EC" Ref="R?"  Part="1" 
AR Path="/5EC9AF07/5E89D0EC" Ref="R90"  Part="1" 
F 0 "R90" V 9500 5700 50  0000 L CNN
F 1 "330" V 9500 5500 50  0000 L CNN
F 2 "Resistor_SMD:R_0603_1608Metric" V 9590 5690 50  0001 C CNN
F 3 "~" H 9550 5700 50  0001 C CNN
	1    9550 5700
	0    -1   -1   0   
$EndComp
$Comp
L Device:LED D?
U 1 1 5E89D0E6
P 9850 5700
AR Path="/5E754FE4/5E89D0E6" Ref="D?"  Part="1" 
AR Path="/5EC9AF07/5E89D0E6" Ref="D13"  Part="1" 
F 0 "D13" H 9900 5750 50  0000 R CNN
F 1 "LED" V 9798 5583 50  0001 R CNN
F 2 "LED_SMD:LED_0603_1608Metric" H 9850 5700 50  0001 C CNN
F 3 "~" H 9850 5700 50  0001 C CNN
	1    9850 5700
	-1   0    0    1   
$EndComp
$Comp
L power:GND #PWR?
U 1 1 5E89B92B
P 10000 6000
AR Path="/5E754FE4/5E89B92B" Ref="#PWR?"  Part="1" 
AR Path="/5EC9AF07/5E89B92B" Ref="#PWR0205"  Part="1" 
F 0 "#PWR0205" H 10000 5750 50  0001 C CNN
F 1 "GND" H 10005 5827 50  0000 C CNN
F 2 "" H 10000 6000 50  0001 C CNN
F 3 "" H 10000 6000 50  0001 C CNN
	1    10000 6000
	0    -1   -1   0   
$EndComp
$Comp
L Device:R_US R?
U 1 1 5E89B925
P 9550 6000
AR Path="/5E754FE4/5E89B925" Ref="R?"  Part="1" 
AR Path="/5EC9AF07/5E89B925" Ref="R89"  Part="1" 
F 0 "R89" V 9500 6000 50  0000 L CNN
F 1 "330" V 9500 5800 50  0000 L CNN
F 2 "Resistor_SMD:R_0603_1608Metric" V 9590 5990 50  0001 C CNN
F 3 "~" H 9550 6000 50  0001 C CNN
	1    9550 6000
	0    -1   -1   0   
$EndComp
$Comp
L Device:LED D?
U 1 1 5E89B91F
P 9850 6000
AR Path="/5E754FE4/5E89B91F" Ref="D?"  Part="1" 
AR Path="/5EC9AF07/5E89B91F" Ref="D12"  Part="1" 
F 0 "D12" H 9900 6050 50  0000 R CNN
F 1 "LED" V 9798 5883 50  0001 R CNN
F 2 "LED_SMD:LED_0603_1608Metric" H 9850 6000 50  0001 C CNN
F 3 "~" H 9850 6000 50  0001 C CNN
	1    9850 6000
	-1   0    0    1   
$EndComp
$Comp
L power:GND #PWR?
U 1 1 5F0BA749
P 10000 5800
AR Path="/5E754FE4/5F0BA749" Ref="#PWR?"  Part="1" 
AR Path="/5EC9AF07/5F0BA749" Ref="#PWR0204"  Part="1" 
F 0 "#PWR0204" H 10000 5550 50  0001 C CNN
F 1 "GND" H 10005 5627 50  0000 C CNN
F 2 "" H 10000 5800 50  0001 C CNN
F 3 "" H 10000 5800 50  0001 C CNN
	1    10000 5800
	0    -1   -1   0   
$EndComp
$Comp
L Device:R_US R?
U 1 1 5F0BA72E
P 9550 5800
AR Path="/5E754FE4/5F0BA72E" Ref="R?"  Part="1" 
AR Path="/5EC9AF07/5F0BA72E" Ref="R88"  Part="1" 
F 0 "R88" V 9500 5800 50  0000 L CNN
F 1 "330" V 9500 5600 50  0000 L CNN
F 2 "Resistor_SMD:R_0603_1608Metric" V 9590 5790 50  0001 C CNN
F 3 "~" H 9550 5800 50  0001 C CNN
	1    9550 5800
	0    -1   -1   0   
$EndComp
$Comp
L Device:LED D?
U 1 1 5F0BA728
P 9850 5800
AR Path="/5E754FE4/5F0BA728" Ref="D?"  Part="1" 
AR Path="/5EC9AF07/5F0BA728" Ref="D11"  Part="1" 
F 0 "D11" H 9900 5850 50  0000 R CNN
F 1 "LED" V 9798 5683 50  0001 R CNN
F 2 "LED_SMD:LED_0603_1608Metric" H 9850 5800 50  0001 C CNN
F 3 "~" H 9850 5800 50  0001 C CNN
	1    9850 5800
	-1   0    0    1   
$EndComp
Text Label 9400 4800 2    50   ~ 0
PIO1_12
Text Label 7800 6000 2    50   ~ 0
PIO1_12
$Comp
L Device:C C?
U 1 1 5F2F0F97
P 5450 2300
AR Path="/5E755028/5F2F0F97" Ref="C?"  Part="1" 
AR Path="/5EC9AF07/5F2F0F97" Ref="C15"  Part="1" 
F 0 "C15" H 5450 2400 50  0000 C CNN
F 1 "0.1uF" H 5450 2200 50  0000 C CNN
F 2 "Capacitor_SMD:C_0603_1608Metric" H 5488 2150 50  0001 C CNN
F 3 "~" H 5450 2300 50  0001 C CNN
	1    5450 2300
	-1   0    0    1   
$EndComp
$Comp
L power:GND #PWR?
U 1 1 5F2F2FC6
P 5650 2450
AR Path="/5E755028/5F2F2FC6" Ref="#PWR?"  Part="1" 
AR Path="/5EC9AF07/5F2F2FC6" Ref="#PWR024"  Part="1" 
F 0 "#PWR024" H 5650 2200 50  0001 C CNN
F 1 "GND" H 5650 2300 50  0000 C CNN
F 2 "" H 5650 2450 50  0001 C CNN
F 3 "" H 5650 2450 50  0001 C CNN
	1    5650 2450
	1    0    0    -1  
$EndComp
$Comp
L power:VCC #PWR023
U 1 1 5F2F38BC
P 5650 2150
F 0 "#PWR023" H 5650 2000 50  0001 C CNN
F 1 "VCC" H 5667 2323 50  0000 C CNN
F 2 "" H 5650 2150 50  0001 C CNN
F 3 "" H 5650 2150 50  0001 C CNN
	1    5650 2150
	1    0    0    -1  
$EndComp
$Comp
L Device:C C?
U 1 1 5F2F3F4F
P 5650 2300
AR Path="/5E755028/5F2F3F4F" Ref="C?"  Part="1" 
AR Path="/5EC9AF07/5F2F3F4F" Ref="C20"  Part="1" 
F 0 "C20" H 5650 2400 50  0000 C CNN
F 1 "0.1uF" H 5650 2200 50  0000 C CNN
F 2 "Capacitor_SMD:C_0603_1608Metric" H 5688 2150 50  0001 C CNN
F 3 "~" H 5650 2300 50  0001 C CNN
	1    5650 2300
	-1   0    0    1   
$EndComp
$Comp
L Device:C C?
U 1 1 5F2F45E3
P 5850 2300
AR Path="/5E755028/5F2F45E3" Ref="C?"  Part="1" 
AR Path="/5EC9AF07/5F2F45E3" Ref="C23"  Part="1" 
F 0 "C23" H 5850 2400 50  0000 C CNN
F 1 "0.1uF" H 5850 2200 50  0000 C CNN
F 2 "Capacitor_SMD:C_0603_1608Metric" H 5888 2150 50  0001 C CNN
F 3 "~" H 5850 2300 50  0001 C CNN
	1    5850 2300
	-1   0    0    1   
$EndComp
Wire Wire Line
	5450 2450 5650 2450
Wire Wire Line
	5850 2450 5650 2450
Connection ~ 5650 2450
Wire Wire Line
	5450 2150 5650 2150
Wire Wire Line
	5850 2150 5650 2150
Connection ~ 5650 2150
$EndSCHEMATC
