EESchema Schematic File Version 4
LIBS:huckleberry_pi-cache
EELAYER 29 0
EELAYER END
$Descr A4 11693 8268
encoding utf-8
Sheet 4 6
Title "Huckleberry Pi"
Date "2020-03-26"
Rev "0"
Comp ""
Comment1 "Board Peripherals"
Comment2 ""
Comment3 ""
Comment4 ""
$EndDescr
$Comp
L Connector:Micro_SD_Card J7
U 1 1 5E75561A
P 3700 1500
F 0 "J7" H 3650 2217 50  0000 C CNN
F 1 "Micro_SD_Card" H 3650 2126 50  0000 C CNN
F 2 "Connector_Card:microSD_HC_Hirose_DM3BT-DSF-PEJS" H 4850 1800 50  0001 C CNN
F 3 "http://katalog.we-online.de/em/datasheet/693072010801.pdf" H 3700 1500 50  0001 C CNN
F 4 "HR1942CT-ND" H 3700 1500 50  0001 C CNN "Digi-Key_PN"
	1    3700 1500
	1    0    0    -1  
$EndComp
$Comp
L power:GND #PWR0119
U 1 1 5E755E4F
P 4500 2100
F 0 "#PWR0119" H 4500 1850 50  0001 C CNN
F 1 "GND" H 4505 1927 50  0000 C CNN
F 2 "" H 4500 2100 50  0001 C CNN
F 3 "" H 4500 2100 50  0001 C CNN
	1    4500 2100
	1    0    0    -1  
$EndComp
Text Notes 2250 800  0    50   ~ 0
Micro SD card
Text GLabel 1150 1200 0    50   Input ~ 0
SD_D0
Text GLabel 1150 1300 0    50   Input ~ 0
SD_D1
Text GLabel 1150 1400 0    50   Input ~ 0
SD_D2
Text GLabel 1150 1500 0    50   Input ~ 0
SD_D3
Text GLabel 1150 1600 0    50   Input ~ 0
SD_CMD
Text GLabel 1300 2400 0    50   Input ~ 0
SD_CLK
$Comp
L Device:R_US R29
U 1 1 5E75D3F1
P 1200 1050
F 0 "R29" V 1100 1100 50  0000 C CNN
F 1 "30k" V 1100 950 50  0000 C CNN
F 2 "Resistor_SMD:R_0603_1608Metric" V 1240 1040 50  0001 C CNN
F 3 "~" H 1200 1050 50  0001 C CNN
	1    1200 1050
	-1   0    0    1   
$EndComp
$Comp
L Device:R_US R30
U 1 1 5E75DB05
P 1350 1150
F 0 "R30" V 1250 1200 50  0000 C CNN
F 1 "30k" V 1250 1050 50  0000 C CNN
F 2 "Resistor_SMD:R_0603_1608Metric" V 1390 1140 50  0001 C CNN
F 3 "~" H 1350 1150 50  0001 C CNN
	1    1350 1150
	-1   0    0    1   
$EndComp
$Comp
L Device:R_US R31
U 1 1 5E761281
P 1500 1250
F 0 "R31" V 1400 1300 50  0000 C CNN
F 1 "30k" V 1400 1150 50  0000 C CNN
F 2 "Resistor_SMD:R_0603_1608Metric" V 1540 1240 50  0001 C CNN
F 3 "~" H 1500 1250 50  0001 C CNN
	1    1500 1250
	-1   0    0    1   
$EndComp
$Comp
L Device:R_US R32
U 1 1 5E761B09
P 1650 1350
F 0 "R32" V 1550 1400 50  0000 C CNN
F 1 "30k" V 1550 1250 50  0000 C CNN
F 2 "Resistor_SMD:R_0603_1608Metric" V 1690 1340 50  0001 C CNN
F 3 "~" H 1650 1350 50  0001 C CNN
	1    1650 1350
	-1   0    0    1   
$EndComp
$Comp
L Device:R_US R33
U 1 1 5E76216C
P 1800 1450
F 0 "R33" V 1700 1500 50  0000 C CNN
F 1 "30k" V 1700 1350 50  0000 C CNN
F 2 "Resistor_SMD:R_0603_1608Metric" V 1840 1440 50  0001 C CNN
F 3 "~" H 1800 1450 50  0001 C CNN
	1    1800 1450
	-1   0    0    1   
$EndComp
$Comp
L huckleberry_pi-rescue:+3V3-16v_power #PWR?
U 1 1 5E764BBA
P 1650 900
AR Path="/5E764BBA" Ref="#PWR?"  Part="1" 
AR Path="/5E755028/5E764BBA" Ref="#PWR0107"  Part="1" 
F 0 "#PWR0107" H 1650 750 50  0001 C CNN
F 1 "+3V3" H 1665 1073 50  0000 C CNN
F 2 "" H 1650 900 50  0001 C CNN
F 3 "" H 1650 900 50  0001 C CNN
	1    1650 900 
	1    0    0    -1  
$EndComp
Wire Wire Line
	1800 1600 1150 1600
Wire Wire Line
	1150 1500 1650 1500
Wire Wire Line
	1500 1400 1150 1400
Wire Wire Line
	1150 1300 1350 1300
Wire Wire Line
	1200 1200 1150 1200
Wire Wire Line
	1200 900  1350 900 
Wire Wire Line
	1650 900  1800 900 
Connection ~ 1650 900 
Wire Wire Line
	1800 1300 1800 900 
Connection ~ 1800 900 
Wire Wire Line
	1650 900  1650 1200
Wire Wire Line
	1500 1100 1500 900 
Connection ~ 1500 900 
Wire Wire Line
	1500 900  1650 900 
Wire Wire Line
	1350 900  1350 1000
Connection ~ 1350 900 
Wire Wire Line
	1350 900  1500 900 
Text GLabel 2800 1200 0    50   Input ~ 0
SD_D2
Text GLabel 2800 1300 0    50   Input ~ 0
SD_D3
Text GLabel 2800 1400 0    50   Input ~ 0
SD_CMD
$Comp
L huckleberry_pi-rescue:+3V3-16v_power #PWR?
U 1 1 5E76A1F6
P 2350 1500
AR Path="/5E76A1F6" Ref="#PWR?"  Part="1" 
AR Path="/5E755028/5E76A1F6" Ref="#PWR0112"  Part="1" 
F 0 "#PWR0112" H 2350 1350 50  0001 C CNN
F 1 "+3V3" H 2365 1673 50  0000 C CNN
F 2 "" H 2350 1500 50  0001 C CNN
F 3 "" H 2350 1500 50  0001 C CNN
	1    2350 1500
	1    0    0    -1  
$EndComp
Text GLabel 2800 1800 0    50   Input ~ 0
SD_D0
Text GLabel 2800 1900 0    50   Input ~ 0
SD_D1
$Comp
L power:GND #PWR0113
U 1 1 5E76B9F7
P 2350 1700
F 0 "#PWR0113" H 2350 1450 50  0001 C CNN
F 1 "GND" H 2355 1527 50  0000 C CNN
F 2 "" H 2350 1700 50  0001 C CNN
F 3 "" H 2350 1700 50  0001 C CNN
	1    2350 1700
	1    0    0    -1  
$EndComp
$Comp
L power:GND #PWR0110
U 1 1 5E76CA47
P 2100 1200
F 0 "#PWR0110" H 2100 950 50  0001 C CNN
F 1 "GND" H 2100 1100 50  0000 C CNN
F 2 "" H 2100 1200 50  0001 C CNN
F 3 "" H 2100 1200 50  0001 C CNN
	1    2100 1200
	1    0    0    -1  
$EndComp
Wire Wire Line
	2800 1700 2350 1700
Wire Wire Line
	2350 1500 2800 1500
$Comp
L dk_Logic-Buffers-Drivers-Receivers-Transceivers:SN74LVC1G17DBVR U8
U 1 1 5E773E81
P 1600 2400
F 0 "U8" H 1400 2650 60  0000 L CNN
F 1 "SN74LVC1G17DBVR" H 1944 2347 60  0001 L CNN
F 2 "Package_TO_SOT_SMD:SOT-23-5" H 1800 2600 60  0001 L CNN
F 3 "http://www.ti.com/general/docs/suppproductinfo.tsp?distId=10&gotoUrl=http%3A%2F%2Fwww.ti.com%2Flit%2Fgpn%2Fsn74lvc1g17" H 1800 2700 60  0001 L CNN
F 4 "296-11933-1-ND" H 1800 2800 60  0001 L CNN "Digi-Key_PN"
F 5 "SN74LVC1G17DBVR" H 1800 2900 60  0001 L CNN "MPN"
F 6 "Integrated Circuits (ICs)" H 1800 3000 60  0001 L CNN "Category"
F 7 "Logic - Buffers, Drivers, Receivers, Transceivers" H 1800 3100 60  0001 L CNN "Family"
F 8 "http://www.ti.com/general/docs/suppproductinfo.tsp?distId=10&gotoUrl=http%3A%2F%2Fwww.ti.com%2Flit%2Fgpn%2Fsn74lvc1g17" H 1800 3200 60  0001 L CNN "DK_Datasheet_Link"
F 9 "/product-detail/en/texas-instruments/SN74LVC1G17DBVR/296-11933-1-ND/389050" H 1800 3300 60  0001 L CNN "DK_Detail_Page"
F 10 "IC BUF NON-INVERT 5.5V SOT23-5" H 1800 3400 60  0001 L CNN "Description"
F 11 "Texas Instruments" H 1800 3500 60  0001 L CNN "Manufacturer"
F 12 "Active" H 1800 3600 60  0001 L CNN "Status"
	1    1600 2400
	1    0    0    -1  
$EndComp
$Comp
L huckleberry_pi-rescue:+3V3-16v_power #PWR?
U 1 1 5E775923
P 1600 2000
AR Path="/5E775923" Ref="#PWR?"  Part="1" 
AR Path="/5E755028/5E775923" Ref="#PWR0104"  Part="1" 
F 0 "#PWR0104" H 1600 1850 50  0001 C CNN
F 1 "+3V3" H 1615 2173 50  0000 C CNN
F 2 "" H 1600 2000 50  0001 C CNN
F 3 "" H 1600 2000 50  0001 C CNN
	1    1600 2000
	1    0    0    -1  
$EndComp
$Comp
L Device:C C66
U 1 1 5E7762A8
P 1800 2050
F 0 "C66" V 1548 2050 50  0000 C CNN
F 1 "0.1uF" V 1639 2050 50  0000 C CNN
F 2 "Capacitor_SMD:C_0603_1608Metric" H 1838 1900 50  0001 C CNN
F 3 "~" H 1800 2050 50  0001 C CNN
	1    1800 2050
	0    1    1    0   
$EndComp
$Comp
L power:GND #PWR0109
U 1 1 5E779A74
P 1950 2050
F 0 "#PWR0109" H 1950 1800 50  0001 C CNN
F 1 "GND" H 1955 1877 50  0000 C CNN
F 2 "" H 1950 2050 50  0001 C CNN
F 3 "" H 1950 2050 50  0001 C CNN
	1    1950 2050
	1    0    0    -1  
$EndComp
$Comp
L power:GND #PWR0105
U 1 1 5E77CC5F
P 1600 2700
F 0 "#PWR0105" H 1600 2450 50  0001 C CNN
F 1 "GND" H 1605 2527 50  0000 C CNN
F 2 "" H 1600 2700 50  0001 C CNN
F 3 "" H 1600 2700 50  0001 C CNN
	1    1600 2700
	1    0    0    -1  
$EndComp
Text Label 1900 2400 0    50   ~ 0
SD_CLD_S
Text Label 2800 1600 2    50   ~ 0
SD_CLD_S
Wire Wire Line
	1600 2100 1600 2050
Wire Wire Line
	1650 2050 1600 2050
Connection ~ 1600 2050
Wire Wire Line
	1600 2050 1600 2000
Wire Notes Line
	4650 650  4650 3000
Wire Notes Line
	4650 3000 650  3000
Wire Notes Line
	650  3000 650  650 
Wire Notes Line
	650  650  4650 650 
$Comp
L Device:Fuse F1
U 1 1 5E7960A0
P 1350 3600
F 0 "F1" H 1290 3554 50  0000 R CNN
F 1 "Fuse" H 1290 3645 50  0000 R CNN
F 2 "Fuse:Fuse_0603_1608Metric" V 1280 3600 50  0001 C CNN
F 3 "~" H 1350 3600 50  0001 C CNN
F 4 "F5777CT-ND" V 1350 3600 50  0001 C CNN "Digi-Key_PN"
	1    1350 3600
	-1   0    0    1   
$EndComp
$Comp
L power:GND #PWR0103
U 1 1 5E7963FD
P 950 4400
F 0 "#PWR0103" H 950 4150 50  0001 C CNN
F 1 "GND" H 955 4227 50  0000 C CNN
F 2 "" H 950 4400 50  0001 C CNN
F 3 "" H 950 4400 50  0001 C CNN
	1    950  4400
	1    0    0    -1  
$EndComp
$Comp
L usb_a:USB_A J6
U 1 1 5E79FCB0
P 1000 3950
F 0 "J6" H 1550 3500 50  0000 C CNN
F 1 "USB_A_Stacked" H 1550 3600 50  0000 C CNN
F 2 "Connector_USB:USB_A_Wuerth_61400826021_Horizontal_Stacked" H 1150 3900 50  0001 C CNN
F 3 "https://katalog.we-online.de/em/datasheet/61400826021.pdf" H 1150 3900 50  0001 C CNN
F 4 "732-2107-ND" H 1000 3950 50  0001 C CNN "Digi-Key_PN"
	1    1000 3950
	1    0    0    -1  
$EndComp
$Comp
L power:GND #PWR0111
U 1 1 5E7A2124
P 2100 4350
F 0 "#PWR0111" H 2100 4100 50  0001 C CNN
F 1 "GND" H 2105 4177 50  0000 C CNN
F 2 "" H 2100 4350 50  0001 C CNN
F 3 "" H 2100 4350 50  0001 C CNN
	1    2100 4350
	1    0    0    -1  
$EndComp
$Comp
L Device:Fuse F3
U 1 1 5E7A3CE2
P 2450 3600
F 0 "F3" H 2390 3554 50  0000 R CNN
F 1 "Fuse" H 2390 3645 50  0000 R CNN
F 2 "Fuse:Fuse_0603_1608Metric" V 2380 3600 50  0001 C CNN
F 3 "~" H 2450 3600 50  0001 C CNN
F 4 "F5777CT-ND" V 2450 3600 50  0001 C CNN "Digi-Key_PN"
	1    2450 3600
	-1   0    0    1   
$EndComp
Text GLabel 2400 4050 2    50   Input ~ 0
USB1_DM
Text GLabel 2400 3950 2    50   Input ~ 0
USB1_DP
Text GLabel 1300 4050 2    50   Input ~ 0
USB0_DM
Text GLabel 1300 3950 2    50   Input ~ 0
USB0_DP
Wire Wire Line
	1300 3750 1350 3750
Wire Wire Line
	1350 3400 1350 3450
Wire Wire Line
	2400 3750 2450 3750
Wire Wire Line
	2450 3450 2450 3400
Text Notes 2500 3300 2    50   ~ 0
TODO: Confirm that VBUS will do here.\nAlso, would we want USB micro?
Wire Notes Line
	650  3100 650  4650
Wire Notes Line
	650  4650 2950 4650
Wire Notes Line
	2950 4650 2950 3100
Wire Notes Line
	2950 3100 650  3100
Wire Wire Line
	950  4400 900  4400
Wire Wire Line
	900  4400 900  4350
Wire Wire Line
	1000 4350 1000 4400
Wire Wire Line
	1000 4400 950  4400
Connection ~ 950  4400
$Comp
L Device:C C68
U 1 1 5E7B0180
P 2250 3450
F 0 "C68" V 2200 3350 50  0000 C CNN
F 1 "0.1uF" V 2200 3600 50  0000 C CNN
F 2 "Capacitor_SMD:C_0603_1608Metric" H 2288 3300 50  0001 C CNN
F 3 "~" H 2250 3450 50  0001 C CNN
	1    2250 3450
	0    -1   -1   0   
$EndComp
$Comp
L Device:C C65
U 1 1 5E7B14D1
P 1150 3400
F 0 "C65" V 1100 3300 50  0000 C CNN
F 1 "0.1uF" V 1100 3550 50  0000 C CNN
F 2 "Capacitor_SMD:C_0603_1608Metric" H 1188 3250 50  0001 C CNN
F 3 "~" H 1150 3400 50  0001 C CNN
	1    1150 3400
	0    -1   -1   0   
$EndComp
$Comp
L power:GND #PWR0101
U 1 1 5E7B2096
P 800 3400
F 0 "#PWR0101" H 800 3150 50  0001 C CNN
F 1 "GND" H 805 3227 50  0000 C CNN
F 2 "" H 800 3400 50  0001 C CNN
F 3 "" H 800 3400 50  0001 C CNN
	1    800  3400
	1    0    0    -1  
$EndComp
$Comp
L power:GND #PWR0108
U 1 1 5E7B2492
P 1900 3450
F 0 "#PWR0108" H 1900 3200 50  0001 C CNN
F 1 "GND" H 1905 3277 50  0000 C CNN
F 2 "" H 1900 3450 50  0001 C CNN
F 3 "" H 1900 3450 50  0001 C CNN
	1    1900 3450
	1    0    0    -1  
$EndComp
$Comp
L Device:C C67
U 1 1 5E76C4BB
P 2100 1050
F 0 "C67" H 2215 1096 50  0000 L CNN
F 1 "0.1uF" H 2215 1005 50  0000 L CNN
F 2 "Capacitor_SMD:C_0603_1608Metric" H 2138 900 50  0001 C CNN
F 3 "~" H 2100 1050 50  0001 C CNN
	1    2100 1050
	1    0    0    -1  
$EndComp
Wire Wire Line
	2450 3450 2400 3450
Connection ~ 2450 3450
Wire Wire Line
	2100 3450 1900 3450
Wire Wire Line
	1300 3400 1350 3400
Wire Wire Line
	1000 3400 800  3400
$Comp
L Connector:USB_B_Micro J5
U 1 1 5E7F7A65
P 900 5350
F 0 "J5" H 957 5817 50  0000 C CNN
F 1 "USB_B_Micro" H 957 5726 50  0000 C CNN
F 2 "footprints:USB_Micro-B_GCT_USB3076-30-A" H 1050 5300 50  0001 C CNN
F 3 "~" H 1050 5300 50  0001 C CNN
F 4 "609-4616-1-ND" H 900 5350 50  0001 C CNN "Digi-Key_PN"
	1    900  5350
	1    0    0    -1  
$EndComp
$Comp
L Device:Fuse F2
U 1 1 5E7F8BFB
P 1400 5150
F 0 "F2" H 1340 5104 50  0000 R CNN
F 1 "Fuse" H 1340 5195 50  0000 R CNN
F 2 "Fuse:Fuse_0603_1608Metric" V 1330 5150 50  0001 C CNN
F 3 "~" H 1400 5150 50  0001 C CNN
F 4 "F5777CT-ND" V 1400 5150 50  0001 C CNN "Digi-Key_PN"
	1    1400 5150
	0    1    1    0   
$EndComp
$Comp
L power:GND #PWR0102
U 1 1 5E7F9BA9
P 850 5800
F 0 "#PWR0102" H 850 5550 50  0001 C CNN
F 1 "GND" H 855 5627 50  0000 C CNN
F 2 "" H 850 5800 50  0001 C CNN
F 3 "" H 850 5800 50  0001 C CNN
	1    850  5800
	1    0    0    -1  
$EndComp
$Comp
L power:+5V #PWR0106
U 1 1 5E7FB963
P 1600 5150
F 0 "#PWR0106" H 1600 5000 50  0001 C CNN
F 1 "+5V" H 1615 5323 50  0000 C CNN
F 2 "" H 1600 5150 50  0001 C CNN
F 3 "" H 1600 5150 50  0001 C CNN
	1    1600 5150
	1    0    0    -1  
$EndComp
Text GLabel 1200 5350 2    50   Input ~ 0
USB0_DP
Text GLabel 1200 5450 2    50   Input ~ 0
USB0_DM
Text GLabel 1200 5550 2    50   Input ~ 0
USB0_ID
Wire Wire Line
	800  5750 800  5800
Wire Wire Line
	800  5800 850  5800
Wire Wire Line
	900  5750 900  5800
Wire Wire Line
	900  5800 850  5800
Connection ~ 850  5800
Wire Wire Line
	1200 5150 1250 5150
Wire Wire Line
	1600 5150 1550 5150
Text Notes 750  4850 0    50   ~ 0
USB Micro
Wire Notes Line
	650  4750 650  6050
Wire Notes Line
	650  6050 1700 6050
Wire Notes Line
	1700 6050 1700 4750
Wire Notes Line
	1700 4750 650  4750
$Comp
L dk_USB-DVI-HDMI-Connectors:2000-1-2-41-00-BK J9
U 1 1 5E8FB4E3
P 6350 3000
F 0 "J9" H 6350 3831 60  0000 C CNN
F 1 "2000-1-2-41-00-BK" H 6350 3831 60  0001 C CNN
F 2 "digikey-footprints:HDMI_A_Female_2000-1-2-41-00-BK" H 6550 3200 60  0001 L CNN
F 3 "http://www.cnctech.us/pdfs/2000-1-2-41-00-BK.pdf" H 6550 3300 60  0001 L CNN
F 4 "1175-1703-ND" H 6550 3400 60  0001 L CNN "Digi-Key_PN"
F 5 "2000-1-2-41-00-BK" H 6550 3500 60  0001 L CNN "MPN"
F 6 "Connectors, Interconnects" H 6550 3600 60  0001 L CNN "Category"
F 7 "USB, DVI, HDMI Connectors" H 6550 3700 60  0001 L CNN "Family"
F 8 "http://www.cnctech.us/pdfs/2000-1-2-41-00-BK.pdf" H 6550 3800 60  0001 L CNN "DK_Datasheet_Link"
F 9 "/product-detail/en/cnc-tech/2000-1-2-41-00-BK/1175-1703-ND/4867012" H 6550 3900 60  0001 L CNN "DK_Detail_Page"
F 10 "CONN RCPT HDMI 19POS SMD R/A" H 6550 4000 60  0001 L CNN "Description"
F 11 "CNC Tech" H 6550 4100 60  0001 L CNN "Manufacturer"
F 12 "Active" H 6550 4200 60  0001 L CNN "Status"
	1    6350 3000
	1    0    0    -1  
$EndComp
Text GLabel 6750 3100 2    50   Input ~ 0
HDMITX_CN
Text GLabel 6750 3000 2    50   Input ~ 0
HDMITX_CP
Text GLabel 5950 2900 0    50   Input ~ 0
HDMITX_DN0
Text GLabel 5950 2800 0    50   Input ~ 0
HDMITX_DP0
Text GLabel 6750 2800 2    50   Input ~ 0
HDMITX_DN1
Text GLabel 6750 2700 2    50   Input ~ 0
HDMITX_DP1
Text GLabel 5950 2600 0    50   Input ~ 0
HDMITX_DN2
Text GLabel 5950 2500 0    50   Input ~ 0
HDMITX_DP2
$Comp
L Device:R_US R37
U 1 1 5E92275E
P 5150 3100
F 0 "R37" V 5050 3150 50  0000 C CNN
F 1 "27K" V 5050 3000 50  0000 C CNN
F 2 "Resistor_SMD:R_0603_1608Metric" V 5190 3090 50  0001 C CNN
F 3 "~" H 5150 3100 50  0001 C CNN
	1    5150 3100
	0    -1   -1   0   
$EndComp
$Comp
L power:+3V3 #PWR0120
U 1 1 5E929072
P 4900 3100
F 0 "#PWR0120" H 4900 2950 50  0001 C CNN
F 1 "+3V3" H 4915 3273 50  0000 C CNN
F 2 "" H 4900 3100 50  0001 C CNN
F 3 "" H 4900 3100 50  0001 C CNN
	1    4900 3100
	1    0    0    -1  
$EndComp
$Comp
L Device:D D7
U 1 1 5E9296BA
P 5500 3100
F 0 "D7" H 5400 3050 50  0000 C CNN
F 1 "1N914BWT" H 5500 2975 50  0001 C CNN
F 2 "Diode_SMD:D_SOD-323" H 5500 3100 50  0001 C CNN
F 3 "https://www.onsemi.com/pub/Collateral/1N914BWS-D.pdf" H 5500 3100 50  0001 C CNN
F 4 "1N914BWSCT-ND" H 5500 3100 50  0001 C CNN "Digi-Key_PN"
	1    5500 3100
	-1   0    0    1   
$EndComp
Wire Wire Line
	4900 3100 5000 3100
Wire Wire Line
	5300 3100 5350 3100
Wire Wire Line
	5650 3100 5950 3100
$Comp
L Device:R_US R39
U 1 1 5E92D84F
P 5600 3400
F 0 "R39" V 5500 3450 50  0000 C CNN
F 1 "20K" V 5500 3300 50  0000 C CNN
F 2 "Resistor_SMD:R_0603_1608Metric" V 5640 3390 50  0001 C CNN
F 3 "~" H 5600 3400 50  0001 C CNN
	1    5600 3400
	0    -1   -1   0   
$EndComp
$Comp
L Device:R_US R38
U 1 1 5E92E019
P 5300 3600
F 0 "R38" V 5200 3650 50  0000 C CNN
F 1 "51K" V 5200 3500 50  0000 C CNN
F 2 "Resistor_SMD:R_0603_1608Metric" V 5340 3590 50  0001 C CNN
F 3 "~" H 5300 3600 50  0001 C CNN
	1    5300 3600
	1    0    0    -1  
$EndComp
Text GLabel 5250 3400 0    50   Input ~ 0
HDMI_HPD
Wire Wire Line
	5250 3400 5300 3400
Wire Wire Line
	5750 3400 5950 3400
Wire Wire Line
	5300 3450 5300 3400
Connection ~ 5300 3400
Wire Wire Line
	5300 3400 5450 3400
$Comp
L power:GND #PWR0124
U 1 1 5E934F10
P 5400 3850
F 0 "#PWR0124" H 5400 3600 50  0001 C CNN
F 1 "GND" H 5400 3700 50  0000 C CNN
F 2 "" H 5400 3850 50  0001 C CNN
F 3 "" H 5400 3850 50  0001 C CNN
	1    5400 3850
	1    0    0    -1  
$EndComp
Wire Wire Line
	5300 3750 5300 3850
Wire Wire Line
	5300 3850 5400 3850
Wire Wire Line
	6050 3800 5400 3800
Wire Wire Line
	5400 3800 5400 3850
Connection ~ 5400 3850
Text GLabel 5950 3200 0    50   Input ~ 0
DDC_SCL
Text GLabel 6750 3300 2    50   Input ~ 0
DDC_SDA
$Comp
L power:+5V #PWR0128
U 1 1 5E94170C
P 7700 3400
F 0 "#PWR0128" H 7700 3250 50  0001 C CNN
F 1 "+5V" H 7715 3573 50  0000 C CNN
F 2 "" H 7700 3400 50  0001 C CNN
F 3 "" H 7700 3400 50  0001 C CNN
	1    7700 3400
	1    0    0    -1  
$EndComp
$Comp
L Device:C C71
U 1 1 5E943FE3
P 6850 3550
F 0 "C71" V 6598 3550 50  0000 C CNN
F 1 "0.1uF" V 6689 3550 50  0000 C CNN
F 2 "Capacitor_SMD:C_0603_1608Metric" H 6888 3400 50  0001 C CNN
F 3 "~" H 6850 3550 50  0001 C CNN
	1    6850 3550
	-1   0    0    1   
$EndComp
$Comp
L Device:C C72
U 1 1 5E9474EF
P 7250 3550
F 0 "C72" V 6998 3550 50  0000 C CNN
F 1 "10uF" V 7089 3550 50  0000 C CNN
F 2 "Capacitor_SMD:C_0603_1608Metric" H 7288 3400 50  0001 C CNN
F 3 "~" H 7250 3550 50  0001 C CNN
	1    7250 3550
	-1   0    0    1   
$EndComp
$Comp
L power:GND #PWR0129
U 1 1 5E947B69
P 7850 3700
F 0 "#PWR0129" H 7850 3450 50  0001 C CNN
F 1 "GND" H 7850 3550 50  0000 C CNN
F 2 "" H 7850 3700 50  0001 C CNN
F 3 "" H 7850 3700 50  0001 C CNN
	1    7850 3700
	1    0    0    -1  
$EndComp
Wire Wire Line
	6750 2600 7850 2600
Wire Wire Line
	7850 2600 7850 2900
Wire Wire Line
	6750 2900 7850 2900
Connection ~ 7850 2900
Wire Wire Line
	7850 2900 7850 3700
Wire Wire Line
	7700 3400 7250 3400
Wire Wire Line
	6750 3400 6850 3400
Wire Wire Line
	6850 3400 7250 3400
Connection ~ 6850 3400
Connection ~ 7250 3400
Wire Wire Line
	6850 3700 7250 3700
Wire Wire Line
	7250 3700 7850 3700
Connection ~ 7250 3700
Connection ~ 7850 3700
NoConn ~ 6750 3200
Wire Wire Line
	5400 2700 5950 2700
Connection ~ 5400 3800
Wire Wire Line
	5950 3000 5400 3000
Connection ~ 5400 3000
Wire Wire Line
	5400 3000 5400 2700
Wire Wire Line
	5950 3300 5400 3300
Wire Wire Line
	5400 3000 5400 3300
Connection ~ 5400 3300
Wire Wire Line
	5400 3300 5400 3800
Text Notes 5450 2200 0    50   ~ 0
HDMI Connector
Wire Notes Line
	4800 2100 7950 2100
Wire Notes Line
	7950 2100 7950 4050
Wire Notes Line
	7950 4050 4800 4050
Wire Notes Line
	4800 4050 4800 2100
Text GLabel 7500 2500 2    50   Input ~ 0
DDC_SDA
Text GLabel 7500 2300 2    50   Input ~ 0
DDC_SCL
$Comp
L power:+5V #PWR0125
U 1 1 5E9C93DE
P 6950 2300
F 0 "#PWR0125" H 6950 2150 50  0001 C CNN
F 1 "+5V" H 6950 2450 50  0000 C CNN
F 2 "" H 6950 2300 50  0001 C CNN
F 3 "" H 6950 2300 50  0001 C CNN
	1    6950 2300
	1    0    0    -1  
$EndComp
$Comp
L Device:R_US R41
U 1 1 5E9CBBEF
P 7250 2500
F 0 "R41" V 7300 2650 50  0000 C CNN
F 1 "4.75k" V 7200 2650 50  0000 C CNN
F 2 "Resistor_SMD:R_0603_1608Metric" V 7290 2490 50  0001 C CNN
F 3 "~" H 7250 2500 50  0001 C CNN
	1    7250 2500
	0    -1   -1   0   
$EndComp
$Comp
L Device:R_US R40
U 1 1 5E9CD505
P 7250 2300
F 0 "R40" V 7300 2200 50  0000 C CNN
F 1 "4.75k" V 7150 2200 50  0000 C CNN
F 2 "Resistor_SMD:R_0603_1608Metric" V 7290 2290 50  0001 C CNN
F 3 "~" H 7250 2300 50  0001 C CNN
	1    7250 2300
	0    -1   -1   0   
$EndComp
Wire Wire Line
	6950 2300 6950 2500
Wire Wire Line
	6950 2500 7100 2500
Wire Wire Line
	7100 2300 6950 2300
Connection ~ 6950 2300
Wire Wire Line
	7400 2300 7500 2300
Wire Wire Line
	7400 2500 7500 2500
$Comp
L power:+3V3 #PWR0121
U 1 1 5E9DCA58
P 5000 2350
F 0 "#PWR0121" H 5000 2200 50  0001 C CNN
F 1 "+3V3" H 5015 2523 50  0000 C CNN
F 2 "" H 5000 2350 50  0001 C CNN
F 3 "" H 5000 2350 50  0001 C CNN
	1    5000 2350
	1    0    0    -1  
$EndComp
$Comp
L Device:C C70
U 1 1 5E9DD6D8
P 5000 2500
F 0 "C70" V 4748 2500 50  0000 C CNN
F 1 "0.1uF" V 4839 2500 50  0000 C CNN
F 2 "Capacitor_SMD:C_0603_1608Metric" H 5038 2350 50  0001 C CNN
F 3 "~" H 5000 2500 50  0001 C CNN
	1    5000 2500
	-1   0    0    1   
$EndComp
$Comp
L power:GND #PWR0122
U 1 1 5E9E0040
P 5000 2650
F 0 "#PWR0122" H 5000 2400 50  0001 C CNN
F 1 "GND" H 5000 2500 50  0000 C CNN
F 2 "" H 5000 2650 50  0001 C CNN
F 3 "" H 5000 2650 50  0001 C CNN
	1    5000 2650
	1    0    0    -1  
$EndComp
Wire Wire Line
	1800 900  2100 900 
$Comp
L power:+5V #PWR0123
U 1 1 5EC93233
P 1350 3400
F 0 "#PWR0123" H 1350 3250 50  0001 C CNN
F 1 "+5V" H 1365 3573 50  0000 C CNN
F 2 "" H 1350 3400 50  0001 C CNN
F 3 "" H 1350 3400 50  0001 C CNN
	1    1350 3400
	0    1    1    0   
$EndComp
Connection ~ 1350 3400
$Comp
L power:+5V #PWR0126
U 1 1 5EC93886
P 2450 3400
F 0 "#PWR0126" H 2450 3250 50  0001 C CNN
F 1 "+5V" H 2465 3573 50  0000 C CNN
F 2 "" H 2450 3400 50  0001 C CNN
F 3 "" H 2450 3400 50  0001 C CNN
	1    2450 3400
	0    1    1    0   
$EndComp
$EndSCHEMATC
