EESchema Schematic File Version 4
LIBS:huckleberry_pi-cache
EELAYER 29 0
EELAYER END
$Descr A4 11693 8268
encoding utf-8
Sheet 3 6
Title "Huckleberry Pi"
Date "2020-03-26"
Rev "0"
Comp ""
Comment1 "Board Power Circuits"
Comment2 ""
Comment3 ""
Comment4 ""
$EndDescr
$Comp
L power:+5V #PWR099
U 1 1 5E80D0B4
P 8300 3750
F 0 "#PWR099" H 8300 3600 50  0001 C CNN
F 1 "+5V" H 8315 3923 50  0000 C CNN
F 2 "" H 8300 3750 50  0001 C CNN
F 3 "" H 8300 3750 50  0001 C CNN
	1    8300 3750
	1    0    0    -1  
$EndComp
$Comp
L power:+12V #PWR094
U 1 1 5E80D675
P 7500 3750
F 0 "#PWR094" H 7500 3600 50  0001 C CNN
F 1 "+12V" H 7515 3923 50  0000 C CNN
F 2 "" H 7500 3750 50  0001 C CNN
F 3 "" H 7500 3750 50  0001 C CNN
	1    7500 3750
	1    0    0    -1  
$EndComp
Text Notes 8300 3500 2    50   ~ 0
5V power from 12V
$Comp
L dk_PMIC-Voltage-Regulators-Linear:MC7805BDTRKG U6
U 1 1 5E80E666
P 7900 3800
F 0 "U6" H 7900 3981 60  0000 C CNN
F 1 "MC7805BDTRKG" H 7900 3981 60  0001 C CNN
F 2 "digikey-footprints:TO-252-3" H 8100 4000 60  0001 L CNN
F 3 "http://www.onsemi.com/pub/Collateral/MC7800-D.PDF" H 8100 4100 60  0001 L CNN
F 4 "MC7805BDTRKGOSCT-ND" H 8100 4200 60  0001 L CNN "Digi-Key_PN"
F 5 "MC7805BDTRKG" H 8100 4300 60  0001 L CNN "MPN"
F 6 "Integrated Circuits (ICs)" H 8100 4400 60  0001 L CNN "Category"
F 7 "PMIC - Voltage Regulators - Linear" H 8100 4500 60  0001 L CNN "Family"
F 8 "http://www.onsemi.com/pub/Collateral/MC7800-D.PDF" H 8100 4600 60  0001 L CNN "DK_Datasheet_Link"
F 9 "/product-detail/en/on-semiconductor/MC7805BDTRKG/MC7805BDTRKGOSCT-ND/1139742" H 8100 4700 60  0001 L CNN "DK_Detail_Page"
F 10 "IC REG LINEAR 5V 1A DPAK" H 8100 4800 60  0001 L CNN "Description"
F 11 "ON Semiconductor" H 8100 4900 60  0001 L CNN "Manufacturer"
F 12 "Active" H 8100 5000 60  0001 L CNN "Status"
	1    7900 3800
	1    0    0    -1  
$EndComp
$Comp
L Device:C C58
U 1 1 5E810BAF
P 8300 3950
F 0 "C58" H 8415 3996 50  0000 L CNN
F 1 "0.1uF" H 8415 3905 50  0000 L CNN
F 2 "Capacitor_SMD:C_0603_1608Metric" H 8338 3800 50  0001 C CNN
F 3 "~" H 8300 3950 50  0001 C CNN
	1    8300 3950
	1    0    0    -1  
$EndComp
$Comp
L Device:C C56
U 1 1 5E813CC5
P 7500 3950
F 0 "C56" H 7615 3996 50  0000 L CNN
F 1 "0.1uF" H 7615 3905 50  0000 L CNN
F 2 "Capacitor_SMD:C_0603_1608Metric" H 7538 3800 50  0001 C CNN
F 3 "~" H 7500 3950 50  0001 C CNN
	1    7500 3950
	1    0    0    -1  
$EndComp
Wire Wire Line
	7500 3750 7500 3800
Wire Wire Line
	7600 3800 7500 3800
Connection ~ 7500 3800
Wire Wire Line
	7500 4100 7900 4100
Wire Wire Line
	7900 4100 8300 4100
Connection ~ 7900 4100
Wire Wire Line
	8200 3800 8300 3800
Wire Wire Line
	8300 3750 8300 3800
Connection ~ 8300 3800
$Comp
L power:GND #PWR096
U 1 1 5E81AE7E
P 7900 4100
F 0 "#PWR096" H 7900 3850 50  0001 C CNN
F 1 "GND" H 7905 3927 50  0000 C CNN
F 2 "" H 7900 4100 50  0001 C CNN
F 3 "" H 7900 4100 50  0001 C CNN
	1    7900 4100
	1    0    0    -1  
$EndComp
$Comp
L Device:C C61
U 1 1 5E82F532
P 8750 3950
F 0 "C61" H 8865 3996 50  0000 L CNN
F 1 "0.1uF" H 8865 3905 50  0000 L CNN
F 2 "Capacitor_SMD:C_0603_1608Metric" H 8788 3800 50  0001 C CNN
F 3 "~" H 8750 3950 50  0001 C CNN
	1    8750 3950
	1    0    0    -1  
$EndComp
$Comp
L Device:C C63
U 1 1 5E82F974
P 9250 3950
F 0 "C63" H 9365 3996 50  0000 L CNN
F 1 "10uF" H 9365 3905 50  0000 L CNN
F 2 "Capacitor_SMD:C_0603_1608Metric" H 9288 3800 50  0001 C CNN
F 3 "~" H 9250 3950 50  0001 C CNN
	1    9250 3950
	1    0    0    -1  
$EndComp
Wire Notes Line
	9600 4350 9600 3350
Wire Notes Line
	7300 3350 7300 4350
Wire Wire Line
	9250 4100 8750 4100
Wire Wire Line
	8750 3800 8300 3800
Wire Wire Line
	9250 3800 8750 3800
Connection ~ 8750 3800
Wire Wire Line
	8750 4100 8300 4100
Connection ~ 8750 4100
Connection ~ 8300 4100
Wire Notes Line
	9600 4350 7300 4350
Wire Notes Line
	7300 3350 9600 3350
$Comp
L PJ-002AH:PJ-002AH J4
U 1 1 5E7C406F
P 7600 2250
F 0 "J4" H 7595 2498 50  0000 C CNN
F 1 "PJ-002AH" H 7595 2499 50  0001 C CNN
F 2 "footprints:CUI_PJ-002AH" H 7600 2250 50  0001 L BNN
F 3 "https://www.cuidevices.com/product/resource/digikeypdf/pj-002ah.pdf" H 7600 2250 50  0001 L BNN
F 4 "CP-002AH-ND" H 7600 2250 50  0001 L BNN "Digi-Key_PN"
	1    7600 2250
	1    0    0    -1  
$EndComp
$Comp
L power:GND #PWR095
U 1 1 5E7C87E6
P 7900 2550
F 0 "#PWR095" H 7900 2300 50  0001 C CNN
F 1 "GND" H 7905 2377 50  0000 C CNN
F 2 "" H 7900 2550 50  0001 C CNN
F 3 "" H 7900 2550 50  0001 C CNN
	1    7900 2550
	1    0    0    -1  
$EndComp
$Comp
L power:+12V #PWR098
U 1 1 5E7CB194
P 8200 2150
F 0 "#PWR098" H 8200 2000 50  0001 C CNN
F 1 "+12V" H 8215 2323 50  0000 C CNN
F 2 "" H 8200 2150 50  0001 C CNN
F 3 "" H 8200 2150 50  0001 C CNN
	1    8200 2150
	1    0    0    -1  
$EndComp
$Comp
L Device:C C57
U 1 1 5E7CDC5D
P 8200 2400
F 0 "C57" H 8315 2446 50  0000 L CNN
F 1 "0.1uF" H 8315 2355 50  0000 L CNN
F 2 "Capacitor_SMD:C_0603_1608Metric" H 8238 2250 50  0001 C CNN
F 3 "~" H 8200 2400 50  0001 C CNN
	1    8200 2400
	1    0    0    -1  
$EndComp
$Comp
L Device:C C60
U 1 1 5E7D1A49
P 8650 2400
F 0 "C60" H 8765 2446 50  0000 L CNN
F 1 "10uF" H 8765 2355 50  0000 L CNN
F 2 "Capacitor_SMD:C_0603_1608Metric" H 8688 2250 50  0001 C CNN
F 3 "~" H 8650 2400 50  0001 C CNN
	1    8650 2400
	1    0    0    -1  
$EndComp
Wire Wire Line
	7800 2150 8200 2150
Wire Wire Line
	8650 2250 8200 2250
Wire Wire Line
	8650 2550 8200 2550
Wire Wire Line
	7900 2550 8200 2550
Connection ~ 8200 2550
Wire Wire Line
	7900 2550 7900 2350
Wire Wire Line
	7900 2250 7800 2250
Connection ~ 7900 2550
Wire Wire Line
	7800 2350 7900 2350
Connection ~ 7900 2350
Wire Wire Line
	7900 2350 7900 2250
Wire Wire Line
	8200 2150 8200 2250
Connection ~ 8200 2150
Connection ~ 8200 2250
Text Notes 7650 1900 0    50   ~ 0
12V Barrel Jack
Wire Notes Line
	7300 1800 7300 2800
Wire Notes Line
	7300 2800 8950 2800
Wire Notes Line
	8950 2800 8950 1800
Wire Notes Line
	8950 1800 7300 1800
Text Notes 3300 900  0    50   ~ 0
ByPass Caps for CPU
$Comp
L power:+1V2 #PWR069
U 1 1 5E7E2DAB
P 4600 1100
F 0 "#PWR069" H 4600 950 50  0001 C CNN
F 1 "+1V2" H 4615 1273 50  0000 C CNN
F 2 "" H 4600 1100 50  0001 C CNN
F 3 "" H 4600 1100 50  0001 C CNN
	1    4600 1100
	1    0    0    -1  
$EndComp
$Comp
L Device:C C45
U 1 1 5E7E45C9
P 4600 1250
F 0 "C45" H 4715 1296 50  0000 L CNN
F 1 "0.1uF" H 4715 1205 50  0000 L CNN
F 2 "Capacitor_SMD:C_0603_1608Metric" H 4638 1100 50  0001 C CNN
F 3 "~" H 4600 1250 50  0001 C CNN
	1    4600 1250
	1    0    0    -1  
$EndComp
$Comp
L power:GND #PWR070
U 1 1 5E7E58C2
P 4600 1400
F 0 "#PWR070" H 4600 1150 50  0001 C CNN
F 1 "GND" H 4605 1227 50  0000 C CNN
F 2 "" H 4600 1400 50  0001 C CNN
F 3 "" H 4600 1400 50  0001 C CNN
	1    4600 1400
	1    0    0    -1  
$EndComp
$Comp
L power:+3V3 #PWR071
U 1 1 5E7EB6A7
P 700 1900
F 0 "#PWR071" H 700 1750 50  0001 C CNN
F 1 "+3V3" H 715 2073 50  0000 C CNN
F 2 "" H 700 1900 50  0001 C CNN
F 3 "" H 700 1900 50  0001 C CNN
	1    700  1900
	1    0    0    -1  
$EndComp
$Comp
L Device:C C46
U 1 1 5E7EDDB7
P 4600 2050
F 0 "C46" H 4715 2096 50  0000 L CNN
F 1 "0.1uF" H 4715 2005 50  0000 L CNN
F 2 "Capacitor_SMD:C_0603_1608Metric" H 4638 1900 50  0001 C CNN
F 3 "~" H 4600 2050 50  0001 C CNN
	1    4600 2050
	1    0    0    -1  
$EndComp
$Comp
L power:GND #PWR072
U 1 1 5E7EE1B3
P 4600 2200
F 0 "#PWR072" H 4600 1950 50  0001 C CNN
F 1 "GND" H 4605 2027 50  0000 C CNN
F 2 "" H 4600 2200 50  0001 C CNN
F 3 "" H 4600 2200 50  0001 C CNN
	1    4600 2200
	1    0    0    -1  
$EndComp
$Comp
L Device:C C40
U 1 1 5E7FAFB9
P 4150 1250
F 0 "C40" H 4265 1296 50  0000 L CNN
F 1 "0.1uF" H 4265 1205 50  0000 L CNN
F 2 "Capacitor_SMD:C_0603_1608Metric" H 4188 1100 50  0001 C CNN
F 3 "~" H 4150 1250 50  0001 C CNN
	1    4150 1250
	1    0    0    -1  
$EndComp
Wire Wire Line
	4150 1100 4600 1100
Connection ~ 4600 1100
Wire Wire Line
	4150 1400 4600 1400
Connection ~ 4600 1400
$Comp
L Device:C C36
U 1 1 5E802F7C
P 3700 1250
F 0 "C36" H 3815 1296 50  0000 L CNN
F 1 "0.1uF" H 3815 1205 50  0000 L CNN
F 2 "Capacitor_SMD:C_0603_1608Metric" H 3738 1100 50  0001 C CNN
F 3 "~" H 3700 1250 50  0001 C CNN
	1    3700 1250
	1    0    0    -1  
$EndComp
$Comp
L Device:C C41
U 1 1 5E8034B6
P 4150 2050
F 0 "C41" H 4265 2096 50  0000 L CNN
F 1 "0.1uF" H 4265 2005 50  0000 L CNN
F 2 "Capacitor_SMD:C_0603_1608Metric" H 4188 1900 50  0001 C CNN
F 3 "~" H 4150 2050 50  0001 C CNN
	1    4150 2050
	1    0    0    -1  
$EndComp
Wire Wire Line
	3700 1100 4150 1100
Connection ~ 4150 1100
Wire Wire Line
	3700 1400 4150 1400
Connection ~ 4150 1400
Wire Wire Line
	4150 1900 4600 1900
Wire Wire Line
	4150 2200 4600 2200
Connection ~ 4600 2200
$Comp
L Device:C C37
U 1 1 5E814120
P 3700 2050
F 0 "C37" H 3815 2096 50  0000 L CNN
F 1 "0.1uF" H 3815 2005 50  0000 L CNN
F 2 "Capacitor_SMD:C_0603_1608Metric" H 3738 1900 50  0001 C CNN
F 3 "~" H 3700 2050 50  0001 C CNN
	1    3700 2050
	1    0    0    -1  
$EndComp
$Comp
L Device:C C31
U 1 1 5E814776
P 3250 1250
F 0 "C31" H 3365 1296 50  0000 L CNN
F 1 "0.1uF" H 3365 1205 50  0000 L CNN
F 2 "Capacitor_SMD:C_0603_1608Metric" H 3288 1100 50  0001 C CNN
F 3 "~" H 3250 1250 50  0001 C CNN
	1    3250 1250
	1    0    0    -1  
$EndComp
Wire Wire Line
	3250 1100 3700 1100
Connection ~ 3700 1100
Wire Wire Line
	3250 1400 3700 1400
Connection ~ 3700 1400
Wire Wire Line
	3700 2200 4150 2200
Connection ~ 4150 2200
$Comp
L Device:C C28
U 1 1 5E830C6D
P 2800 1250
F 0 "C28" H 2915 1296 50  0000 L CNN
F 1 "0.1uF" H 2915 1205 50  0000 L CNN
F 2 "Capacitor_SMD:C_0603_1608Metric" H 2838 1100 50  0001 C CNN
F 3 "~" H 2800 1250 50  0001 C CNN
	1    2800 1250
	1    0    0    -1  
$EndComp
$Comp
L Device:C C32
U 1 1 5E831288
P 3250 2050
F 0 "C32" H 3365 2096 50  0000 L CNN
F 1 "0.1uF" H 3365 2005 50  0000 L CNN
F 2 "Capacitor_SMD:C_0603_1608Metric" H 3288 1900 50  0001 C CNN
F 3 "~" H 3250 2050 50  0001 C CNN
	1    3250 2050
	1    0    0    -1  
$EndComp
$Comp
L Device:C C29
U 1 1 5E8318D9
P 2800 2050
F 0 "C29" H 2915 2096 50  0000 L CNN
F 1 "0.1uF" H 2915 2005 50  0000 L CNN
F 2 "Capacitor_SMD:C_0603_1608Metric" H 2838 1900 50  0001 C CNN
F 3 "~" H 2800 2050 50  0001 C CNN
	1    2800 2050
	1    0    0    -1  
$EndComp
Wire Wire Line
	2800 1400 3250 1400
Connection ~ 3250 1400
Wire Wire Line
	3250 1100 2800 1100
Connection ~ 3250 1100
Wire Wire Line
	2800 1900 3250 1900
Wire Wire Line
	3250 1900 3700 1900
Connection ~ 3250 1900
Wire Wire Line
	3700 2200 3250 2200
Connection ~ 3700 2200
Wire Wire Line
	3250 2200 2800 2200
Connection ~ 3250 2200
$Comp
L Device:C C25
U 1 1 5E84A2F2
P 2350 1250
F 0 "C25" H 2465 1296 50  0000 L CNN
F 1 "0.1uF" H 2465 1205 50  0000 L CNN
F 2 "Capacitor_SMD:C_0603_1608Metric" H 2388 1100 50  0001 C CNN
F 3 "~" H 2350 1250 50  0001 C CNN
	1    2350 1250
	1    0    0    -1  
$EndComp
$Comp
L Device:C C21
U 1 1 5E84A912
P 1900 1250
F 0 "C21" H 2015 1296 50  0000 L CNN
F 1 "0.1uF" H 2015 1205 50  0000 L CNN
F 2 "Capacitor_SMD:C_0603_1608Metric" H 1938 1100 50  0001 C CNN
F 3 "~" H 1900 1250 50  0001 C CNN
	1    1900 1250
	1    0    0    -1  
$EndComp
Wire Wire Line
	1900 1100 2350 1100
Wire Wire Line
	2350 1100 2800 1100
Connection ~ 2350 1100
Connection ~ 2800 1100
Wire Wire Line
	2800 1400 2350 1400
Connection ~ 2800 1400
Wire Wire Line
	2350 1400 1900 1400
Connection ~ 2350 1400
$Comp
L power:+3V3 #PWR086
U 1 1 5E8B3B0E
P 6200 1700
F 0 "#PWR086" H 6200 1550 50  0001 C CNN
F 1 "+3V3" H 6215 1873 50  0000 C CNN
F 2 "" H 6200 1700 50  0001 C CNN
F 3 "" H 6200 1700 50  0001 C CNN
	1    6200 1700
	1    0    0    -1  
$EndComp
$Comp
L Device:LED D4
U 1 1 5E8B8366
P 6200 2150
F 0 "D4" V 6193 2032 50  0000 R CNN
F 1 "LED" V 6148 2033 50  0001 R CNN
F 2 "LED_SMD:LED_0603_1608Metric" H 6200 2150 50  0001 C CNN
F 3 "~" H 6200 2150 50  0001 C CNN
	1    6200 2150
	0    -1   -1   0   
$EndComp
$Comp
L Device:LED D5
U 1 1 5E8B88ED
P 6550 2150
F 0 "D5" V 6543 2032 50  0000 R CNN
F 1 "LED" V 6498 2033 50  0001 R CNN
F 2 "LED_SMD:LED_0603_1608Metric" H 6550 2150 50  0001 C CNN
F 3 "~" H 6550 2150 50  0001 C CNN
	1    6550 2150
	0    -1   -1   0   
$EndComp
$Comp
L Device:LED D6
U 1 1 5E8B8E5E
P 6950 2150
F 0 "D6" V 6943 2032 50  0000 R CNN
F 1 "LED" V 6898 2033 50  0001 R CNN
F 2 "LED_SMD:LED_0603_1608Metric" H 6950 2150 50  0001 C CNN
F 3 "~" H 6950 2150 50  0001 C CNN
	1    6950 2150
	0    -1   -1   0   
$EndComp
$Comp
L Device:R_US R23
U 1 1 5E8B944C
P 5850 1850
F 0 "R23" H 5918 1896 50  0000 L CNN
F 1 "10" H 5918 1805 50  0000 L CNN
F 2 "Resistor_SMD:R_0603_1608Metric" V 5890 1840 50  0001 C CNN
F 3 "~" H 5850 1850 50  0001 C CNN
	1    5850 1850
	1    0    0    -1  
$EndComp
$Comp
L Device:R_US R25
U 1 1 5E8B98FF
P 6200 1850
F 0 "R25" H 6268 1896 50  0000 L CNN
F 1 "330" H 6268 1805 50  0000 L CNN
F 2 "Resistor_SMD:R_0603_1608Metric" V 6240 1840 50  0001 C CNN
F 3 "~" H 6200 1850 50  0001 C CNN
	1    6200 1850
	1    0    0    -1  
$EndComp
$Comp
L Device:R_US R27
U 1 1 5E8B9D52
P 6550 1850
F 0 "R27" H 6618 1896 50  0000 L CNN
F 1 "330" H 6618 1805 50  0000 L CNN
F 2 "Resistor_SMD:R_0603_1608Metric" V 6590 1840 50  0001 C CNN
F 3 "~" H 6550 1850 50  0001 C CNN
	1    6550 1850
	1    0    0    -1  
$EndComp
$Comp
L Device:R_US R28
U 1 1 5E8BA135
P 6950 1850
F 0 "R28" H 7018 1896 50  0000 L CNN
F 1 "1k" H 7018 1805 50  0000 L CNN
F 2 "Resistor_SMD:R_0603_1608Metric" V 6990 1840 50  0001 C CNN
F 3 "~" H 6950 1850 50  0001 C CNN
	1    6950 1850
	1    0    0    -1  
$EndComp
$Comp
L power:GND #PWR084
U 1 1 5E8BA536
P 5850 2300
F 0 "#PWR084" H 5850 2050 50  0001 C CNN
F 1 "GND" H 5855 2127 50  0000 C CNN
F 2 "" H 5850 2300 50  0001 C CNN
F 3 "" H 5850 2300 50  0001 C CNN
	1    5850 2300
	1    0    0    -1  
$EndComp
$Comp
L power:GND #PWR087
U 1 1 5E8BA92A
P 6200 2300
F 0 "#PWR087" H 6200 2050 50  0001 C CNN
F 1 "GND" H 6205 2127 50  0000 C CNN
F 2 "" H 6200 2300 50  0001 C CNN
F 3 "" H 6200 2300 50  0001 C CNN
	1    6200 2300
	1    0    0    -1  
$EndComp
$Comp
L power:GND #PWR089
U 1 1 5E8BACDB
P 6550 2300
F 0 "#PWR089" H 6550 2050 50  0001 C CNN
F 1 "GND" H 6555 2127 50  0000 C CNN
F 2 "" H 6550 2300 50  0001 C CNN
F 3 "" H 6550 2300 50  0001 C CNN
	1    6550 2300
	1    0    0    -1  
$EndComp
$Comp
L power:GND #PWR091
U 1 1 5E8BB1DA
P 6950 2300
F 0 "#PWR091" H 6950 2050 50  0001 C CNN
F 1 "GND" H 6955 2127 50  0000 C CNN
F 2 "" H 6950 2300 50  0001 C CNN
F 3 "" H 6950 2300 50  0001 C CNN
	1    6950 2300
	1    0    0    -1  
$EndComp
$Comp
L power:+5V #PWR088
U 1 1 5E8BB669
P 6550 1700
F 0 "#PWR088" H 6550 1550 50  0001 C CNN
F 1 "+5V" H 6565 1873 50  0000 C CNN
F 2 "" H 6550 1700 50  0001 C CNN
F 3 "" H 6550 1700 50  0001 C CNN
	1    6550 1700
	1    0    0    -1  
$EndComp
$Comp
L power:+1V2 #PWR083
U 1 1 5E8C08CD
P 5850 1700
F 0 "#PWR083" H 5850 1550 50  0001 C CNN
F 1 "+1V2" H 5865 1873 50  0000 C CNN
F 2 "" H 5850 1700 50  0001 C CNN
F 3 "" H 5850 1700 50  0001 C CNN
	1    5850 1700
	1    0    0    -1  
$EndComp
$Comp
L power:+12V #PWR090
U 1 1 5E8C55AF
P 6950 1700
F 0 "#PWR090" H 6950 1550 50  0001 C CNN
F 1 "+12V" H 6965 1873 50  0000 C CNN
F 2 "" H 6950 1700 50  0001 C CNN
F 3 "" H 6950 1700 50  0001 C CNN
	1    6950 1700
	1    0    0    -1  
$EndComp
$Comp
L Device:LED D2
U 1 1 5E8B0FC8
P 5500 2150
F 0 "D2" V 5493 2032 50  0000 R CNN
F 1 "LED" V 5448 2033 50  0001 R CNN
F 2 "LED_SMD:LED_0603_1608Metric" H 5500 2150 50  0001 C CNN
F 3 "~" H 5500 2150 50  0001 C CNN
	1    5500 2150
	0    -1   -1   0   
$EndComp
$Comp
L Device:R_US R22
U 1 1 5E8AF2C7
P 5500 1850
F 0 "R22" H 5568 1896 50  0000 L CNN
F 1 "330" H 5568 1805 50  0000 L CNN
F 2 "Resistor_SMD:R_0603_1608Metric" V 5540 1840 50  0001 C CNN
F 3 "~" H 5500 1850 50  0001 C CNN
	1    5500 1850
	1    0    0    -1  
$EndComp
$Comp
L Device:LED D3
U 1 1 5E8B7CCC
P 5850 2150
F 0 "D3" V 5843 2032 50  0000 R CNN
F 1 "LED" V 5798 2033 50  0001 R CNN
F 2 "LED_SMD:LED_0603_1608Metric" H 5850 2150 50  0001 C CNN
F 3 "~" H 5850 2150 50  0001 C CNN
	1    5850 2150
	0    -1   -1   0   
$EndComp
$Comp
L dk_Transistors-FETs-MOSFETs-Single:2N7002P_215 Q1
U 1 1 5E8CEB72
P 5500 2500
F 0 "Q1" H 5608 2500 60  0000 L CNN
F 1 "2N7002P_215" H 5608 2447 60  0001 L CNN
F 2 "digikey-footprints:SOT-23-3" H 5700 2700 60  0001 L CNN
F 3 "https://assets.nexperia.com/documents/data-sheet/2N7002P.pdf" H 5700 2800 60  0001 L CNN
F 4 "1727-4692-1-ND" H 5700 2900 60  0001 L CNN "Digi-Key_PN"
F 5 "2N7002P,215" H 5700 3000 60  0001 L CNN "MPN"
F 6 "Discrete Semiconductor Products" H 5700 3100 60  0001 L CNN "Category"
F 7 "Transistors - FETs, MOSFETs - Single" H 5700 3200 60  0001 L CNN "Family"
F 8 "https://assets.nexperia.com/documents/data-sheet/2N7002P.pdf" H 5700 3300 60  0001 L CNN "DK_Datasheet_Link"
F 9 "/product-detail/en/nexperia-usa-inc/2N7002P,215/1727-4692-1-ND/2531105" H 5700 3400 60  0001 L CNN "DK_Detail_Page"
F 10 "MOSFET N-CH 60V 0.36A SOT-23" H 5700 3500 60  0001 L CNN "Description"
F 11 "Nexperia USA Inc." H 5700 3600 60  0001 L CNN "Manufacturer"
F 12 "Active" H 5700 3700 60  0001 L CNN "Status"
	1    5500 2500
	1    0    0    -1  
$EndComp
$Comp
L power:+3V3 #PWR079
U 1 1 5E8D0978
P 5500 1700
F 0 "#PWR079" H 5500 1550 50  0001 C CNN
F 1 "+3V3" H 5515 1873 50  0000 C CNN
F 2 "" H 5500 1700 50  0001 C CNN
F 3 "" H 5500 1700 50  0001 C CNN
	1    5500 1700
	1    0    0    -1  
$EndComp
$Comp
L power:GND #PWR080
U 1 1 5E8D61FC
P 5500 2700
F 0 "#PWR080" H 5500 2450 50  0001 C CNN
F 1 "GND" H 5505 2527 50  0000 C CNN
F 2 "" H 5500 2700 50  0001 C CNN
F 3 "" H 5500 2700 50  0001 C CNN
	1    5500 2700
	1    0    0    -1  
$EndComp
$Comp
L Device:R_US R20
U 1 1 5E8D7EA7
P 5200 2800
F 0 "R20" H 5268 2846 50  0000 L CNN
F 1 "10k" H 5268 2755 50  0000 L CNN
F 2 "Resistor_SMD:R_0603_1608Metric" V 5240 2790 50  0001 C CNN
F 3 "~" H 5200 2800 50  0001 C CNN
	1    5200 2800
	1    0    0    -1  
$EndComp
$Comp
L power:GND #PWR075
U 1 1 5E8D8791
P 5200 3000
F 0 "#PWR075" H 5200 2750 50  0001 C CNN
F 1 "GND" H 5205 2827 50  0000 C CNN
F 2 "" H 5200 3000 50  0001 C CNN
F 3 "" H 5200 3000 50  0001 C CNN
	1    5200 3000
	1    0    0    -1  
$EndComp
Text GLabel 5200 2550 1    50   Input ~ 0
UserLED
Wire Wire Line
	5200 2650 5200 2600
Wire Wire Line
	5200 2550 5200 2600
Connection ~ 5200 2600
Text Notes 5950 1450 0    50   ~ 0
Indicator LEDs
Wire Notes Line
	7200 1350 7200 3250
Wire Notes Line
	7200 3250 5100 3250
Wire Notes Line
	5100 3250 5100 1350
Wire Notes Line
	5100 1350 7200 1350
Wire Notes Line
	5000 800  550  800 
$Comp
L Device:C C26
U 1 1 5E98E48E
P 2350 2050
F 0 "C26" H 2465 2096 50  0000 L CNN
F 1 "0.1uF" H 2465 2005 50  0000 L CNN
F 2 "Capacitor_SMD:C_0603_1608Metric" H 2388 1900 50  0001 C CNN
F 3 "~" H 2350 2050 50  0001 C CNN
	1    2350 2050
	1    0    0    -1  
$EndComp
$Comp
L Device:C C22
U 1 1 5E98EA31
P 1900 2050
F 0 "C22" H 2015 2096 50  0000 L CNN
F 1 "0.1uF" H 2015 2005 50  0000 L CNN
F 2 "Capacitor_SMD:C_0603_1608Metric" H 1938 1900 50  0001 C CNN
F 3 "~" H 1900 2050 50  0001 C CNN
	1    1900 2050
	1    0    0    -1  
$EndComp
Wire Wire Line
	1900 2200 2350 2200
Wire Wire Line
	2350 2200 2800 2200
Connection ~ 2350 2200
Connection ~ 2800 2200
Wire Wire Line
	2800 1900 2350 1900
Connection ~ 2800 1900
Wire Wire Line
	2350 1900 1900 1900
Connection ~ 2350 1900
$Comp
L Device:C C18
U 1 1 5E9B41DC
P 1450 1250
F 0 "C18" H 1565 1296 50  0000 L CNN
F 1 "0.1uF" H 1565 1205 50  0000 L CNN
F 2 "Capacitor_SMD:C_0603_1608Metric" H 1488 1100 50  0001 C CNN
F 3 "~" H 1450 1250 50  0001 C CNN
	1    1450 1250
	1    0    0    -1  
$EndComp
$Comp
L Device:C C13
U 1 1 5E9B4533
P 1000 1250
F 0 "C13" H 1115 1296 50  0000 L CNN
F 1 "0.1uF" H 1115 1205 50  0000 L CNN
F 2 "Capacitor_SMD:C_0603_1608Metric" H 1038 1100 50  0001 C CNN
F 3 "~" H 1000 1250 50  0001 C CNN
	1    1000 1250
	1    0    0    -1  
$EndComp
$Comp
L Device:C C14
U 1 1 5E9B4849
P 1450 2050
F 0 "C14" H 1565 2096 50  0000 L CNN
F 1 "0.1uF" H 1565 2005 50  0000 L CNN
F 2 "Capacitor_SMD:C_0603_1608Metric" H 1488 1900 50  0001 C CNN
F 3 "~" H 1450 2050 50  0001 C CNN
	1    1450 2050
	1    0    0    -1  
$EndComp
$Comp
L Device:C C19
U 1 1 5E9B4BE7
P 1000 2050
F 0 "C19" H 1115 2096 50  0000 L CNN
F 1 "0.1uF" H 1115 2005 50  0000 L CNN
F 2 "Capacitor_SMD:C_0603_1608Metric" H 1038 1900 50  0001 C CNN
F 3 "~" H 1000 2050 50  0001 C CNN
	1    1000 2050
	1    0    0    -1  
$EndComp
Wire Wire Line
	1000 1400 1450 1400
Wire Wire Line
	1450 1400 1900 1400
Connection ~ 1450 1400
Connection ~ 1900 1400
Wire Wire Line
	1900 1100 1450 1100
Connection ~ 1900 1100
Wire Wire Line
	1000 1100 1450 1100
Connection ~ 1450 1100
Wire Wire Line
	1900 2200 1450 2200
Connection ~ 1900 2200
Wire Wire Line
	1450 2200 1000 2200
Connection ~ 1450 2200
$Comp
L power:+1V5 #PWR073
U 1 1 5E9D093A
P 4600 2700
F 0 "#PWR073" H 4600 2550 50  0001 C CNN
F 1 "+1V5" H 4615 2873 50  0000 C CNN
F 2 "" H 4600 2700 50  0001 C CNN
F 3 "" H 4600 2700 50  0001 C CNN
	1    4600 2700
	1    0    0    -1  
$EndComp
$Comp
L Device:C C47
U 1 1 5E9D0BD5
P 4600 2850
F 0 "C47" H 4715 2896 50  0000 L CNN
F 1 "0.1uF" H 4715 2805 50  0000 L CNN
F 2 "Capacitor_SMD:C_0603_1608Metric" H 4638 2700 50  0001 C CNN
F 3 "~" H 4600 2850 50  0001 C CNN
	1    4600 2850
	1    0    0    -1  
$EndComp
$Comp
L power:GND #PWR074
U 1 1 5E9D10BA
P 4600 3000
F 0 "#PWR074" H 4600 2750 50  0001 C CNN
F 1 "GND" H 4605 2827 50  0000 C CNN
F 2 "" H 4600 3000 50  0001 C CNN
F 3 "" H 4600 3000 50  0001 C CNN
	1    4600 3000
	1    0    0    -1  
$EndComp
$Comp
L Device:C C42
U 1 1 5EA61BC8
P 4150 2850
F 0 "C42" H 4265 2896 50  0000 L CNN
F 1 "0.1uF" H 4265 2805 50  0000 L CNN
F 2 "Capacitor_SMD:C_0603_1608Metric" H 4188 2700 50  0001 C CNN
F 3 "~" H 4150 2850 50  0001 C CNN
	1    4150 2850
	1    0    0    -1  
$EndComp
$Comp
L Device:C C38
U 1 1 5EA62078
P 3700 2850
F 0 "C38" H 3815 2896 50  0000 L CNN
F 1 "0.1uF" H 3815 2805 50  0000 L CNN
F 2 "Capacitor_SMD:C_0603_1608Metric" H 3738 2700 50  0001 C CNN
F 3 "~" H 3700 2850 50  0001 C CNN
	1    3700 2850
	1    0    0    -1  
$EndComp
$Comp
L Device:C C33
U 1 1 5EA6267A
P 3250 2850
F 0 "C33" H 3365 2896 50  0000 L CNN
F 1 "0.1uF" H 3365 2805 50  0000 L CNN
F 2 "Capacitor_SMD:C_0603_1608Metric" H 3288 2700 50  0001 C CNN
F 3 "~" H 3250 2850 50  0001 C CNN
	1    3250 2850
	1    0    0    -1  
$EndComp
$Comp
L Device:C C30
U 1 1 5EA62AE1
P 2800 2850
F 0 "C30" H 2915 2896 50  0000 L CNN
F 1 "0.1uF" H 2915 2805 50  0000 L CNN
F 2 "Capacitor_SMD:C_0603_1608Metric" H 2838 2700 50  0001 C CNN
F 3 "~" H 2800 2850 50  0001 C CNN
	1    2800 2850
	1    0    0    -1  
$EndComp
Wire Wire Line
	2800 2700 3250 2700
Wire Wire Line
	3250 2700 3700 2700
Connection ~ 3250 2700
Wire Wire Line
	3700 2700 4150 2700
Connection ~ 3700 2700
Wire Wire Line
	4150 2700 4600 2700
Connection ~ 4150 2700
Connection ~ 4600 2700
Wire Wire Line
	4600 3000 4150 3000
Connection ~ 4600 3000
Wire Wire Line
	4150 3000 3700 3000
Connection ~ 4150 3000
Wire Wire Line
	3700 3000 3250 3000
Connection ~ 3700 3000
Wire Wire Line
	3250 3000 2800 3000
Connection ~ 3250 3000
Wire Notes Line
	5000 3250 550  3250
Wire Notes Line
	550  800  550  3250
Wire Notes Line
	5000 800  5000 3250
Text Notes 7400 3250 0    50   ~ 0
Note: we probabally dont need this the 1V2 LDO. \nIn the reference design they used it, \nbut I wouldn't populate this unless we need it
Wire Wire Line
	5200 2950 5200 3000
$Comp
L TPS54386:TPS54386PWPR U4
U 1 1 5EDE20DC
P 2650 4200
F 0 "U4" H 4000 4350 60  0000 C CNN
F 1 "TPS54386PWPR" H 3950 4000 60  0000 C CNN
F 2 "Package_SO:TSSOP-14-1EP_4.4x5mm_P0.65mm" H 3950 4440 60  0001 C CNN
F 3 "http://www.ti.com/general/docs/suppproductinfo.tsp?distId=10&gotoUrl=http%3A%2F%2Fwww.ti.com%2Flit%2Fgpn%2Ftps54386" H 2650 4200 60  0001 C CNN
F 4 "296-23109-1-ND" H 2650 4200 50  0001 C CNN "Digi-Key_PN"
	1    2650 4200
	1    0    0    -1  
$EndComp
NoConn ~ 5250 4200
$Comp
L power:+5V #PWR062
U 1 1 5EE0BE4F
P 2650 3600
F 0 "#PWR062" H 2650 3450 50  0001 C CNN
F 1 "+5V" H 2665 3773 50  0000 C CNN
F 2 "" H 2650 3600 50  0001 C CNN
F 3 "" H 2650 3600 50  0001 C CNN
	1    2650 3600
	1    0    0    -1  
$EndComp
$Comp
L power:+5V #PWR076
U 1 1 5EE11DAD
P 5250 3600
F 0 "#PWR076" H 5250 3450 50  0001 C CNN
F 1 "+5V" H 5265 3773 50  0000 C CNN
F 2 "" H 5250 3600 50  0001 C CNN
F 3 "" H 5250 3600 50  0001 C CNN
	1    5250 3600
	1    0    0    -1  
$EndComp
$Comp
L Device:C C34
U 1 1 5EE172D7
P 3400 3750
F 0 "C34" H 3515 3796 50  0000 L CNN
F 1 "0.1uF" H 3515 3705 50  0000 L CNN
F 2 "Capacitor_SMD:C_0603_1608Metric" H 3438 3600 50  0001 C CNN
F 3 "~" H 3400 3750 50  0001 C CNN
	1    3400 3750
	1    0    0    -1  
$EndComp
$Comp
L Device:C C43
U 1 1 5EE19F8A
P 4250 3750
F 0 "C43" H 4365 3796 50  0000 L CNN
F 1 "0.1uF" H 4365 3705 50  0000 L CNN
F 2 "Capacitor_SMD:C_0603_1608Metric" H 4288 3600 50  0001 C CNN
F 3 "~" H 4250 3750 50  0001 C CNN
	1    4250 3750
	1    0    0    -1  
$EndComp
$Comp
L power:GND #PWR064
U 1 1 5EE1A8A1
P 3400 3900
F 0 "#PWR064" H 3400 3650 50  0001 C CNN
F 1 "GND" H 3405 3727 50  0000 C CNN
F 2 "" H 3400 3900 50  0001 C CNN
F 3 "" H 3400 3900 50  0001 C CNN
	1    3400 3900
	1    0    0    -1  
$EndComp
$Comp
L power:GND #PWR067
U 1 1 5EE1AC8F
P 4250 3900
F 0 "#PWR067" H 4250 3650 50  0001 C CNN
F 1 "GND" H 4255 3727 50  0000 C CNN
F 2 "" H 4250 3900 50  0001 C CNN
F 3 "" H 4250 3900 50  0001 C CNN
	1    4250 3900
	1    0    0    -1  
$EndComp
Wire Wire Line
	2650 3600 2650 4200
Wire Wire Line
	2650 3600 3400 3600
Connection ~ 2650 3600
Wire Wire Line
	5250 3600 4250 3600
Wire Wire Line
	5250 3600 5300 3600
Wire Wire Line
	5300 3600 5300 4300
Wire Wire Line
	5300 4300 5250 4300
Connection ~ 5250 3600
$Comp
L Device:C C27
U 1 1 5EE36435
P 2450 4300
F 0 "C27" H 2400 4400 50  0000 L CNN
F 1 "33nF" H 2350 4200 50  0000 L CNN
F 2 "Capacitor_SMD:C_0603_1608Metric" H 2488 4150 50  0001 C CNN
F 3 "~" H 2450 4300 50  0001 C CNN
	1    2450 4300
	0    1    1    0   
$EndComp
$Comp
L power:GND #PWR060
U 1 1 5EE37519
P 2600 4600
F 0 "#PWR060" H 2600 4350 50  0001 C CNN
F 1 "GND" V 2605 4472 50  0000 R CNN
F 2 "" H 2600 4600 50  0001 C CNN
F 3 "" H 2600 4600 50  0001 C CNN
	1    2600 4600
	0    1    1    0   
$EndComp
$Comp
L power:GND #PWR077
U 1 1 5EE37B9D
P 5300 4750
F 0 "#PWR077" H 5300 4500 50  0001 C CNN
F 1 "GND" V 5300 4700 50  0000 R CNN
F 2 "" H 5300 4750 50  0001 C CNN
F 3 "" H 5300 4750 50  0001 C CNN
	1    5300 4750
	0    -1   -1   0   
$EndComp
Wire Wire Line
	2650 4300 2600 4300
Wire Wire Line
	2650 4400 2200 4400
Wire Wire Line
	2200 4400 2200 4300
Wire Wire Line
	2200 4300 2300 4300
Wire Wire Line
	2650 4500 2600 4500
Wire Wire Line
	2600 4500 2600 4600
Wire Wire Line
	2650 4700 2600 4700
Wire Wire Line
	2600 4700 2600 4600
Connection ~ 2600 4600
Wire Wire Line
	2650 4600 2600 4600
Wire Wire Line
	5250 4700 5300 4700
Wire Wire Line
	5300 4700 5300 4750
Wire Wire Line
	5250 4800 5300 4800
Wire Wire Line
	5300 4800 5300 4750
Connection ~ 5300 4750
$Comp
L Device:C C49
U 1 1 5EE59D4A
P 5450 4600
F 0 "C49" H 5400 4700 50  0000 L CNN
F 1 "4uF" H 5350 4500 50  0000 L CNN
F 2 "Capacitor_SMD:C_0603_1608Metric" H 5488 4450 50  0001 C CNN
F 3 "~" H 5450 4600 50  0001 C CNN
	1    5450 4600
	0    1    1    0   
$EndComp
Wire Wire Line
	5250 4600 5300 4600
$Comp
L power:GND #PWR081
U 1 1 5EE5FF93
P 5600 4700
F 0 "#PWR081" H 5600 4450 50  0001 C CNN
F 1 "GND" H 5650 4600 50  0000 C CNN
F 2 "" H 5600 4700 50  0001 C CNN
F 3 "" H 5600 4700 50  0001 C CNN
	1    5600 4700
	1    0    0    -1  
$EndComp
$Comp
L Device:R_US R19
U 1 1 5EE6610E
P 2600 4950
F 0 "R19" H 2668 4996 50  0000 L CNN
F 1 "6.8K" H 2668 4905 50  0000 L CNN
F 2 "Resistor_SMD:R_0603_1608Metric" V 2640 4940 50  0001 C CNN
F 3 "~" H 2600 4950 50  0001 C CNN
	1    2600 4950
	1    0    0    -1  
$EndComp
$Comp
L power:GND #PWR061
U 1 1 5EE6AE91
P 2600 5100
F 0 "#PWR061" H 2600 4850 50  0001 C CNN
F 1 "GND" H 2605 4927 50  0000 C CNN
F 2 "" H 2600 5100 50  0001 C CNN
F 3 "" H 2600 5100 50  0001 C CNN
	1    2600 5100
	1    0    0    -1  
$EndComp
$Comp
L Device:C C24
U 1 1 5EE6B5CC
P 2100 4450
F 0 "C24" H 2050 4550 50  0000 L CNN
F 1 "470pF" H 2000 4350 50  0000 L CNN
F 2 "Capacitor_SMD:C_0603_1608Metric" H 2138 4300 50  0001 C CNN
F 3 "~" H 2100 4450 50  0001 C CNN
	1    2100 4450
	-1   0    0    1   
$EndComp
$Comp
L Device:R_US R18
U 1 1 5EE6BE31
P 2100 4750
F 0 "R18" H 2168 4796 50  0000 L CNN
F 1 "10" H 2168 4705 50  0000 L CNN
F 2 "Resistor_SMD:R_0603_1608Metric" V 2140 4740 50  0001 C CNN
F 3 "~" H 2100 4750 50  0001 C CNN
	1    2100 4750
	1    0    0    -1  
$EndComp
$Comp
L Device:D D?
U 1 1 5EE79FC8
P 1900 4450
AR Path="/5E755028/5EE79FC8" Ref="D?"  Part="1" 
AR Path="/5E754FE4/5EE79FC8" Ref="D1"  Part="1" 
F 0 "D1" H 1800 4400 50  0000 C CNN
F 1 "1N914BWT" H 1900 4325 50  0001 C CNN
F 2 "Diode_SMD:D_SOD-323" H 1900 4450 50  0001 C CNN
F 3 "https://www.onsemi.com/pub/Collateral/1N914BWS-D.pdf" H 1900 4450 50  0001 C CNN
F 4 "1N914BWSCT-ND" H 1900 4450 50  0001 C CNN "Digi-Key_PN"
	1    1900 4450
	0    1    1    0   
$EndComp
$Comp
L SRN6045-8R2Y:SRN6045-8R2Y L4
U 1 1 5EE843F0
P 1200 4300
F 0 "L4" H 1500 4433 60  0000 C CNN
F 1 "SRN6045-8R2Y" H 1500 4539 60  0001 C CNN
F 2 "footprints:SRN6045-8R2Y" H 1475 4015 60  0001 C CNN
F 3 "https://www.bourns.com/docs/Product-Datasheets/SRN6045.pdf" H 1500 4433 60  0001 C CNN
F 4 "SRN6045-8R2YCT-ND" H 1200 4300 50  0001 C CNN "Digi-Key_PN"
	1    1200 4300
	1    0    0    -1  
$EndComp
$Comp
L Device:C C16
U 1 1 5EE8D948
P 1150 4450
F 0 "C16" H 1100 4550 50  0000 L CNN
F 1 "22uF" H 1050 4350 50  0000 L CNN
F 2 "Capacitor_SMD:C_0603_1608Metric" H 1188 4300 50  0001 C CNN
F 3 "~" H 1150 4450 50  0001 C CNN
	1    1150 4450
	-1   0    0    1   
$EndComp
$Comp
L Device:C C12
U 1 1 5EE8DED3
P 950 4450
F 0 "C12" H 900 4550 50  0000 L CNN
F 1 "22uF" H 850 4350 50  0000 L CNN
F 2 "Capacitor_SMD:C_0603_1608Metric" H 988 4300 50  0001 C CNN
F 3 "~" H 950 4450 50  0001 C CNN
	1    950  4450
	-1   0    0    1   
$EndComp
$Comp
L Device:C C11
U 1 1 5EE8E0B9
P 750 4450
F 0 "C11" H 700 4550 50  0000 L CNN
F 1 "47uF" H 650 4350 50  0000 L CNN
F 2 "Capacitor_SMD:C_0603_1608Metric" H 788 4300 50  0001 C CNN
F 3 "~" H 750 4450 50  0001 C CNN
	1    750  4450
	-1   0    0    1   
$EndComp
$Comp
L power:+3V3 #PWR055
U 1 1 5EE8FBB1
P 650 4300
F 0 "#PWR055" H 650 4150 50  0001 C CNN
F 1 "+3V3" H 665 4473 50  0000 C CNN
F 2 "" H 650 4300 50  0001 C CNN
F 3 "" H 650 4300 50  0001 C CNN
	1    650  4300
	1    0    0    -1  
$EndComp
$Comp
L power:GND #PWR058
U 1 1 5EE93031
P 1900 4900
F 0 "#PWR058" H 1900 4650 50  0001 C CNN
F 1 "GND" H 1905 4727 50  0000 C CNN
F 2 "" H 1900 4900 50  0001 C CNN
F 3 "" H 1900 4900 50  0001 C CNN
	1    1900 4900
	1    0    0    -1  
$EndComp
$Comp
L Device:R_US R17
U 1 1 5EE93B23
P 1400 5150
F 0 "R17" H 1468 5196 50  0000 L CNN
F 1 "22k" H 1468 5105 50  0000 L CNN
F 2 "Resistor_SMD:R_0603_1608Metric" V 1440 5140 50  0001 C CNN
F 3 "~" H 1400 5150 50  0001 C CNN
	1    1400 5150
	0    1    1    0   
$EndComp
$Comp
L Device:C C17
U 1 1 5EE976C9
P 1400 5000
F 0 "C17" H 1350 5100 50  0000 L CNN
F 1 "100pF" H 1300 4900 50  0000 L CNN
F 2 "Capacitor_SMD:C_0603_1608Metric" H 1438 4850 50  0001 C CNN
F 3 "~" H 1400 5000 50  0001 C CNN
	1    1400 5000
	0    -1   -1   0   
$EndComp
Wire Wire Line
	2200 4300 2100 4300
Connection ~ 2200 4300
Wire Wire Line
	2100 4300 1900 4300
Connection ~ 2100 4300
Wire Wire Line
	1900 4300 1800 4300
Connection ~ 1900 4300
Wire Wire Line
	1200 4300 1150 4300
Wire Wire Line
	1150 4300 950  4300
Connection ~ 1150 4300
Wire Wire Line
	950  4300 750  4300
Connection ~ 950  4300
Wire Wire Line
	750  4300 650  4300
Connection ~ 750  4300
Wire Wire Line
	750  4600 950  4600
Wire Wire Line
	950  4600 1150 4600
Connection ~ 950  4600
Wire Wire Line
	1150 4600 1900 4600
Connection ~ 1150 4600
Wire Wire Line
	1900 4600 1900 4900
Connection ~ 1900 4600
Wire Wire Line
	1900 4900 2100 4900
Connection ~ 1900 4900
Wire Wire Line
	2650 4800 2600 4800
Wire Wire Line
	2600 4800 2350 4800
Wire Wire Line
	2350 4800 2350 5150
Wire Wire Line
	2350 5150 1550 5150
Connection ~ 2600 4800
Wire Wire Line
	1550 5000 1550 5150
Connection ~ 1550 5150
Wire Wire Line
	1250 5000 1250 5150
Wire Wire Line
	1250 5150 650  5150
Wire Wire Line
	650  5150 650  4300
Connection ~ 1250 5150
Connection ~ 650  4300
$Comp
L Device:C C48
U 1 1 5EF00318
P 5450 4400
F 0 "C48" H 5400 4500 50  0000 L CNN
F 1 "33nF" H 5350 4300 50  0000 L CNN
F 2 "Capacitor_SMD:C_0603_1608Metric" H 5488 4250 50  0001 C CNN
F 3 "~" H 5450 4400 50  0001 C CNN
	1    5450 4400
	0    1    1    0   
$EndComp
$Comp
L Device:C C50
U 1 1 5EF02661
P 5850 4550
F 0 "C50" H 5800 4650 50  0000 L CNN
F 1 "470pF" H 5750 4450 50  0000 L CNN
F 2 "Capacitor_SMD:C_0603_1608Metric" H 5888 4400 50  0001 C CNN
F 3 "~" H 5850 4550 50  0001 C CNN
	1    5850 4550
	-1   0    0    1   
$EndComp
$Comp
L Device:R_US R24
U 1 1 5EF04512
P 5850 4850
F 0 "R24" H 5918 4896 50  0000 L CNN
F 1 "10" H 5918 4805 50  0000 L CNN
F 2 "Resistor_SMD:R_0603_1608Metric" V 5890 4840 50  0001 C CNN
F 3 "~" H 5850 4850 50  0001 C CNN
	1    5850 4850
	1    0    0    -1  
$EndComp
$Comp
L SRN6045-8R2Y:SRN6045-8R2Y L7
U 1 1 5EF04DE7
P 5900 4400
F 0 "L7" H 6200 4533 60  0000 C CNN
F 1 "SRN6045-8R2Y" H 6200 4639 60  0001 C CNN
F 2 "footprints:SRN6045-8R2Y" H 6175 4115 60  0001 C CNN
F 3 "https://www.bourns.com/docs/Product-Datasheets/SRN6045.pdf" H 6200 4533 60  0001 C CNN
F 4 "SRN6045-8R2YCT-ND" H 5900 4400 50  0001 C CNN "Digi-Key_PN"
	1    5900 4400
	1    0    0    -1  
$EndComp
$Comp
L Device:C C52
U 1 1 5EF05949
P 6550 4550
F 0 "C52" H 6500 4650 50  0000 L CNN
F 1 "22uF" H 6450 4450 50  0000 L CNN
F 2 "Capacitor_SMD:C_0603_1608Metric" H 6588 4400 50  0001 C CNN
F 3 "~" H 6550 4550 50  0001 C CNN
	1    6550 4550
	-1   0    0    1   
$EndComp
$Comp
L Device:C C53
U 1 1 5EF060F7
P 6750 4550
F 0 "C53" H 6700 4650 50  0000 L CNN
F 1 "22uF" H 6650 4450 50  0000 L CNN
F 2 "Capacitor_SMD:C_0603_1608Metric" H 6788 4400 50  0001 C CNN
F 3 "~" H 6750 4550 50  0001 C CNN
	1    6750 4550
	-1   0    0    1   
$EndComp
$Comp
L Device:C C54
U 1 1 5EF069FF
P 6950 4550
F 0 "C54" H 6900 4650 50  0000 L CNN
F 1 "47uF" H 6850 4450 50  0000 L CNN
F 2 "Capacitor_SMD:C_0603_1608Metric" H 6988 4400 50  0001 C CNN
F 3 "~" H 6950 4550 50  0001 C CNN
	1    6950 4550
	-1   0    0    1   
$EndComp
$Comp
L Device:R_US R21
U 1 1 5EF0728F
P 5300 5050
F 0 "R21" H 5368 5096 50  0000 L CNN
F 1 "20k" H 5368 5005 50  0000 L CNN
F 2 "Resistor_SMD:R_0603_1608Metric" V 5340 5040 50  0001 C CNN
F 3 "~" H 5300 5050 50  0001 C CNN
	1    5300 5050
	1    0    0    -1  
$EndComp
$Comp
L Device:R_US R26
U 1 1 5EF07B44
P 6400 5100
F 0 "R26" H 6468 5146 50  0000 L CNN
F 1 "10k" H 6468 5055 50  0000 L CNN
F 2 "Resistor_SMD:R_0603_1608Metric" V 6440 5090 50  0001 C CNN
F 3 "~" H 6400 5100 50  0001 C CNN
	1    6400 5100
	0    1    1    0   
$EndComp
$Comp
L Device:C C51
U 1 1 5EF08469
P 6400 4950
F 0 "C51" H 6350 5050 50  0000 L CNN
F 1 "150pF" H 6300 4850 50  0000 L CNN
F 2 "Capacitor_SMD:C_0603_1608Metric" H 6438 4800 50  0001 C CNN
F 3 "~" H 6400 4950 50  0001 C CNN
	1    6400 4950
	0    -1   -1   0   
$EndComp
$Comp
L power:GND #PWR085
U 1 1 5EF08C54
P 6150 4700
F 0 "#PWR085" H 6150 4450 50  0001 C CNN
F 1 "GND" H 6155 4527 50  0000 C CNN
F 2 "" H 6150 4700 50  0001 C CNN
F 3 "" H 6150 4700 50  0001 C CNN
	1    6150 4700
	1    0    0    -1  
$EndComp
$Comp
L power:VCC #PWR092
U 1 1 5EF0A276
P 7000 4400
F 0 "#PWR092" H 7000 4250 50  0001 C CNN
F 1 "VCC" H 7017 4573 50  0000 C CNN
F 2 "" H 7000 4400 50  0001 C CNN
F 3 "" H 7000 4400 50  0001 C CNN
	1    7000 4400
	1    0    0    -1  
$EndComp
Wire Wire Line
	5250 4400 5300 4400
Wire Wire Line
	5250 4500 5600 4500
Wire Wire Line
	5600 4500 5600 4400
Wire Wire Line
	5600 4400 5700 4400
Connection ~ 5600 4400
Wire Wire Line
	5850 4400 5900 4400
Connection ~ 5850 4400
Wire Wire Line
	6500 4400 6550 4400
Wire Wire Line
	6550 4400 6750 4400
Connection ~ 6550 4400
Wire Wire Line
	6750 4400 6950 4400
Connection ~ 6750 4400
Wire Wire Line
	6950 4400 7000 4400
Connection ~ 6950 4400
Wire Wire Line
	6950 4700 6750 4700
Wire Wire Line
	6750 4700 6550 4700
Connection ~ 6750 4700
Wire Wire Line
	6550 4700 6150 4700
Connection ~ 6550 4700
Wire Wire Line
	6150 4700 6050 4700
Wire Wire Line
	6050 4700 6050 5000
Wire Wire Line
	6050 5000 5850 5000
Connection ~ 6150 4700
Wire Wire Line
	5300 4900 5250 4900
Wire Wire Line
	5300 4900 5600 4900
Wire Wire Line
	5600 4900 5600 5100
Wire Wire Line
	5600 5100 6250 5100
Connection ~ 5300 4900
Wire Wire Line
	6250 5100 6250 4950
Connection ~ 6250 5100
Wire Wire Line
	6550 4950 6550 5100
Wire Wire Line
	6550 5100 7000 5100
Wire Wire Line
	7000 5100 7000 4400
Connection ~ 6550 5100
Connection ~ 7000 4400
$Comp
L power:GND #PWR078
U 1 1 5EF8C799
P 5300 5200
F 0 "#PWR078" H 5300 4950 50  0001 C CNN
F 1 "GND" V 5300 5150 50  0000 R CNN
F 2 "" H 5300 5200 50  0001 C CNN
F 3 "" H 5300 5200 50  0001 C CNN
	1    5300 5200
	1    0    0    -1  
$EndComp
Text Notes 4350 3500 2    50   ~ 0
3.3V power from 5V
Wire Notes Line
	550  3350 550  5400
Wire Notes Line
	550  5400 7150 5400
Wire Notes Line
	7150 5400 7150 3350
Wire Notes Line
	7150 3350 550  3350
$Comp
L Device:D D?
U 1 1 5EF07714
P 5700 4550
AR Path="/5E755028/5EF07714" Ref="D?"  Part="1" 
AR Path="/5E754FE4/5EF07714" Ref="D18"  Part="1" 
F 0 "D18" H 5600 4500 50  0000 C CNN
F 1 "1N914BWT" H 5700 4425 50  0001 C CNN
F 2 "Diode_SMD:D_SOD-323" H 5700 4550 50  0001 C CNN
F 3 "https://www.onsemi.com/pub/Collateral/1N914BWS-D.pdf" H 5700 4550 50  0001 C CNN
F 4 "1N914BWSCT-ND" H 5700 4550 50  0001 C CNN "Digi-Key_PN"
	1    5700 4550
	0    1    1    0   
$EndComp
Connection ~ 5700 4400
Wire Wire Line
	5700 4400 5850 4400
Wire Wire Line
	5600 4600 5600 4700
Wire Wire Line
	5700 4700 5600 4700
Connection ~ 5600 4700
$Comp
L Connector:Conn_01x02_Male J3
U 1 1 5E832505
P 8400 2050
F 0 "J3" H 8508 2139 50  0000 C CNN
F 1 "Conn_01x02_Male" H 8508 2140 50  0001 C CNN
F 2 "Connector_PinHeader_2.54mm:PinHeader_1x02_P2.54mm_Vertical" H 8400 2050 50  0001 C CNN
F 3 "~" H 8400 2050 50  0001 C CNN
	1    8400 2050
	1    0    0    -1  
$EndComp
$Comp
L power:+12V #PWR043
U 1 1 5E83561E
P 8600 2050
F 0 "#PWR043" H 8600 1900 50  0001 C CNN
F 1 "+12V" H 8615 2223 50  0000 C CNN
F 2 "" H 8600 2050 50  0001 C CNN
F 3 "" H 8600 2050 50  0001 C CNN
	1    8600 2050
	1    0    0    -1  
$EndComp
$Comp
L power:GND #PWR044
U 1 1 5E835BE0
P 8600 2150
F 0 "#PWR044" H 8600 1900 50  0001 C CNN
F 1 "GND" H 8605 1977 50  0000 C CNN
F 2 "" H 8600 2150 50  0001 C CNN
F 3 "" H 8600 2150 50  0001 C CNN
	1    8600 2150
	0    -1   -1   0   
$EndComp
Text Notes 1000 3650 0    50   ~ 0
Vo = 0.8(22k/6.8k) + 0.8 = 3.3
Text Notes 5600 3650 0    50   ~ 0
Vo = 0.8(10k/20k) + 0.8 = 1.2
$Comp
L Device:C C55
U 1 1 5EDB31D1
P 700 1250
F 0 "C55" H 815 1296 50  0000 L CNN
F 1 "10uF" H 815 1205 50  0000 L CNN
F 2 "Capacitor_SMD:C_0603_1608Metric" H 738 1100 50  0001 C CNN
F 3 "~" H 700 1250 50  0001 C CNN
	1    700  1250
	1    0    0    -1  
$EndComp
$Comp
L Device:C C59
U 1 1 5EDB78B4
P 700 2050
F 0 "C59" H 815 2096 50  0000 L CNN
F 1 "10uF" H 815 2005 50  0000 L CNN
F 2 "Capacitor_SMD:C_0603_1608Metric" H 738 1900 50  0001 C CNN
F 3 "~" H 700 2050 50  0001 C CNN
	1    700  2050
	1    0    0    -1  
$EndComp
Wire Wire Line
	700  2200 1000 2200
Connection ~ 1000 2200
Wire Wire Line
	1000 1400 700  1400
Connection ~ 1000 1400
Wire Wire Line
	700  1100 1000 1100
Connection ~ 1000 1100
Text GLabel 2800 1900 1    50   Input ~ 0
3v3_CPU
$Comp
L Device:Ferrite_Bead FB?
U 1 1 5EE7C586
P 950 2800
AR Path="/5EC9AF07/5EE7C586" Ref="FB?"  Part="1" 
AR Path="/5E754FE4/5EE7C586" Ref="FB1"  Part="1" 
F 0 "FB1" H 1087 2800 50  0000 L CNN
F 1 "Ferrite_Bead" H 1087 2755 50  0001 L CNN
F 2 "Fuse:Fuse_0603_1608Metric" V 880 2800 50  0001 C CNN
F 3 "~" H 950 2800 50  0001 C CNN
F 4 "445-2205-1-ND" H 950 2800 50  0001 C CNN "Digi-Key_PN"
	1    950  2800
	1    0    0    -1  
$EndComp
$Comp
L Device:Ferrite_Bead FB?
U 1 1 5EE85695
P 1500 2800
AR Path="/5EC9AF07/5EE85695" Ref="FB?"  Part="1" 
AR Path="/5E754FE4/5EE85695" Ref="FB2"  Part="1" 
F 0 "FB2" H 1637 2800 50  0000 L CNN
F 1 "Ferrite_Bead" H 1637 2755 50  0001 L CNN
F 2 "Fuse:Fuse_0603_1608Metric" V 1430 2800 50  0001 C CNN
F 3 "~" H 1500 2800 50  0001 C CNN
F 4 "445-2205-1-ND" H 1500 2800 50  0001 C CNN "Digi-Key_PN"
	1    1500 2800
	1    0    0    -1  
$EndComp
$Comp
L power:+3V3 #PWR018
U 1 1 5EE85C5F
P 1250 2650
F 0 "#PWR018" H 1250 2500 50  0001 C CNN
F 1 "+3V3" H 1265 2823 50  0000 C CNN
F 2 "" H 1250 2650 50  0001 C CNN
F 3 "" H 1250 2650 50  0001 C CNN
	1    1250 2650
	1    0    0    -1  
$EndComp
Text GLabel 950  2950 3    50   Input ~ 0
3v3_CPU
Text GLabel 1500 2950 3    50   Input ~ 0
3v3_eMMC
Wire Wire Line
	1500 2650 1250 2650
Wire Wire Line
	1250 2650 950  2650
Connection ~ 1250 2650
$Comp
L Device:Ferrite_Bead FB?
U 1 1 5EE9FEB7
P 7950 5100
AR Path="/5EC9AF07/5EE9FEB7" Ref="FB?"  Part="1" 
AR Path="/5E754FE4/5EE9FEB7" Ref="FB3"  Part="1" 
F 0 "FB3" V 8132 5100 50  0000 C CNN
F 1 "Ferrite_Bead" H 8087 5055 50  0001 L CNN
F 2 "Fuse:Fuse_0603_1608Metric" V 7880 5100 50  0001 C CNN
F 3 "~" H 7950 5100 50  0001 C CNN
F 4 "445-2205-1-ND" H 7950 5100 50  0001 C CNN "Digi-Key_PN"
	1    7950 5100
	0    -1   -1   0   
$EndComp
$Comp
L power:VCC #PWR019
U 1 1 5EEA4B1E
P 7800 5100
F 0 "#PWR019" H 7800 4950 50  0001 C CNN
F 1 "VCC" H 7817 5273 50  0000 C CNN
F 2 "" H 7800 5100 50  0001 C CNN
F 3 "" H 7800 5100 50  0001 C CNN
	1    7800 5100
	0    -1   -1   0   
$EndComp
$Comp
L power:+1V2 #PWR020
U 1 1 5EEA9B13
P 8100 5100
F 0 "#PWR020" H 8100 4950 50  0001 C CNN
F 1 "+1V2" H 8115 5273 50  0000 C CNN
F 2 "" H 8100 5100 50  0001 C CNN
F 3 "" H 8100 5100 50  0001 C CNN
	1    8100 5100
	0    1    1    0   
$EndComp
Text Notes 7550 4850 0    50   ~ 0
In a pinch we could solder a ferrite here, \nif we need more current on the 1v2 line
Wire Notes Line
	7500 4650 9300 4650
Wire Notes Line
	9300 4650 9300 5250
Wire Notes Line
	9300 5250 7500 5250
Wire Notes Line
	7500 5250 7500 4650
Wire Wire Line
	1900 1900 1450 1900
Connection ~ 1900 1900
Wire Wire Line
	1450 1900 1000 1900
Connection ~ 1450 1900
$Comp
L power:+3V3 #PWR0185
U 1 1 5EFAB607
P 4150 1900
F 0 "#PWR0185" H 4150 1750 50  0001 C CNN
F 1 "+3V3" H 4165 2073 50  0000 C CNN
F 2 "" H 4150 1900 50  0001 C CNN
F 3 "" H 4150 1900 50  0001 C CNN
	1    4150 1900
	1    0    0    -1  
$EndComp
Connection ~ 4150 1900
$EndSCHEMATC
